{
  "arch_packages": "arm_cortex-a7_neon-vfpv4",
  "build_at": "2023-09-22 06:59:57",
  "default_packages": [
    "base-files",
    "libc",
    "libgcc",
    "busybox",
    "dropbear",
    "mtd",
    "uci",
    "opkg",
    "netifd",
    "fstools",
    "uclient-fetch",
    "logd",
    "urandom-seed",
    "urngd",
    "uboot-envtools",
    "partx-utils",
    "mkf2fs",
    "e2fsprogs",
    "dnsmasq",
    "iptables",
    "ip6tables",
    "ppp",
    "ppp-mod-pppoe",
    "firewall",
    "odhcpd-ipv6only",
    "odhcp6c",
    "kmod-ipt-offload",
    "uboot-envtools",
    "partx-utils",
    "mkf2fs",
    "e2fsprogs"
  ],
  "device_packages": [
    "kmod-rtc-sunxi",
    "kmod-ata-core",
    "kmod-ata-sunxi"
  ],
  "image_path": "releases/19.07.10/targets/sunxi/cortexa7/",
  "image_prefix": "openwrt-19.07.10-sunxi-cortexa7-sun7i-a20-bananapi",
  "images": [
    {
      "filesystem": "ext4",
      "name": "openwrt-19.07.10-sunxi-cortexa7-sun7i-a20-bananapi-ext4-sdcard.img.gz",
      "sha256": "fb62e0718ec0ea23d52cd05cb9f4df4e01ca663ffaa76abba8bbd9a82cdedd29",
      "type": "sdcard"
    },
    {
      "filesystem": "squashfs",
      "name": "openwrt-19.07.10-sunxi-cortexa7-sun7i-a20-bananapi-squashfs-sdcard.img.gz",
      "sha256": "4f8232c63c6febf04453aed3bc2b8ec152754b196cb070923c3de9da363f340d",
      "type": "sdcard"
    }
  ],
  "metadata_version": 1,
  "model_id": "sun7i-a20-bananapi",
  "source_date_epoch": 1650114812,
  "supported_devices": [
    "lemaker,bananapi"
  ],
  "target": "sunxi/cortexa7",
  "titles": [
    {
      "title": "LeMaker Banana Pi"
    }
  ],
  "version_code": "r11427-9ce6aa9d8d",
  "version_number": "19.07.10"
}