{
  "arch_packages": "aarch64_cortex-a72",
  "build_at": "2023-09-22 06:59:57",
  "default_packages": [
    "base-files",
    "busybox",
    "ca-bundle",
    "dnsmasq",
    "dropbear",
    "e2fsprogs",
    "ethtool",
    "firewall4",
    "fstools",
    "kmod-gpio-button-hotplug",
    "kmod-nft-offload",
    "libc",
    "libgcc",
    "libustream-wolfssl",
    "logd",
    "mkf2fs",
    "mtd",
    "netifd",
    "nftables",
    "odhcp6c",
    "odhcpd-ipv6only",
    "opkg",
    "partx-utils",
    "ppp",
    "ppp-mod-pppoe",
    "procd",
    "procd-seccomp",
    "procd-ujail",
    "uboot-envtools",
    "uci",
    "uclient-fetch",
    "urandom-seed",
    "urngd"
  ],
  "device_packages": [],
  "image_path": "releases/22.03.5/targets/mvebu/cortexa72/",
  "image_prefix": "openwrt-22.03.5-mvebu-cortexa72-globalscale_mochabin",
  "images": [
    {
      "filesystem": "initramfs",
      "name": "openwrt-22.03.5-mvebu-cortexa72-globalscale_mochabin-initramfs-kernel.bin",
      "sha256": "52b4d659c46c3a9da0c09bda6e09473e4f8e5bba40589d43197bc3b0afdc9ba9",
      "sha256_unsigned": "52b4d659c46c3a9da0c09bda6e09473e4f8e5bba40589d43197bc3b0afdc9ba9",
      "type": "kernel"
    },
    {
      "filesystem": "squashfs",
      "name": "openwrt-22.03.5-mvebu-cortexa72-globalscale_mochabin-squashfs-sdcard.img.gz",
      "sha256": "f50a692d871a116b68a9e949cb9e3dc6311e04f9dadba6ccdacba208c36fad69",
      "sha256_unsigned": "788459fc79d2bd027a3157534366ede8a4d0645be9cb8e475de02ccdbb9453f6",
      "type": "sdcard"
    },
    {
      "filesystem": "ext4",
      "name": "openwrt-22.03.5-mvebu-cortexa72-globalscale_mochabin-ext4-sdcard.img.gz",
      "sha256": "5c2140c6f6a9474bf2c61c8639766c286a30864c97166d8c711aacc2d55ff760",
      "sha256_unsigned": "02954be5c8eb19278d4dd0a7cce023e38b6ad029ff2364117a672fdcf6a9ac61",
      "type": "sdcard"
    }
  ],
  "metadata_version": 1,
  "model_id": "globalscale_mochabin",
  "source_date_epoch": 1682627295,
  "supported_devices": [
    "globalscale,mochabin"
  ],
  "target": "mvebu/cortexa72",
  "titles": [
    {
      "model": "MOCHAbin",
      "vendor": "Globalscale"
    }
  ],
  "version_code": "r20134-5f15225c1e",
  "version_number": "22.03.5"
}