{
  "arch_packages": "mipsel_24kc",
  "build_at": "2023-09-22 06:59:57",
  "default_packages": [
    "base-files",
    "busybox",
    "ca-bundle",
    "dnsmasq",
    "dropbear",
    "firewall4",
    "fstools",
    "kmod-gpio-button-hotplug",
    "kmod-leds-gpio",
    "kmod-nft-offload",
    "kmod-rt2800-soc",
    "libc",
    "libgcc",
    "libustream-wolfssl",
    "logd",
    "mtd",
    "netifd",
    "nftables",
    "odhcp6c",
    "odhcpd-ipv6only",
    "opkg",
    "ppp",
    "ppp-mod-pppoe",
    "procd",
    "procd-seccomp",
    "swconfig",
    "uci",
    "uclient-fetch",
    "urandom-seed",
    "urngd",
    "wpad-basic-wolfssl"
  ],
  "device_packages": [
    "kmod-usb-dwc2",
    "kmod-usb2",
    "kmod-usb-ohci",
    "kmod-usb-ledtrig-usbport",
    "kmod-leds-gpio"
  ],
  "image_path": "releases/22.03.5/targets/ramips/rt305x/",
  "image_prefix": "openwrt-22.03.5-ramips-rt305x-7links_px-4885-8m",
  "images": [
    {
      "filesystem": "squashfs",
      "name": "openwrt-22.03.5-ramips-rt305x-7links_px-4885-8m-squashfs-sysupgrade.bin",
      "sha256": "b15158c7519238fd8523e2637b5ce3c9492f53e1fe97b7dd1e8677cd0e5372c2",
      "sha256_unsigned": "6aaeca92c4a02db8431264cb3061463121c3e44b3c004545502d45f6190edf38",
      "type": "sysupgrade"
    },
    {
      "filesystem": "initramfs",
      "name": "openwrt-22.03.5-ramips-rt305x-7links_px-4885-8m-initramfs-kernel.bin",
      "sha256": "3198520ad849944a70c675d1f5df7667dc627625dfdfae547f7611fed7f0383e",
      "sha256_unsigned": "3198520ad849944a70c675d1f5df7667dc627625dfdfae547f7611fed7f0383e",
      "type": "kernel"
    }
  ],
  "metadata_version": 1,
  "model_id": "7links_px-4885-8m",
  "source_date_epoch": 1682627295,
  "supported_devices": [
    "7links,px-4885-8m",
    "px-4885-8M"
  ],
  "target": "ramips/rt305x",
  "titles": [
    {
      "model": "PX-4885",
      "variant": "8M",
      "vendor": "7Links"
    }
  ],
  "version_code": "r20134-5f15225c1e",
  "version_number": "22.03.5"
}