{
  "arch_packages": "mipsel_24kc",
  "build_at": "2023-09-22 06:59:57",
  "default_packages": [
    "base-files",
    "busybox",
    "ca-bundle",
    "dnsmasq",
    "dropbear",
    "firewall4",
    "fstools",
    "kmod-gpio-button-hotplug",
    "kmod-leds-gpio",
    "kmod-nft-offload",
    "kmod-rt2800-soc",
    "libc",
    "libgcc",
    "libustream-wolfssl",
    "logd",
    "mtd",
    "netifd",
    "nftables",
    "odhcp6c",
    "odhcpd-ipv6only",
    "opkg",
    "ppp",
    "ppp-mod-pppoe",
    "procd",
    "procd-seccomp",
    "swconfig",
    "uci",
    "uclient-fetch",
    "urandom-seed",
    "urngd",
    "wpad-basic-wolfssl"
  ],
  "device_packages": [
    "kmod-switch-rtl8366rb"
  ],
  "image_path": "releases/22.03.5/targets/ramips/rt305x/",
  "image_prefix": "openwrt-22.03.5-ramips-rt305x-belkin_f5d8235-v2",
  "images": [
    {
      "filesystem": "initramfs",
      "name": "openwrt-22.03.5-ramips-rt305x-belkin_f5d8235-v2-initramfs-kernel.bin",
      "sha256": "96984645c8eecb21db0818bdbdff28d6b310336e52134d916a0f82588ffc8090",
      "sha256_unsigned": "96984645c8eecb21db0818bdbdff28d6b310336e52134d916a0f82588ffc8090",
      "type": "kernel"
    },
    {
      "filesystem": "squashfs",
      "name": "openwrt-22.03.5-ramips-rt305x-belkin_f5d8235-v2-squashfs-sysupgrade.bin",
      "sha256": "6a6069c7ec0468e486351473cc254930d2f9b6a3babddfce6452fcbdade9dd0f",
      "sha256_unsigned": "2bf967de1314afc2ec9926d5a93e47f12831340e87064327ac22d27fa9b9aab6",
      "type": "sysupgrade"
    }
  ],
  "metadata_version": 1,
  "model_id": "belkin_f5d8235-v2",
  "source_date_epoch": 1682627295,
  "supported_devices": [
    "belkin,f5d8235-v2",
    "f5d8235-v2"
  ],
  "target": "ramips/rt305x",
  "titles": [
    {
      "model": "F5D8235",
      "variant": "v2",
      "vendor": "Belkin"
    }
  ],
  "version_code": "r20134-5f15225c1e",
  "version_number": "22.03.5"
}