{
  "arch_packages": "mipsel_24kc",
  "build_at": "2023-09-22 06:59:57",
  "default_packages": [
    "base-files",
    "busybox",
    "ca-bundle",
    "dnsmasq",
    "dropbear",
    "firewall4",
    "fstools",
    "kmod-gpio-button-hotplug",
    "kmod-leds-gpio",
    "kmod-nft-offload",
    "kmod-rt2800-soc",
    "libc",
    "libgcc",
    "libustream-wolfssl",
    "logd",
    "mtd",
    "netifd",
    "nftables",
    "odhcp6c",
    "odhcpd-ipv6only",
    "opkg",
    "ppp",
    "ppp-mod-pppoe",
    "procd",
    "procd-seccomp",
    "swconfig",
    "uci",
    "uclient-fetch",
    "urandom-seed",
    "urngd",
    "wpad-basic-wolfssl"
  ],
  "device_packages": [],
  "image_path": "releases/22.03.5/targets/ramips/rt305x/",
  "image_prefix": "openwrt-22.03.5-ramips-rt305x-mofinetwork_mofi3500-3gn",
  "images": [
    {
      "filesystem": "squashfs",
      "name": "openwrt-22.03.5-ramips-rt305x-mofinetwork_mofi3500-3gn-squashfs-sysupgrade.bin",
      "sha256": "55d8857b00a6e78aca50e1ab26a04d995eba5e283b2a0e4ded28b741ac9bb085",
      "sha256_unsigned": "9578a3060f490232da00824e9b70adb6c04aee06ae568209cb764329dd050575",
      "type": "sysupgrade"
    },
    {
      "filesystem": "initramfs",
      "name": "openwrt-22.03.5-ramips-rt305x-mofinetwork_mofi3500-3gn-initramfs-kernel.bin",
      "sha256": "d2f19ba70895c2590f1ffebb4b298cb217c6a04bc2356d05c924e4068cc5518c",
      "sha256_unsigned": "d2f19ba70895c2590f1ffebb4b298cb217c6a04bc2356d05c924e4068cc5518c",
      "type": "kernel"
    }
  ],
  "metadata_version": 1,
  "model_id": "mofinetwork_mofi3500-3gn",
  "source_date_epoch": 1682627295,
  "supported_devices": [
    "mofinetwork,mofi3500-3gn",
    "mofi3500-3gn"
  ],
  "target": "ramips/rt305x",
  "titles": [
    {
      "model": "MOFI3500-3GN",
      "vendor": "MoFi Network"
    }
  ],
  "version_code": "r20134-5f15225c1e",
  "version_number": "22.03.5"
}