{
  "arch_packages": "mipsel_24kc",
  "build_at": "2023-09-22 06:59:57",
  "default_packages": [
    "base-files",
    "busybox",
    "ca-bundle",
    "dnsmasq",
    "dropbear",
    "firewall4",
    "fstools",
    "kmod-gpio-button-hotplug",
    "kmod-leds-gpio",
    "kmod-nft-offload",
    "kmod-rt2800-soc",
    "libc",
    "libgcc",
    "libustream-wolfssl",
    "logd",
    "mtd",
    "netifd",
    "nftables",
    "odhcp6c",
    "odhcpd-ipv6only",
    "opkg",
    "ppp",
    "ppp-mod-pppoe",
    "procd",
    "procd-seccomp",
    "swconfig",
    "uci",
    "uclient-fetch",
    "urandom-seed",
    "urngd",
    "wpad-basic-wolfssl"
  ],
  "device_packages": [],
  "image_path": "releases/22.03.5/targets/ramips/rt305x/",
  "image_prefix": "openwrt-22.03.5-ramips-rt305x-omnima_miniembwifi",
  "images": [
    {
      "filesystem": "initramfs",
      "name": "openwrt-22.03.5-ramips-rt305x-omnima_miniembwifi-initramfs-kernel.bin",
      "sha256": "f128e55b1f7de8848e5f07b17163a5dcc6a50cd07cb737f1b1c1e8254c68afc9",
      "sha256_unsigned": "f128e55b1f7de8848e5f07b17163a5dcc6a50cd07cb737f1b1c1e8254c68afc9",
      "type": "kernel"
    },
    {
      "filesystem": "squashfs",
      "name": "openwrt-22.03.5-ramips-rt305x-omnima_miniembwifi-squashfs-sysupgrade.bin",
      "sha256": "451017fdfb9438290b2c12a81025c0d70aafdc3e1173e37709c3162b2ec9ca8e",
      "sha256_unsigned": "1ebb3d2aebfa1cca1f289b20f97f48164cf59eecb18a0f8b32eb28bb1776f02c",
      "type": "sysupgrade"
    }
  ],
  "metadata_version": 1,
  "model_id": "omnima_miniembwifi",
  "source_date_epoch": 1682627295,
  "supported_devices": [
    "omnima,miniembwifi",
    "miniembwifi"
  ],
  "target": "ramips/rt305x",
  "titles": [
    {
      "model": "MiniEMBWiFi",
      "vendor": "Omnima"
    }
  ],
  "version_code": "r20134-5f15225c1e",
  "version_number": "22.03.5"
}