{
  "arch_packages": "mipsel_24kc",
  "build_at": "2023-09-22 06:59:57",
  "default_packages": [
    "base-files",
    "busybox",
    "ca-bundle",
    "dnsmasq",
    "dropbear",
    "firewall4",
    "fstools",
    "kmod-gpio-button-hotplug",
    "kmod-leds-gpio",
    "kmod-nft-offload",
    "kmod-rt2800-soc",
    "libc",
    "libgcc",
    "libustream-wolfssl",
    "logd",
    "mtd",
    "netifd",
    "nftables",
    "odhcp6c",
    "odhcpd-ipv6only",
    "opkg",
    "ppp",
    "ppp-mod-pppoe",
    "procd",
    "procd-seccomp",
    "swconfig",
    "uci",
    "uclient-fetch",
    "urandom-seed",
    "urngd",
    "wpad-basic-wolfssl"
  ],
  "device_packages": [],
  "image_path": "releases/22.03.5/targets/ramips/rt305x/",
  "image_prefix": "openwrt-22.03.5-ramips-rt305x-unbranded_wr512-3gn-8m",
  "images": [
    {
      "filesystem": "initramfs",
      "name": "openwrt-22.03.5-ramips-rt305x-unbranded_wr512-3gn-8m-initramfs-kernel.bin",
      "sha256": "cffe70723e93bff569e26e50499bd2f9541f7c9361313317932b3d18108f445e",
      "sha256_unsigned": "cffe70723e93bff569e26e50499bd2f9541f7c9361313317932b3d18108f445e",
      "type": "kernel"
    },
    {
      "filesystem": "squashfs",
      "name": "openwrt-22.03.5-ramips-rt305x-unbranded_wr512-3gn-8m-squashfs-sysupgrade.bin",
      "sha256": "73f9944bf7389492cd95821aefbdd65a6e3f1e282f6e8ac37d4518fa5fb57b74",
      "sha256_unsigned": "780c0560f3a1816aade311e70410040534d773c5f39bb4ec013eb0a805628a90",
      "type": "sysupgrade"
    }
  ],
  "metadata_version": 1,
  "model_id": "unbranded_wr512-3gn-8m",
  "source_date_epoch": 1682627295,
  "supported_devices": [
    "unbranded,wr512-3gn-8m",
    "wr512-3gn-8M"
  ],
  "target": "ramips/rt305x",
  "titles": [
    {
      "model": "WR512-3GN",
      "variant": "8M",
      "vendor": "Unbranded"
    }
  ],
  "version_code": "r20134-5f15225c1e",
  "version_number": "22.03.5"
}