{
  "arch_packages": "mipsel_24kc",
  "build_at": "2023-09-22 06:59:57",
  "default_packages": [
    "base-files",
    "busybox",
    "ca-bundle",
    "dnsmasq",
    "dropbear",
    "firewall4",
    "fstools",
    "kmod-gpio-button-hotplug",
    "kmod-leds-gpio",
    "kmod-mt7603",
    "kmod-nft-offload",
    "libc",
    "libgcc",
    "libustream-wolfssl",
    "logd",
    "mtd",
    "netifd",
    "nftables",
    "odhcp6c",
    "odhcpd-ipv6only",
    "opkg",
    "ppp",
    "ppp-mod-pppoe",
    "procd",
    "procd-seccomp",
    "procd-ujail",
    "swconfig",
    "uci",
    "uclient-fetch",
    "urandom-seed",
    "urngd",
    "wpad-basic-wolfssl"
  ],
  "device_packages": [
    "kmod-mt76x2"
  ],
  "image_path": "releases/22.03.5/targets/ramips/mt76x8/",
  "image_prefix": "openwrt-22.03.5-ramips-mt76x8-comfast_cf-wr758ac-v1",
  "images": [
    {
      "filesystem": "squashfs",
      "name": "openwrt-22.03.5-ramips-mt76x8-comfast_cf-wr758ac-v1-squashfs-sysupgrade.bin",
      "sha256": "4e90509c1871b5be22c550b65bbbc83cb7656b9c8021c0e7c160d034b8616140",
      "sha256_unsigned": "a362b7d0364f602e2cd0952f74088b74f657f64d65376ef39b45a426d57ca4d8",
      "type": "sysupgrade"
    },
    {
      "filesystem": "initramfs",
      "name": "openwrt-22.03.5-ramips-mt76x8-comfast_cf-wr758ac-v1-initramfs-kernel.bin",
      "sha256": "04898a1fefd218e4d290e8a728158efd8d6eaf9d670e704c6e382d724b4031f2",
      "sha256_unsigned": "04898a1fefd218e4d290e8a728158efd8d6eaf9d670e704c6e382d724b4031f2",
      "type": "kernel"
    }
  ],
  "metadata_version": 1,
  "model_id": "comfast_cf-wr758ac-v1",
  "source_date_epoch": 1682627295,
  "supported_devices": [
    "comfast,cf-wr758ac-v1",
    "joowin,jw-wr758ac-v1"
  ],
  "target": "ramips/mt76x8",
  "titles": [
    {
      "model": "CF-WR758AC",
      "variant": "V1",
      "vendor": "COMFAST"
    },
    {
      "model": "JW-WR758AC",
      "variant": "V1",
      "vendor": "Joowin"
    }
  ],
  "version_code": "r20134-5f15225c1e",
  "version_number": "22.03.5"
}