{
  "arch_packages": "mipsel_24kc",
  "build_at": "2023-09-22 06:59:57",
  "default_packages": [
    "base-files",
    "busybox",
    "ca-bundle",
    "dnsmasq",
    "dropbear",
    "firewall4",
    "fstools",
    "kmod-gpio-button-hotplug",
    "kmod-leds-gpio",
    "kmod-mt7603",
    "kmod-nft-offload",
    "libc",
    "libgcc",
    "libustream-wolfssl",
    "logd",
    "mtd",
    "netifd",
    "nftables",
    "odhcp6c",
    "odhcpd-ipv6only",
    "opkg",
    "ppp",
    "ppp-mod-pppoe",
    "procd",
    "procd-seccomp",
    "procd-ujail",
    "swconfig",
    "uci",
    "uclient-fetch",
    "urandom-seed",
    "urngd",
    "wpad-basic-wolfssl"
  ],
  "device_packages": [
    "kmod-mt76x2"
  ],
  "image_path": "releases/22.03.5/targets/ramips/mt76x8/",
  "image_prefix": "openwrt-22.03.5-ramips-mt76x8-cudy_wr1000",
  "images": [
    {
      "filesystem": "squashfs",
      "name": "openwrt-22.03.5-ramips-mt76x8-cudy_wr1000-squashfs-sysupgrade.bin",
      "sha256": "75d1d84cacb4c34bc1aa69e65808a35d283026fb5000dc9aa770c7131ef93bfd",
      "sha256_unsigned": "76ad2ed0460fbb7ff201ad209ef15c64fa28618986dfa400a29ca264ff0f52fa",
      "type": "sysupgrade"
    },
    {
      "filesystem": "squashfs",
      "name": "openwrt-22.03.5-ramips-mt76x8-cudy_wr1000-squashfs-factory.bin",
      "sha256": "4d2f4b53beb9dc1f09c265b2f66e3111c04071160e05319404fe52967ef79568",
      "sha256_unsigned": "4d2f4b53beb9dc1f09c265b2f66e3111c04071160e05319404fe52967ef79568",
      "type": "factory"
    },
    {
      "filesystem": "initramfs",
      "name": "openwrt-22.03.5-ramips-mt76x8-cudy_wr1000-initramfs-kernel.bin",
      "sha256": "f5e6d8b581d258e772cf301736ebc62c1dba63bfb06a14d4525bb56fbfa2681d",
      "sha256_unsigned": "f5e6d8b581d258e772cf301736ebc62c1dba63bfb06a14d4525bb56fbfa2681d",
      "type": "kernel"
    }
  ],
  "metadata_version": 1,
  "model_id": "cudy_wr1000",
  "source_date_epoch": 1682627295,
  "supported_devices": [
    "cudy,wr1000",
    "wr1000"
  ],
  "target": "ramips/mt76x8",
  "titles": [
    {
      "model": "WR1000",
      "vendor": "Cudy"
    }
  ],
  "version_code": "r20134-5f15225c1e",
  "version_number": "22.03.5"
}