{
  "arch_packages": "mipsel_24kc",
  "build_at": "2023-09-22 06:59:57",
  "default_packages": [
    "base-files",
    "busybox",
    "ca-bundle",
    "dnsmasq",
    "dropbear",
    "firewall4",
    "fstools",
    "kmod-gpio-button-hotplug",
    "kmod-leds-gpio",
    "kmod-mt7603",
    "kmod-nft-offload",
    "libc",
    "libgcc",
    "libustream-wolfssl",
    "logd",
    "mtd",
    "netifd",
    "nftables",
    "odhcp6c",
    "odhcpd-ipv6only",
    "opkg",
    "ppp",
    "ppp-mod-pppoe",
    "procd",
    "procd-seccomp",
    "procd-ujail",
    "swconfig",
    "uci",
    "uclient-fetch",
    "urandom-seed",
    "urngd",
    "wpad-basic-wolfssl"
  ],
  "device_packages": [],
  "image_path": "releases/22.03.5/targets/ramips/mt76x8/",
  "image_prefix": "openwrt-22.03.5-ramips-mt76x8-glinet_vixmini",
  "images": [
    {
      "filesystem": "initramfs",
      "name": "openwrt-22.03.5-ramips-mt76x8-glinet_vixmini-initramfs-kernel.bin",
      "sha256": "c4ae8da8347b099c2fe1a05389414ed1ca076aba0d2999efcc30b5f3ac2bfc7d",
      "sha256_unsigned": "c4ae8da8347b099c2fe1a05389414ed1ca076aba0d2999efcc30b5f3ac2bfc7d",
      "type": "kernel"
    },
    {
      "filesystem": "squashfs",
      "name": "openwrt-22.03.5-ramips-mt76x8-glinet_vixmini-squashfs-sysupgrade.bin",
      "sha256": "40a24b117053792d5c7ab95106366243d6e625ca01cf28a02a4982fe9e18b8cf",
      "sha256_unsigned": "99e3fa1919513a8f3affbbd6eddb858fc7c7713dda660cf2b80fc8559d840410",
      "type": "sysupgrade"
    }
  ],
  "metadata_version": 1,
  "model_id": "glinet_vixmini",
  "source_date_epoch": 1682627295,
  "supported_devices": [
    "glinet,vixmini",
    "vixmini"
  ],
  "target": "ramips/mt76x8",
  "titles": [
    {
      "model": "VIXMINI",
      "vendor": "GL.iNet"
    }
  ],
  "version_code": "r20134-5f15225c1e",
  "version_number": "22.03.5"
}