{
  "arch_packages": "mipsel_24kc",
  "build_at": "2023-09-22 06:59:57",
  "default_packages": [
    "base-files",
    "busybox",
    "ca-bundle",
    "dnsmasq",
    "dropbear",
    "firewall4",
    "fstools",
    "kmod-gpio-button-hotplug",
    "kmod-leds-gpio",
    "kmod-mt7603",
    "kmod-nft-offload",
    "libc",
    "libgcc",
    "libustream-wolfssl",
    "logd",
    "mtd",
    "netifd",
    "nftables",
    "odhcp6c",
    "odhcpd-ipv6only",
    "opkg",
    "ppp",
    "ppp-mod-pppoe",
    "procd",
    "procd-seccomp",
    "procd-ujail",
    "swconfig",
    "uci",
    "uclient-fetch",
    "urandom-seed",
    "urngd",
    "wpad-basic-wolfssl"
  ],
  "device_packages": [
    "kmod-usb2",
    "kmod-usb-ohci",
    "uboot-envtools",
    "kmod-sdhci-mt7620"
  ],
  "image_path": "releases/22.03.5/targets/ramips/mt76x8/",
  "image_prefix": "openwrt-22.03.5-ramips-mt76x8-mediatek_linkit-smart-7688",
  "images": [
    {
      "filesystem": "initramfs",
      "name": "openwrt-22.03.5-ramips-mt76x8-mediatek_linkit-smart-7688-initramfs-kernel.bin",
      "sha256": "2c65b63542e8cd5506fa790dd9a2998b7716876185d1617310e229c061082880",
      "sha256_unsigned": "2c65b63542e8cd5506fa790dd9a2998b7716876185d1617310e229c061082880",
      "type": "kernel"
    },
    {
      "filesystem": "squashfs",
      "name": "openwrt-22.03.5-ramips-mt76x8-mediatek_linkit-smart-7688-squashfs-sysupgrade.bin",
      "sha256": "7af403d745c188c16fe277d5498a5f8f1641f479416e87e817066d6d851a7784",
      "sha256_unsigned": "b5fe372c55b4d94a7c6fec50c814501ec8072d782b360fe35067b83259bbbd72",
      "type": "sysupgrade"
    }
  ],
  "metadata_version": 1,
  "model_id": "mediatek_linkit-smart-7688",
  "source_date_epoch": 1682627295,
  "supported_devices": [
    "mediatek,linkit-smart-7688",
    "linkits7688",
    "linkits7688d"
  ],
  "target": "ramips/mt76x8",
  "titles": [
    {
      "model": "LinkIt Smart 7688",
      "vendor": "MediaTek"
    }
  ],
  "version_code": "r20134-5f15225c1e",
  "version_number": "22.03.5"
}