{
  "arch_packages": "mipsel_24kc",
  "build_at": "2023-09-22 06:59:57",
  "default_packages": [
    "base-files",
    "busybox",
    "ca-bundle",
    "dnsmasq",
    "dropbear",
    "firewall4",
    "fstools",
    "kmod-gpio-button-hotplug",
    "kmod-leds-gpio",
    "kmod-mt7603",
    "kmod-nft-offload",
    "libc",
    "libgcc",
    "libustream-wolfssl",
    "logd",
    "mtd",
    "netifd",
    "nftables",
    "odhcp6c",
    "odhcpd-ipv6only",
    "opkg",
    "ppp",
    "ppp-mod-pppoe",
    "procd",
    "procd-seccomp",
    "procd-ujail",
    "swconfig",
    "uci",
    "uclient-fetch",
    "urandom-seed",
    "urngd",
    "wpad-basic-wolfssl"
  ],
  "device_packages": [
    "kmod-usb2",
    "kmod-usb-ohci"
  ],
  "image_path": "releases/22.03.5/targets/ramips/mt76x8/",
  "image_prefix": "openwrt-22.03.5-ramips-mt76x8-rakwireless_rak633",
  "images": [
    {
      "filesystem": "initramfs",
      "name": "openwrt-22.03.5-ramips-mt76x8-rakwireless_rak633-initramfs-kernel.bin",
      "sha256": "8b7b19365a77b53adadb5afb46379681c4d346bc6f9e38317d174bd9a9a0386a",
      "sha256_unsigned": "8b7b19365a77b53adadb5afb46379681c4d346bc6f9e38317d174bd9a9a0386a",
      "type": "kernel"
    },
    {
      "filesystem": "squashfs",
      "name": "openwrt-22.03.5-ramips-mt76x8-rakwireless_rak633-squashfs-sysupgrade.bin",
      "sha256": "3cce1e2e785c0b616e2e7ea0d87bc6e88201ccf24c918311728e3afef43e27e2",
      "sha256_unsigned": "453a96d9a9f6c8425f6a81906c6c1769700b339e185ff4a4e4af170330830dc5",
      "type": "sysupgrade"
    }
  ],
  "metadata_version": 1,
  "model_id": "rakwireless_rak633",
  "source_date_epoch": 1682627295,
  "supported_devices": [
    "rakwireless,rak633"
  ],
  "target": "ramips/mt76x8",
  "titles": [
    {
      "model": "RAK633",
      "vendor": "Rakwireless"
    }
  ],
  "version_code": "r20134-5f15225c1e",
  "version_number": "22.03.5"
}