{
  "arch_packages": "mipsel_24kc",
  "build_at": "2023-09-22 06:59:57",
  "default_packages": [
    "base-files",
    "busybox",
    "ca-bundle",
    "dnsmasq",
    "dropbear",
    "firewall4",
    "fstools",
    "kmod-gpio-button-hotplug",
    "kmod-leds-gpio",
    "kmod-mt7603",
    "kmod-nft-offload",
    "libc",
    "libgcc",
    "libustream-wolfssl",
    "logd",
    "mtd",
    "netifd",
    "nftables",
    "odhcp6c",
    "odhcpd-ipv6only",
    "opkg",
    "ppp",
    "ppp-mod-pppoe",
    "procd",
    "procd-seccomp",
    "procd-ujail",
    "swconfig",
    "uci",
    "uclient-fetch",
    "urandom-seed",
    "urngd",
    "wpad-basic-wolfssl"
  ],
  "device_packages": [],
  "image_path": "releases/22.03.5/targets/ramips/mt76x8/",
  "image_prefix": "openwrt-22.03.5-ramips-mt76x8-tplink_tl-wr850n-v2",
  "images": [
    {
      "filesystem": "initramfs",
      "name": "openwrt-22.03.5-ramips-mt76x8-tplink_tl-wr850n-v2-initramfs-kernel.bin",
      "sha256": "11d62b6191e8ee85b51b80f8060efa13bca757e9766af9fd201311e29e4b8c2f",
      "sha256_unsigned": "11d62b6191e8ee85b51b80f8060efa13bca757e9766af9fd201311e29e4b8c2f",
      "type": "kernel"
    },
    {
      "filesystem": "squashfs",
      "name": "openwrt-22.03.5-ramips-mt76x8-tplink_tl-wr850n-v2-squashfs-tftp-recovery.bin",
      "sha256": "5131a236f47b3218e2275dc93ec86e81c009546bde8c3acc68924e5b1d0ec2f3",
      "sha256_unsigned": "5131a236f47b3218e2275dc93ec86e81c009546bde8c3acc68924e5b1d0ec2f3",
      "type": "tftp-recovery"
    },
    {
      "filesystem": "squashfs",
      "name": "openwrt-22.03.5-ramips-mt76x8-tplink_tl-wr850n-v2-squashfs-sysupgrade.bin",
      "sha256": "083bd28069f9a2eaeb5621d3a684fadfb1cd0fb4fb761e7dbe8c0ea5ce8d294a",
      "sha256_unsigned": "9bbbda52df46b8e7d4f1bf4a0e03f5368189715517fe42405183f6e1ba5c8591",
      "type": "sysupgrade"
    }
  ],
  "metadata_version": 1,
  "model_id": "tplink_tl-wr850n-v2",
  "source_date_epoch": 1682627295,
  "supported_devices": [
    "tplink,tl-wr850n-v2"
  ],
  "target": "ramips/mt76x8",
  "titles": [
    {
      "model": "TL-WR850N",
      "variant": "v2",
      "vendor": "TP-Link"
    }
  ],
  "version_code": "r20134-5f15225c1e",
  "version_number": "22.03.5"
}