{
  "arch_packages": "mipsel_24kc",
  "build_at": "2023-09-22 06:59:57",
  "default_packages": [
    "base-files",
    "busybox",
    "ca-bundle",
    "dnsmasq",
    "dropbear",
    "firewall4",
    "fstools",
    "kmod-gpio-button-hotplug",
    "kmod-leds-gpio",
    "kmod-mt7603",
    "kmod-nft-offload",
    "libc",
    "libgcc",
    "libustream-wolfssl",
    "logd",
    "mtd",
    "netifd",
    "nftables",
    "odhcp6c",
    "odhcpd-ipv6only",
    "opkg",
    "ppp",
    "ppp-mod-pppoe",
    "procd",
    "procd-seccomp",
    "procd-ujail",
    "swconfig",
    "uci",
    "uclient-fetch",
    "urandom-seed",
    "urngd",
    "wpad-basic-wolfssl"
  ],
  "device_packages": [
    "kmod-mt76x0e"
  ],
  "image_path": "releases/22.03.5/targets/ramips/mt76x8/",
  "image_prefix": "openwrt-22.03.5-ramips-mt76x8-tplink_re220-v2",
  "images": [
    {
      "filesystem": "squashfs",
      "name": "openwrt-22.03.5-ramips-mt76x8-tplink_re220-v2-squashfs-sysupgrade.bin",
      "sha256": "62ad6016a77f2df20f69cfea53d0ba2e08825d67a4ec20d532da6ee4b7b07e08",
      "sha256_unsigned": "f709dcb28fcefd1fa0d1e624609b3228c73bb9fe81361270f00eab80d9819b6e",
      "type": "sysupgrade"
    },
    {
      "filesystem": "squashfs",
      "name": "openwrt-22.03.5-ramips-mt76x8-tplink_re220-v2-squashfs-factory.bin",
      "sha256": "7c6dfef7225035fb074b7a4327f762880836d5535d31bfcfe57e223ce0a5c371",
      "sha256_unsigned": "7c6dfef7225035fb074b7a4327f762880836d5535d31bfcfe57e223ce0a5c371",
      "type": "factory"
    },
    {
      "filesystem": "initramfs",
      "name": "openwrt-22.03.5-ramips-mt76x8-tplink_re220-v2-initramfs-kernel.bin",
      "sha256": "5ce5bdc7f4683bbfa072ce219ccd57b5508e64b889590c51fd37b5cd95e1b881",
      "sha256_unsigned": "5ce5bdc7f4683bbfa072ce219ccd57b5508e64b889590c51fd37b5cd95e1b881",
      "type": "kernel"
    }
  ],
  "metadata_version": 1,
  "model_id": "tplink_re220-v2",
  "source_date_epoch": 1682627295,
  "supported_devices": [
    "tplink,re220-v2"
  ],
  "target": "ramips/mt76x8",
  "titles": [
    {
      "model": "RE220",
      "variant": "v2",
      "vendor": "TP-Link"
    }
  ],
  "version_code": "r20134-5f15225c1e",
  "version_number": "22.03.5"
}