{
  "arch_packages": "mipsel_24kc",
  "build_at": "2023-09-22 06:59:57",
  "default_packages": [
    "base-files",
    "busybox",
    "ca-bundle",
    "dnsmasq",
    "dropbear",
    "firewall4",
    "fstools",
    "kmod-gpio-button-hotplug",
    "kmod-leds-gpio",
    "kmod-mt7603",
    "kmod-nft-offload",
    "libc",
    "libgcc",
    "libustream-wolfssl",
    "logd",
    "mtd",
    "netifd",
    "nftables",
    "odhcp6c",
    "odhcpd-ipv6only",
    "opkg",
    "ppp",
    "ppp-mod-pppoe",
    "procd",
    "procd-seccomp",
    "procd-ujail",
    "swconfig",
    "uci",
    "uclient-fetch",
    "urandom-seed",
    "urngd",
    "wpad-basic-wolfssl"
  ],
  "device_packages": [
    "kmod-mt76x0e"
  ],
  "image_path": "releases/22.03.5/targets/ramips/mt76x8/",
  "image_prefix": "openwrt-22.03.5-ramips-mt76x8-tplink_re200-v2",
  "images": [
    {
      "filesystem": "squashfs",
      "name": "openwrt-22.03.5-ramips-mt76x8-tplink_re200-v2-squashfs-sysupgrade.bin",
      "sha256": "0f2ddcf0c26d9432ffbb8818c9dfe5d7276bb702763a08eca22141ad3ab336af",
      "sha256_unsigned": "51a82f80999246614590f47e43916c0236a544ad1eae5f1b887605a25156abf8",
      "type": "sysupgrade"
    },
    {
      "filesystem": "initramfs",
      "name": "openwrt-22.03.5-ramips-mt76x8-tplink_re200-v2-initramfs-kernel.bin",
      "sha256": "658f331fda1986a3008d90179164a78d4b87e5bec174bf39440baaf7efc586cf",
      "sha256_unsigned": "658f331fda1986a3008d90179164a78d4b87e5bec174bf39440baaf7efc586cf",
      "type": "kernel"
    },
    {
      "filesystem": "squashfs",
      "name": "openwrt-22.03.5-ramips-mt76x8-tplink_re200-v2-squashfs-factory.bin",
      "sha256": "c86916f0c1d5507ae6f2971c29c6fe79aad64981db2c34c7d459738c9b699a57",
      "sha256_unsigned": "c86916f0c1d5507ae6f2971c29c6fe79aad64981db2c34c7d459738c9b699a57",
      "type": "factory"
    }
  ],
  "metadata_version": 1,
  "model_id": "tplink_re200-v2",
  "source_date_epoch": 1682627295,
  "supported_devices": [
    "tplink,re200-v2"
  ],
  "target": "ramips/mt76x8",
  "titles": [
    {
      "model": "RE200",
      "variant": "v2",
      "vendor": "TP-Link"
    }
  ],
  "version_code": "r20134-5f15225c1e",
  "version_number": "22.03.5"
}