{
  "arch_packages": "mipsel_24kc",
  "build_at": "2023-09-22 06:59:57",
  "default_packages": [
    "base-files",
    "busybox",
    "ca-bundle",
    "dnsmasq",
    "dropbear",
    "firewall4",
    "fstools",
    "kmod-gpio-button-hotplug",
    "kmod-leds-gpio",
    "kmod-mt7603",
    "kmod-nft-offload",
    "libc",
    "libgcc",
    "libustream-wolfssl",
    "logd",
    "mtd",
    "netifd",
    "nftables",
    "odhcp6c",
    "odhcpd-ipv6only",
    "opkg",
    "ppp",
    "ppp-mod-pppoe",
    "procd",
    "procd-seccomp",
    "procd-ujail",
    "swconfig",
    "uci",
    "uclient-fetch",
    "urandom-seed",
    "urngd",
    "wpad-basic-wolfssl"
  ],
  "device_packages": [
    "kmod-mt76x2"
  ],
  "image_path": "releases/22.03.5/targets/ramips/mt76x8/",
  "image_prefix": "openwrt-22.03.5-ramips-mt76x8-xiaomi_mi-router-4a-100m-intl",
  "images": [
    {
      "filesystem": "initramfs",
      "name": "openwrt-22.03.5-ramips-mt76x8-xiaomi_mi-router-4a-100m-intl-initramfs-kernel.bin",
      "sha256": "c1b6eead6d9b1f7db20b21667bcd4785e424aa28b5a6e9056e33fd7606939956",
      "sha256_unsigned": "c1b6eead6d9b1f7db20b21667bcd4785e424aa28b5a6e9056e33fd7606939956",
      "type": "kernel"
    },
    {
      "filesystem": "squashfs",
      "name": "openwrt-22.03.5-ramips-mt76x8-xiaomi_mi-router-4a-100m-intl-squashfs-sysupgrade.bin",
      "sha256": "3106480acd8554a29e69239bed6f965fd3188eb165737fbf71ac11eda0d55142",
      "sha256_unsigned": "1f78f9a0f1417c84093bf0c3dcbe95c16f6fbace416987bb5d3bbf5a31f51e10",
      "type": "sysupgrade"
    }
  ],
  "metadata_version": 1,
  "model_id": "xiaomi_mi-router-4a-100m-intl",
  "source_date_epoch": 1682627295,
  "supported_devices": [
    "xiaomi,mi-router-4a-100m-intl",
    "xiaomi,mir4a-100m-intl"
  ],
  "target": "ramips/mt76x8",
  "titles": [
    {
      "model": "Mi Router 4A",
      "variant": "100M International Edition",
      "vendor": "Xiaomi"
    }
  ],
  "version_code": "r20134-5f15225c1e",
  "version_number": "22.03.5"
}