{
  "arch_packages": "aarch64_cortex-a53",
  "build_at": "2023-09-22 06:59:57",
  "default_packages": [
    "base-files",
    "bcm27xx-gpu-fw",
    "busybox",
    "ca-bundle",
    "dnsmasq",
    "dropbear",
    "e2fsprogs",
    "firewall4",
    "fstools",
    "kmod-fs-vfat",
    "kmod-nft-offload",
    "kmod-nls-cp437",
    "kmod-nls-iso8859-1",
    "kmod-sound-arm-bcm2835",
    "kmod-sound-core",
    "kmod-usb-hid",
    "libc",
    "libgcc",
    "libustream-wolfssl",
    "logd",
    "mkf2fs",
    "mtd",
    "netifd",
    "nftables",
    "odhcp6c",
    "odhcpd-ipv6only",
    "opkg",
    "partx-utils",
    "ppp",
    "ppp-mod-pppoe",
    "procd",
    "procd-seccomp",
    "procd-ujail",
    "uci",
    "uclient-fetch",
    "urandom-seed"
  ],
  "device_packages": [
    "cypress-firmware-43430-sdio",
    "cypress-nvram-43430-sdio-rpi-3b",
    "cypress-firmware-43455-sdio",
    "cypress-nvram-43455-sdio-rpi-3b-plus",
    "kmod-brcmfmac",
    "wpad-basic-wolfssl",
    "iwinfo"
  ],
  "image_path": "releases/22.03.5/targets/bcm27xx/bcm2710/",
  "image_prefix": "openwrt-22.03.5-bcm27xx-bcm2710-rpi-3",
  "images": [
    {
      "filesystem": "ext4",
      "name": "openwrt-22.03.5-bcm27xx-bcm2710-rpi-3-ext4-sysupgrade.img.gz",
      "sha256": "3e300a063bfb16a7f85edb8125700721de63db6549e78ed618387ac5befe2a8e",
      "sha256_unsigned": "6eddc8c44d71145d822705abf8cfd633b58fdb5096890c4433b45c138fb03afd",
      "type": "sysupgrade"
    },
    {
      "filesystem": "squashfs",
      "name": "openwrt-22.03.5-bcm27xx-bcm2710-rpi-3-squashfs-factory.img.gz",
      "sha256": "80390c1561719226f92d9cc7cd3a518e0f8b27505681f7b78557a817280f061e",
      "sha256_unsigned": "80390c1561719226f92d9cc7cd3a518e0f8b27505681f7b78557a817280f061e",
      "type": "factory"
    },
    {
      "filesystem": "ext4",
      "name": "openwrt-22.03.5-bcm27xx-bcm2710-rpi-3-ext4-factory.img.gz",
      "sha256": "6f5696c7f877cacd51d81cee84b3f63c39db790d0c71c126fe5dd7201f75d11f",
      "sha256_unsigned": "6f5696c7f877cacd51d81cee84b3f63c39db790d0c71c126fe5dd7201f75d11f",
      "type": "factory"
    },
    {
      "filesystem": "squashfs",
      "name": "openwrt-22.03.5-bcm27xx-bcm2710-rpi-3-squashfs-sysupgrade.img.gz",
      "sha256": "1bc7145b9765d646014e3f5f9711becf93d7261d25dbd877f842bae238817bfa",
      "sha256_unsigned": "b05eef032fee4a8e5efd2c4831c0458a2ff487ba0215035316fbd89af875bf07",
      "type": "sysupgrade"
    }
  ],
  "metadata_version": 1,
  "model_id": "rpi-3",
  "source_date_epoch": 1682627295,
  "supported_devices": [
    "rpi-3-b",
    "rpi-3-b-plus",
    "raspberrypi,2-model-b-rev2",
    "raspberrypi,3-model-b",
    "raspberrypi,3-model-b-plus",
    "raspberrypi,3-compute-module",
    "raspberrypi,compute-module-3"
  ],
  "target": "bcm27xx/bcm2710",
  "titles": [
    {
      "model": "3B/3B+/3CM",
      "variant": "(64bit)",
      "vendor": "Raspberry Pi"
    },
    {
      "model": "2B-1.2",
      "variant": "(64bit)",
      "vendor": "Raspberry Pi"
    }
  ],
  "version_code": "r20134-5f15225c1e",
  "version_number": "22.03.5"
}