{
  "arch_packages": "arm_cortex-a15_neon-vfpv4",
  "build_at": "2023-09-22 06:59:57",
  "default_packages": [
    "base-files",
    "libc",
    "libgcc",
    "busybox",
    "dropbear",
    "mtd",
    "uci",
    "opkg",
    "netifd",
    "fstools",
    "uclient-fetch",
    "logd",
    "urandom-seed",
    "urngd",
    "kmod-leds-gpio",
    "kmod-gpio-button-hotplug",
    "swconfig",
    "kmod-ata-core",
    "kmod-ata-ahci",
    "kmod-ata-ahci-platform",
    "kmod-usb-core",
    "kmod-usb-ohci",
    "kmod-usb2",
    "kmod-usb-ledtrig-usbport",
    "kmod-usb3",
    "kmod-usb-dwc3-of-simple",
    "kmod-usb-phy-qcom-dwc3",
    "kmod-ath10k-ct",
    "wpad-basic",
    "uboot-envtools",
    "dnsmasq",
    "iptables",
    "ip6tables",
    "ppp",
    "ppp-mod-pppoe",
    "firewall",
    "odhcpd-ipv6only",
    "odhcp6c",
    "kmod-ipt-offload",
    "kmod-leds-gpio",
    "kmod-gpio-button-hotplug",
    "swconfig",
    "kmod-ata-core",
    "kmod-ata-ahci",
    "kmod-ata-ahci-platform",
    "kmod-usb-core",
    "kmod-usb-ohci",
    "kmod-usb2",
    "kmod-usb-ledtrig-usbport",
    "kmod-usb3",
    "kmod-usb-dwc3-of-simple",
    "kmod-usb-phy-qcom-dwc3",
    "kmod-ath10k-ct",
    "wpad-basic",
    "uboot-envtools"
  ],
  "device_packages": [
    "ath10k-firmware-qca99x0-ct"
  ],
  "image_path": "releases/19.07.10/targets/ipq806x/generic/",
  "image_prefix": "openwrt-19.07.10-ipq806x-generic-tplink_vr2600v",
  "images": [
    {
      "filesystem": "squashfs",
      "name": "openwrt-19.07.10-ipq806x-generic-tplink_vr2600v-squashfs-sysupgrade.bin",
      "sha256": "8cfa0a12843b767f0165d0f54e07f31c911dccd883da270f702bc7a487ed6bec",
      "type": "sysupgrade"
    }
  ],
  "metadata_version": 1,
  "model_id": "tplink_vr2600v",
  "source_date_epoch": 1650114812,
  "supported_devices": [
    "tplink,vr2600v",
    "vr2600v"
  ],
  "target": "ipq806x/generic",
  "titles": [
    {
      "title": "TP-Link Archer VR2600v"
    }
  ],
  "version_code": "r11427-9ce6aa9d8d",
  "version_number": "19.07.10"
}