{
  "arch_packages": "mips_24kc",
  "build_at": "2023-09-22 06:59:57",
  "default_packages": [
    "base-files",
    "busybox",
    "ca-bundle",
    "dnsmasq",
    "dropbear",
    "dsl-vrx200-firmware-xdsl-a",
    "dsl-vrx200-firmware-xdsl-b-patch",
    "firewall4",
    "fstools",
    "kmod-gpio-button-hotplug",
    "kmod-leds-gpio",
    "kmod-ltq-atm-vr9",
    "kmod-ltq-deu-vr9",
    "kmod-ltq-ptm-vr9",
    "kmod-ltq-vdsl-vr9",
    "kmod-ltq-vdsl-vr9-mei",
    "kmod-nft-offload",
    "libc",
    "libgcc",
    "libustream-wolfssl",
    "logd",
    "ltq-vdsl-app",
    "ltq-vdsl-vr9-vectoring-fw-installer",
    "mtd",
    "netifd",
    "nftables",
    "odhcp6c",
    "odhcpd-ipv6only",
    "opkg",
    "ppp",
    "ppp-mod-pppoa",
    "ppp-mod-pppoe",
    "procd",
    "procd-seccomp",
    "procd-ujail",
    "uci",
    "uclient-fetch",
    "urandom-seed",
    "urngd"
  ],
  "device_packages": [
    "kmod-ath9k",
    "kmod-owl-loader",
    "wpad-basic-wolfssl",
    "kmod-usb-dwc2",
    "fritz-tffs",
    "iwinfo"
  ],
  "image_path": "releases/22.03.5/targets/lantiq/xrx200/",
  "image_prefix": "openwrt-22.03.5-lantiq-xrx200-avm_fritz7362sl",
  "images": [
    {
      "filesystem": "squashfs",
      "name": "openwrt-22.03.5-lantiq-xrx200-avm_fritz7362sl-squashfs-sysupgrade.bin",
      "sha256": "b4c79d501d99846b7a4fee2538ced41b58048f12c6c2b337106f631156c1c8aa",
      "sha256_unsigned": "e0baced545edf48cb4f2df8d0a20c5a40efaaac316f1e56182f5c76daa73c716",
      "type": "sysupgrade"
    },
    {
      "filesystem": "initramfs",
      "name": "openwrt-22.03.5-lantiq-xrx200-avm_fritz7362sl-initramfs-kernel.bin",
      "sha256": "c57128d57a9b56b293484f01df3ff1ca12f939048418405111dab6e4c9fa0a66",
      "sha256_unsigned": "c57128d57a9b56b293484f01df3ff1ca12f939048418405111dab6e4c9fa0a66",
      "type": "kernel"
    }
  ],
  "metadata_version": 1,
  "model_id": "avm_fritz7362sl",
  "source_date_epoch": 1682627295,
  "supported_devices": [
    "avm,fritz7362sl"
  ],
  "target": "lantiq/xrx200",
  "titles": [
    {
      "model": "FRITZ!Box 7362 SL",
      "vendor": "AVM"
    }
  ],
  "version_code": "r20134-5f15225c1e",
  "version_number": "22.03.5"
}