{
  "arch_packages": "mips_4kec",
  "build_at": "2023-09-22 06:59:57",
  "default_packages": [
    "base-files",
    "busybox",
    "ca-bundle",
    "dropbear",
    "ethtool",
    "firewall4",
    "fstools",
    "ip-bridge",
    "ip-full",
    "kmod-gpio-button-hotplug",
    "kmod-nft-offload",
    "libc",
    "libgcc",
    "libustream-wolfssl",
    "logd",
    "mtd",
    "netifd",
    "nftables",
    "odhcp6c",
    "opkg",
    "procd",
    "procd-seccomp",
    "procd-ujail",
    "tc-bpf",
    "uboot-envtools",
    "uci",
    "uclient-fetch",
    "urandom-seed",
    "urngd"
  ],
  "device_packages": [],
  "image_path": "releases/22.03.5/targets/realtek/rtl838x/",
  "image_prefix": "openwrt-22.03.5-realtek-rtl838x-inaba_aml2-17gp",
  "images": [
    {
      "filesystem": "initramfs",
      "name": "openwrt-22.03.5-realtek-rtl838x-inaba_aml2-17gp-initramfs-kernel.bin",
      "sha256": "4b0712ef520bf7645823bfb397e0cfe446880ff417650a683c24524d6e8c8adb",
      "sha256_unsigned": "4b0712ef520bf7645823bfb397e0cfe446880ff417650a683c24524d6e8c8adb",
      "type": "kernel"
    },
    {
      "filesystem": "squashfs",
      "name": "openwrt-22.03.5-realtek-rtl838x-inaba_aml2-17gp-squashfs-sysupgrade.bin",
      "sha256": "ddf37d9671f90a443f55611a218e771b834d8c605b22fb8a84a7e8764ee57002",
      "sha256_unsigned": "c3af785f0aba9f9bb5764435c2873e038694f6c0ad22fba2afc1df5185fc6546",
      "type": "sysupgrade"
    }
  ],
  "metadata_version": 1,
  "model_id": "inaba_aml2-17gp",
  "source_date_epoch": 1682627295,
  "supported_devices": [
    "inaba,aml2-17gp"
  ],
  "target": "realtek/rtl838x",
  "titles": [
    {
      "model": "Abaniact AML2-17GP",
      "vendor": "INABA"
    }
  ],
  "version_code": "r20134-5f15225c1e",
  "version_number": "22.03.5"
}