{
  "arch_packages": "mips_4kec",
  "build_at": "2023-09-22 06:59:57",
  "default_packages": [
    "base-files",
    "busybox",
    "ca-bundle",
    "dropbear",
    "ethtool",
    "firewall4",
    "fstools",
    "ip-bridge",
    "ip-full",
    "kmod-gpio-button-hotplug",
    "kmod-nft-offload",
    "libc",
    "libgcc",
    "libustream-wolfssl",
    "logd",
    "mtd",
    "netifd",
    "nftables",
    "odhcp6c",
    "opkg",
    "procd",
    "procd-seccomp",
    "procd-ujail",
    "tc-bpf",
    "uboot-envtools",
    "uci",
    "uclient-fetch",
    "urandom-seed",
    "urngd"
  ],
  "device_packages": [],
  "image_path": "releases/22.03.5/targets/realtek/rtl838x/",
  "image_prefix": "openwrt-22.03.5-realtek-rtl838x-netgear_gs108t-v3",
  "images": [
    {
      "filesystem": "squashfs",
      "name": "openwrt-22.03.5-realtek-rtl838x-netgear_gs108t-v3-squashfs-sysupgrade.bin",
      "sha256": "4370a346a42a2cc90e9310609c8109d341b0253963b91d278593bcdec359d880",
      "sha256_unsigned": "f1fb26e821e1e9cac1e6454325d22f495dac6806e4330b10f2e132c68ce2e8a1",
      "type": "sysupgrade"
    },
    {
      "filesystem": "initramfs",
      "name": "openwrt-22.03.5-realtek-rtl838x-netgear_gs108t-v3-initramfs-kernel.bin",
      "sha256": "92af21ac9070d2118844b714744d1d80ef97b290d9707af2980701f1454d0af1",
      "sha256_unsigned": "92af21ac9070d2118844b714744d1d80ef97b290d9707af2980701f1454d0af1",
      "type": "kernel"
    }
  ],
  "metadata_version": 1,
  "model_id": "netgear_gs108t-v3",
  "source_date_epoch": 1682627295,
  "supported_devices": [
    "netgear,gs108t-v3"
  ],
  "target": "realtek/rtl838x",
  "titles": [
    {
      "model": "GS108T",
      "variant": "v3",
      "vendor": "NETGEAR"
    }
  ],
  "version_code": "r20134-5f15225c1e",
  "version_number": "22.03.5"
}