{
  "arch_packages": "mips_mips32",
  "build_at": "2023-09-22 06:59:57",
  "default_packages": [
    "base-files",
    "busybox",
    "ca-bundle",
    "dnsmasq",
    "dropbear",
    "firewall4",
    "fstools",
    "kmod-gpio-button-hotplug",
    "kmod-nft-offload",
    "libc",
    "libgcc",
    "libustream-wolfssl",
    "logd",
    "mtd",
    "netifd",
    "nftables",
    "odhcp6c",
    "odhcpd-ipv6only",
    "opkg",
    "ppp",
    "ppp-mod-pppoe",
    "procd",
    "procd-seccomp",
    "procd-ujail",
    "swconfig",
    "uci",
    "uclient-fetch",
    "urandom-seed",
    "urngd"
  ],
  "device_packages": [
    "kmod-usb2",
    "kmod-usb-ohci",
    "kmod-usb-ledtrig-usbport",
    "kmod-brcm-wl",
    "nas",
    "wlc",
    "iwinfo"
  ],
  "image_path": "releases/22.03.5/targets/bcm63xx/smp/",
  "image_prefix": "openwrt-22.03.5-bcm63xx-smp-actiontec_r1000h",
  "images": [
    {
      "filesystem": "squashfs",
      "name": "openwrt-22.03.5-bcm63xx-smp-actiontec_r1000h-squashfs-cfe.bin",
      "sha256": "88548ac8cccc8fd26f36bf8c06a13589110f0ab5c9f118b5f7d7e5057d9f31a3",
      "sha256_unsigned": "88548ac8cccc8fd26f36bf8c06a13589110f0ab5c9f118b5f7d7e5057d9f31a3",
      "type": "cfe"
    }
  ],
  "metadata_version": 1,
  "model_id": "actiontec_r1000h",
  "source_date_epoch": 1682627295,
  "supported_devices": [
    "actiontec,r1000h"
  ],
  "target": "bcm63xx/smp",
  "titles": [
    {
      "model": "R1000H",
      "vendor": "Actiontec"
    }
  ],
  "version_code": "r20134-5f15225c1e",
  "version_number": "22.03.5"
}