{
  "arch_packages": "mips_mips32",
  "build_at": "2023-09-22 06:59:57",
  "default_packages": [
    "base-files",
    "busybox",
    "ca-bundle",
    "dnsmasq",
    "dropbear",
    "firewall4",
    "fstools",
    "kmod-gpio-button-hotplug",
    "kmod-nft-offload",
    "libc",
    "libgcc",
    "libustream-wolfssl",
    "logd",
    "mtd",
    "netifd",
    "nftables",
    "odhcp6c",
    "odhcpd-ipv6only",
    "opkg",
    "ppp",
    "ppp-mod-pppoe",
    "procd",
    "procd-seccomp",
    "procd-ujail",
    "swconfig",
    "uci",
    "uclient-fetch",
    "urandom-seed",
    "urngd"
  ],
  "device_packages": [
    "kmod-b43",
    "wpad-basic-wolfssl",
    "kmod-usb2",
    "kmod-usb-ohci",
    "kmod-usb-ledtrig-usbport",
    "iwinfo"
  ],
  "image_path": "releases/22.03.5/targets/bcm63xx/smp/",
  "image_prefix": "openwrt-22.03.5-bcm63xx-smp-comtrend_ar-5387un",
  "images": [
    {
      "filesystem": "squashfs",
      "name": "openwrt-22.03.5-bcm63xx-smp-comtrend_ar-5387un-squashfs-sysupgrade.bin",
      "sha256": "fa4ffd72503508bc97b24e1d9f5f212fb7d20f738d1419ec29e651c9f2656173",
      "sha256_unsigned": "fa4ffd72503508bc97b24e1d9f5f212fb7d20f738d1419ec29e651c9f2656173",
      "type": "sysupgrade"
    },
    {
      "filesystem": "squashfs",
      "name": "openwrt-22.03.5-bcm63xx-smp-comtrend_ar-5387un-squashfs-cfe.bin",
      "sha256": "7a85d97e0e9c60d11b2f8d862238e8753f6c65acf17a1ad7337ee0dda44ec29e",
      "sha256_unsigned": "7a85d97e0e9c60d11b2f8d862238e8753f6c65acf17a1ad7337ee0dda44ec29e",
      "type": "cfe"
    }
  ],
  "metadata_version": 1,
  "model_id": "comtrend_ar-5387un",
  "source_date_epoch": 1682627295,
  "supported_devices": [
    "comtrend,ar-5387un"
  ],
  "target": "bcm63xx/smp",
  "titles": [
    {
      "model": "AR-5387un",
      "vendor": "Comtrend"
    }
  ],
  "version_code": "r20134-5f15225c1e",
  "version_number": "22.03.5"
}