{
  "arch_packages": "mips_mips32",
  "build_at": "2023-09-22 06:59:57",
  "default_packages": [
    "base-files",
    "busybox",
    "ca-bundle",
    "dnsmasq",
    "dropbear",
    "firewall4",
    "fstools",
    "kmod-gpio-button-hotplug",
    "kmod-nft-offload",
    "libc",
    "libgcc",
    "libustream-wolfssl",
    "logd",
    "mtd",
    "netifd",
    "nftables",
    "odhcp6c",
    "odhcpd-ipv6only",
    "opkg",
    "ppp",
    "ppp-mod-pppoe",
    "procd",
    "procd-seccomp",
    "procd-ujail",
    "swconfig",
    "uci",
    "uclient-fetch",
    "urandom-seed",
    "urngd"
  ],
  "device_packages": [
    "kmod-rt2800-pci",
    "wpad-basic-wolfssl",
    "kmod-usb2",
    "kmod-usb-ohci",
    "kmod-usb-ledtrig-usbport",
    "iwinfo"
  ],
  "image_path": "releases/22.03.5/targets/bcm63xx/smp/",
  "image_prefix": "openwrt-22.03.5-bcm63xx-smp-huawei_echolife-hg556a-c",
  "images": [
    {
      "filesystem": "squashfs",
      "name": "openwrt-22.03.5-bcm63xx-smp-huawei_echolife-hg556a-c-squashfs-cfe.bin",
      "sha256": "d2ee4014a9b3b77c757804f268e414e17e4e478636b06a88510e718ea6b1e779",
      "sha256_unsigned": "d2ee4014a9b3b77c757804f268e414e17e4e478636b06a88510e718ea6b1e779",
      "type": "cfe"
    }
  ],
  "metadata_version": 1,
  "model_id": "huawei_echolife-hg556a-c",
  "source_date_epoch": 1682627295,
  "supported_devices": [
    "huawei,echolife-hg556a-c"
  ],
  "target": "bcm63xx/smp",
  "titles": [
    {
      "model": "EchoLife HG556a",
      "variant": "C",
      "vendor": "Huawei"
    }
  ],
  "version_code": "r20134-5f15225c1e",
  "version_number": "22.03.5"
}