{
  "arch_packages": "mips_mips32",
  "build_at": "2023-09-22 06:59:57",
  "default_packages": [
    "base-files",
    "busybox",
    "ca-bundle",
    "dnsmasq",
    "dropbear",
    "firewall4",
    "fstools",
    "kmod-gpio-button-hotplug",
    "kmod-nft-offload",
    "libc",
    "libgcc",
    "libustream-wolfssl",
    "logd",
    "mtd",
    "netifd",
    "nftables",
    "odhcp6c",
    "odhcpd-ipv6only",
    "opkg",
    "ppp",
    "ppp-mod-pppoe",
    "procd",
    "procd-seccomp",
    "procd-ujail",
    "swconfig",
    "uci",
    "uclient-fetch",
    "urandom-seed",
    "urngd"
  ],
  "device_packages": [
    "nand-utils",
    "kmod-b43",
    "wpad-basic-wolfssl",
    "kmod-usb2",
    "kmod-usb-ohci",
    "kmod-usb-ledtrig-usbport",
    "iwinfo"
  ],
  "image_path": "releases/22.03.5/targets/bcm63xx/smp/",
  "image_prefix": "openwrt-22.03.5-bcm63xx-smp-netgear_dgnd3700-v2",
  "images": [
    {
      "filesystem": "squashfs",
      "name": "openwrt-22.03.5-bcm63xx-smp-netgear_dgnd3700-v2-squashfs-cfe.bin",
      "sha256": "4e3cacdee25c4c6559b7007e0e8861aac4447cbe5b348cf6271e259dbec5321d",
      "sha256_unsigned": "4e3cacdee25c4c6559b7007e0e8861aac4447cbe5b348cf6271e259dbec5321d",
      "type": "cfe"
    },
    {
      "filesystem": "squashfs",
      "name": "openwrt-22.03.5-bcm63xx-smp-netgear_dgnd3700-v2-squashfs-sysupgrade.bin",
      "sha256": "f89b8eeea2bf8991ee2eb725586d82aa6dad1bed10b25797776e6d87c833914d",
      "sha256_unsigned": "68c8be073911617a58d8d9def6ef73286fd0b4819f9d298594b606ccdeed0020",
      "type": "sysupgrade"
    }
  ],
  "metadata_version": 1,
  "model_id": "netgear_dgnd3700-v2",
  "source_date_epoch": 1682627295,
  "supported_devices": [
    "netgear,dgnd3700-v2"
  ],
  "target": "bcm63xx/smp",
  "titles": [
    {
      "model": "DGND3700",
      "variant": "v2",
      "vendor": "NETGEAR"
    }
  ],
  "version_code": "r20134-5f15225c1e",
  "version_number": "22.03.5"
}