{
  "arch_packages": "mips_mips32",
  "build_at": "2023-09-22 06:59:57",
  "default_packages": [
    "base-files",
    "busybox",
    "ca-bundle",
    "dnsmasq",
    "dropbear",
    "firewall4",
    "fstools",
    "kmod-gpio-button-hotplug",
    "kmod-nft-offload",
    "libc",
    "libgcc",
    "libustream-wolfssl",
    "logd",
    "mtd",
    "netifd",
    "nftables",
    "odhcp6c",
    "odhcpd-ipv6only",
    "opkg",
    "ppp",
    "ppp-mod-pppoe",
    "procd",
    "procd-seccomp",
    "procd-ujail",
    "swconfig",
    "uci",
    "uclient-fetch",
    "urandom-seed",
    "urngd"
  ],
  "device_packages": [
    "kmod-b43",
    "wpad-basic-wolfssl",
    "kmod-usb2",
    "kmod-usb-ohci",
    "kmod-usb-ledtrig-usbport",
    "iwinfo"
  ],
  "image_path": "releases/22.03.5/targets/bcm63xx/smp/",
  "image_prefix": "openwrt-22.03.5-bcm63xx-smp-sagem_fast-2704-v2",
  "images": [
    {
      "filesystem": "squashfs",
      "name": "openwrt-22.03.5-bcm63xx-smp-sagem_fast-2704-v2-squashfs-cfe.bin",
      "sha256": "683f8c590658f3c41cee11b1ebf1611f1a532f6dcb0113733a40c62175c6e951",
      "sha256_unsigned": "683f8c590658f3c41cee11b1ebf1611f1a532f6dcb0113733a40c62175c6e951",
      "type": "cfe"
    }
  ],
  "metadata_version": 1,
  "model_id": "sagem_fast-2704-v2",
  "source_date_epoch": 1682627295,
  "supported_devices": [
    "sagem,fast-2704-v2"
  ],
  "target": "bcm63xx/smp",
  "titles": [
    {
      "model": "F@st 2704",
      "variant": "V2",
      "vendor": "Sagemcom"
    }
  ],
  "version_code": "r20134-5f15225c1e",
  "version_number": "22.03.5"
}