{
  "arch_packages": "mips_mips32",
  "build_at": "2023-09-22 06:59:57",
  "default_packages": [
    "base-files",
    "busybox",
    "ca-bundle",
    "dnsmasq",
    "dropbear",
    "firewall4",
    "fstools",
    "kmod-gpio-button-hotplug",
    "kmod-nft-offload",
    "libc",
    "libgcc",
    "libustream-wolfssl",
    "logd",
    "mtd",
    "netifd",
    "nftables",
    "odhcp6c",
    "odhcpd-ipv6only",
    "opkg",
    "ppp",
    "ppp-mod-pppoe",
    "procd",
    "procd-seccomp",
    "procd-ujail",
    "swconfig",
    "uci",
    "uclient-fetch",
    "urandom-seed",
    "urngd"
  ],
  "device_packages": [
    "kmod-usb2",
    "kmod-usb-ohci",
    "kmod-usb-ledtrig-usbport"
  ],
  "image_path": "releases/22.03.5/targets/bcm63xx/smp/",
  "image_prefix": "openwrt-22.03.5-bcm63xx-smp-telsey_cpva642",
  "images": [
    {
      "filesystem": "squashfs",
      "name": "openwrt-22.03.5-bcm63xx-smp-telsey_cpva642-squashfs-cfe.bin",
      "sha256": "4c54e10a078ce5f8e25f1f73b6558398554abf89ab5cdc147e23f10f888b32f6",
      "sha256_unsigned": "4c54e10a078ce5f8e25f1f73b6558398554abf89ab5cdc147e23f10f888b32f6",
      "type": "cfe"
    }
  ],
  "metadata_version": 1,
  "model_id": "telsey_cpva642",
  "source_date_epoch": 1682627295,
  "supported_devices": [
    "telsey,cpva642"
  ],
  "target": "bcm63xx/smp",
  "titles": [
    {
      "model": "CPVA642-type (CPA-ZNTE60T)",
      "vendor": "Telsey"
    }
  ],
  "version_code": "r20134-5f15225c1e",
  "version_number": "22.03.5"
}