{
  "arch_packages": "mipsel_24kc",
  "build_at": "2023-09-22 06:59:57",
  "default_packages": [
    "base-files",
    "libc",
    "libgcc",
    "busybox",
    "dropbear",
    "mtd",
    "uci",
    "opkg",
    "netifd",
    "fstools",
    "uclient-fetch",
    "logd",
    "urandom-seed",
    "urngd",
    "kmod-leds-gpio",
    "kmod-gpio-button-hotplug",
    "swconfig",
    "kmod-rt2800-soc",
    "wpad-basic",
    "dnsmasq",
    "iptables",
    "ip6tables",
    "ppp",
    "ppp-mod-pppoe",
    "firewall",
    "odhcpd-ipv6only",
    "odhcp6c",
    "kmod-ipt-offload",
    "kmod-leds-gpio",
    "kmod-gpio-button-hotplug",
    "swconfig"
  ],
  "device_packages": [
    "kmod-sound-core",
    "kmod-sound-mt7620",
    "kmod-i2c-ralink"
  ],
  "image_path": "releases/19.07.10/targets/ramips/mt7620/",
  "image_prefix": "openwrt-19.07.10-ramips-mt7620-dch-m225",
  "images": [
    {
      "filesystem": "squashfs",
      "name": "openwrt-19.07.10-ramips-mt7620-dch-m225-squashfs-sysupgrade.bin",
      "sha256": "2de19c596816a8f503d275af99f06617cd6ec5114a9690813e488c7fac33e44c",
      "type": "sysupgrade"
    },
    {
      "filesystem": "squashfs",
      "name": "openwrt-19.07.10-ramips-mt7620-dch-m225-squashfs-factory.bin",
      "sha256": "2ac9bc772dde6e5de16acd7e45acab45e5cad13d1635bc34aa03f656d3f8563b",
      "type": "factory"
    }
  ],
  "metadata_version": 1,
  "model_id": "dch-m225",
  "source_date_epoch": 1650114812,
  "supported_devices": [
    "dch-m225"
  ],
  "target": "ramips/mt7620",
  "titles": [
    {
      "title": "D-Link DCH-M225"
    }
  ],
  "version_code": "r11427-9ce6aa9d8d",
  "version_number": "19.07.10"
}