{
  "arch_packages": "mipsel_24kc",
  "build_at": "2023-09-22 06:59:57",
  "default_packages": [
    "base-files",
    "libc",
    "libgcc",
    "busybox",
    "dropbear",
    "mtd",
    "uci",
    "opkg",
    "netifd",
    "fstools",
    "uclient-fetch",
    "logd",
    "urandom-seed",
    "urngd",
    "kmod-leds-gpio",
    "kmod-gpio-button-hotplug",
    "swconfig",
    "kmod-rt2800-soc",
    "wpad-basic",
    "dnsmasq",
    "iptables",
    "ip6tables",
    "ppp",
    "ppp-mod-pppoe",
    "firewall",
    "odhcpd-ipv6only",
    "odhcp6c",
    "kmod-ipt-offload",
    "kmod-leds-gpio",
    "kmod-gpio-button-hotplug",
    "swconfig"
  ],
  "device_packages": [
    "kmod-mt76x0e",
    "kmod-usb2",
    "kmod-usb-ohci",
    "kmod-sdhci-mt7620",
    "kmod-usb-ledtrig-usbport"
  ],
  "image_path": "releases/19.07.10/targets/ramips/mt7620/",
  "image_prefix": "openwrt-19.07.10-ramips-mt7620-hc5761",
  "images": [
    {
      "filesystem": "squashfs",
      "name": "openwrt-19.07.10-ramips-mt7620-hc5761-squashfs-sysupgrade.bin",
      "sha256": "c0944397ab2b4f426299e0f3b94aa45df7c67f8141dcfdcad7efe967a33daf51",
      "type": "sysupgrade"
    }
  ],
  "metadata_version": 1,
  "model_id": "hc5761",
  "source_date_epoch": 1650114812,
  "supported_devices": [
    "hc5761"
  ],
  "target": "ramips/mt7620",
  "titles": [
    {
      "title": "HiWiFi HC5761"
    }
  ],
  "version_code": "r11427-9ce6aa9d8d",
  "version_number": "19.07.10"
}