{
  "arch_packages": "mipsel_24kc",
  "build_at": "2023-09-22 06:59:57",
  "default_packages": [
    "base-files",
    "libc",
    "libgcc",
    "busybox",
    "dropbear",
    "mtd",
    "uci",
    "opkg",
    "netifd",
    "fstools",
    "uclient-fetch",
    "logd",
    "urandom-seed",
    "urngd",
    "kmod-leds-gpio",
    "kmod-gpio-button-hotplug",
    "swconfig",
    "kmod-rt2800-soc",
    "wpad-basic",
    "dnsmasq",
    "iptables",
    "ip6tables",
    "ppp",
    "ppp-mod-pppoe",
    "firewall",
    "odhcpd-ipv6only",
    "odhcp6c",
    "kmod-ipt-offload",
    "kmod-leds-gpio",
    "kmod-gpio-button-hotplug",
    "swconfig"
  ],
  "device_packages": [
    "kmod-usb2",
    "kmod-usb-ohci",
    "kmod-usb-ledtrig-usbport",
    "kmod-switch-rtl8366-smi",
    "kmod-switch-rtl8367b"
  ],
  "image_path": "releases/19.07.10/targets/ramips/mt7620/",
  "image_prefix": "openwrt-19.07.10-ramips-mt7620-kng_rc",
  "images": [
    {
      "filesystem": "squashfs",
      "name": "openwrt-19.07.10-ramips-mt7620-kng_rc-squashfs-sysupgrade.bin",
      "sha256": "df6c3b0e4adcc063f6a1f309de1809e3beb24033deb5febade65e47331ecedf3",
      "type": "sysupgrade"
    },
    {
      "filesystem": "squashfs",
      "name": "openwrt-19.07.10-ramips-mt7620-kng_rc-squashfs-factory.bin",
      "sha256": "7bab3e9631da76ac8c63a03ca062ca1b1ff8a2f1d5b9c5bfe0ec7ea95384df5d",
      "type": "factory"
    }
  ],
  "metadata_version": 1,
  "model_id": "kng_rc",
  "source_date_epoch": 1650114812,
  "supported_devices": [
    "kng_rc"
  ],
  "target": "ramips/mt7620",
  "titles": [
    {
      "title": "ZyXEL Keenetic Viva"
    }
  ],
  "version_code": "r11427-9ce6aa9d8d",
  "version_number": "19.07.10"
}