{
  "arch_packages": "mipsel_24kc",
  "build_at": "2023-09-22 06:59:57",
  "default_packages": [
    "base-files",
    "libc",
    "libgcc",
    "busybox",
    "dropbear",
    "mtd",
    "uci",
    "opkg",
    "netifd",
    "fstools",
    "uclient-fetch",
    "logd",
    "urandom-seed",
    "urngd",
    "kmod-leds-gpio",
    "kmod-gpio-button-hotplug",
    "swconfig",
    "kmod-rt2800-soc",
    "wpad-basic",
    "dnsmasq",
    "iptables",
    "ip6tables",
    "ppp",
    "ppp-mod-pppoe",
    "firewall",
    "odhcpd-ipv6only",
    "odhcp6c",
    "kmod-ipt-offload",
    "kmod-leds-gpio",
    "kmod-gpio-button-hotplug",
    "swconfig"
  ],
  "device_packages": [],
  "image_path": "releases/19.07.10/targets/ramips/mt7620/",
  "image_prefix": "openwrt-19.07.10-ramips-mt7620-wmr-300",
  "images": [
    {
      "filesystem": "squashfs",
      "name": "openwrt-19.07.10-ramips-mt7620-wmr-300-squashfs-sysupgrade.bin",
      "sha256": "fbf770ee880733339a39245e1928a8c7dcf02f2d913815a7adf32f68dd68c16b",
      "type": "sysupgrade"
    }
  ],
  "metadata_version": 1,
  "model_id": "wmr-300",
  "source_date_epoch": 1650114812,
  "supported_devices": [
    "wmr-300"
  ],
  "target": "ramips/mt7620",
  "titles": [
    {
      "title": "Buffalo WMR-300"
    }
  ],
  "version_code": "r11427-9ce6aa9d8d",
  "version_number": "19.07.10"
}