{
  "arch_packages": "mipsel_24kc",
  "build_at": "2023-09-22 06:59:57",
  "default_packages": [
    "base-files",
    "libc",
    "libgcc",
    "busybox",
    "dropbear",
    "mtd",
    "uci",
    "opkg",
    "netifd",
    "fstools",
    "uclient-fetch",
    "logd",
    "urandom-seed",
    "urngd",
    "kmod-leds-gpio",
    "kmod-gpio-button-hotplug",
    "swconfig",
    "kmod-rt2800-soc",
    "wpad-basic",
    "dnsmasq",
    "iptables",
    "ip6tables",
    "ppp",
    "ppp-mod-pppoe",
    "firewall",
    "odhcpd-ipv6only",
    "odhcp6c",
    "kmod-ipt-offload",
    "kmod-leds-gpio",
    "kmod-gpio-button-hotplug",
    "swconfig"
  ],
  "device_packages": [],
  "image_path": "releases/19.07.10/targets/ramips/mt7620/",
  "image_prefix": "openwrt-19.07.10-ramips-mt7620-wn3000rpv3",
  "images": [
    {
      "filesystem": "squashfs",
      "name": "openwrt-19.07.10-ramips-mt7620-wn3000rpv3-squashfs-sysupgrade.bin",
      "sha256": "067c77ad0ce5dc265e49c331077fad3a289ecc01ff45008ee01ab3771ea19883",
      "type": "sysupgrade"
    },
    {
      "filesystem": "squashfs",
      "name": "openwrt-19.07.10-ramips-mt7620-wn3000rpv3-squashfs-factory.bin",
      "sha256": "4e48fa73d4c1ed2164926b955af8ba7400e77a04a4a85db3be58641fc6379156",
      "type": "factory"
    }
  ],
  "metadata_version": 1,
  "model_id": "wn3000rpv3",
  "source_date_epoch": 1650114812,
  "supported_devices": [
    "wn3000rpv3"
  ],
  "target": "ramips/mt7620",
  "titles": [
    {
      "title": "Netgear WN3000RPv3"
    }
  ],
  "version_code": "r11427-9ce6aa9d8d",
  "version_number": "19.07.10"
}