{
  "arch_packages": "mipsel_24kc",
  "build_at": "2023-09-22 06:59:57",
  "default_packages": [
    "base-files",
    "libc",
    "libgcc",
    "busybox",
    "dropbear",
    "mtd",
    "uci",
    "opkg",
    "netifd",
    "fstools",
    "uclient-fetch",
    "logd",
    "urandom-seed",
    "urngd",
    "kmod-leds-gpio",
    "kmod-gpio-button-hotplug",
    "swconfig",
    "kmod-rt2800-soc",
    "wpad-basic",
    "dnsmasq",
    "iptables",
    "ip6tables",
    "ppp",
    "ppp-mod-pppoe",
    "firewall",
    "odhcpd-ipv6only",
    "odhcp6c",
    "kmod-ipt-offload",
    "kmod-leds-gpio",
    "kmod-gpio-button-hotplug",
    "swconfig"
  ],
  "device_packages": [
    "kmod-mt76x2"
  ],
  "image_path": "releases/19.07.10/targets/ramips/mt7620/",
  "image_prefix": "openwrt-19.07.10-ramips-mt7620-zbt-ape522ii",
  "images": [
    {
      "filesystem": "squashfs",
      "name": "openwrt-19.07.10-ramips-mt7620-zbt-ape522ii-squashfs-sysupgrade.bin",
      "sha256": "2bcdf654b43aa88a1ea89c89fb27e4ba38d2659a8e50a96fa7e2392d3ffd651b",
      "type": "sysupgrade"
    }
  ],
  "metadata_version": 1,
  "model_id": "zbt-ape522ii",
  "source_date_epoch": 1650114812,
  "supported_devices": [
    "zbt-ape522ii"
  ],
  "target": "ramips/mt7620",
  "titles": [
    {
      "title": "Zbtlink ZBT-APE522II"
    }
  ],
  "version_code": "r11427-9ce6aa9d8d",
  "version_number": "19.07.10"
}