{
  "arch_packages": "aarch64_generic",
  "build_at": "2023-09-22 06:59:57",
  "default_packages": [
    "base-files",
    "libc",
    "libgcc",
    "busybox",
    "dropbear",
    "mtd",
    "uci",
    "opkg",
    "netifd",
    "fstools",
    "uclient-fetch",
    "logd",
    "urandom-seed",
    "urngd",
    "kmod-usb3",
    "kmod-usb-dwc3",
    "kmod-usb-storage",
    "dnsmasq",
    "iptables",
    "ip6tables",
    "ppp",
    "ppp-mod-pppoe",
    "firewall",
    "odhcpd-ipv6only",
    "odhcp6c",
    "kmod-ipt-offload",
    "kmod-usb3",
    "kmod-usb-dwc3",
    "kmod-usb-storage"
  ],
  "device_packages": [
    "layerscape-ppfe",
    "tfa-ls1012ardb",
    "kmod-ppfe"
  ],
  "image_path": "releases/19.07.10/targets/layerscape/armv8_64b/",
  "image_prefix": "openwrt-19.07.10-layerscape-armv8_64b-ls1012ardb",
  "images": [
    {
      "filesystem": "ubifs",
      "name": "openwrt-19.07.10-layerscape-armv8_64b-ls1012ardb-ubifs-firmware.bin",
      "sha256": "7a1c1560af92d8f2d36297294fc79c6b816d5913bc094c1069b7d896a63d8aab",
      "type": "firmware"
    }
  ],
  "metadata_version": 1,
  "model_id": "ls1012ardb",
  "source_date_epoch": 1650114812,
  "supported_devices": [],
  "target": "layerscape/armv8_64b",
  "titles": [
    {
      "title": "LS1012ARDB"
    }
  ],
  "version_code": "r11427-9ce6aa9d8d",
  "version_number": "19.07.10"
}