{
  "arch_packages": "arm_cortex-a7_neon-vfpv4",
  "build_at": "2023-09-22 06:59:57",
  "default_packages": [
    "ath10k-firmware-qca4019-ct",
    "base-files",
    "busybox",
    "ca-bundle",
    "dnsmasq",
    "dropbear",
    "firewall4",
    "fstools",
    "kmod-ath10k-ct",
    "kmod-gpio-button-hotplug",
    "kmod-leds-gpio",
    "kmod-nft-offload",
    "kmod-usb-dwc3",
    "kmod-usb-dwc3-qcom",
    "kmod-usb3",
    "libc",
    "libgcc",
    "libustream-wolfssl",
    "logd",
    "mtd",
    "netifd",
    "nftables",
    "odhcp6c",
    "odhcpd-ipv6only",
    "opkg",
    "ppp",
    "ppp-mod-pppoe",
    "procd",
    "procd-seccomp",
    "procd-ujail",
    "swconfig",
    "uboot-envtools",
    "uci",
    "uclient-fetch",
    "urandom-seed",
    "urngd",
    "wpad-basic-wolfssl"
  ],
  "device_packages": [
    "kmod-ledtrig-gpio"
  ],
  "image_path": "releases/22.03.5/targets/ipq40xx/mikrotik/",
  "image_prefix": "openwrt-22.03.5-ipq40xx-mikrotik-mikrotik_hap-ac3",
  "images": [
    {
      "filesystem": "squashfs",
      "name": "openwrt-22.03.5-ipq40xx-mikrotik-mikrotik_hap-ac3-squashfs-nand-sysupgrade.bin",
      "sha256": "a09eb793035c2af3b6aa79ac626c5fef51a2b41b3653d27d0807d3091e394e1d",
      "sha256_unsigned": "4b27c6713c713047385ab891868e0c343ec397f09f895f27d1cb919585a6da0d",
      "type": "nand-sysupgrade"
    },
    {
      "filesystem": "initramfs",
      "name": "openwrt-22.03.5-ipq40xx-mikrotik-mikrotik_hap-ac3-initramfs-kernel.bin",
      "sha256": "17d229ea71e48ab3396b50e91479dbb23de05469c6a134e913e568d926b9c2d4",
      "sha256_unsigned": "17d229ea71e48ab3396b50e91479dbb23de05469c6a134e913e568d926b9c2d4",
      "type": "kernel"
    }
  ],
  "metadata_version": 1,
  "model_id": "mikrotik_hap-ac3",
  "source_date_epoch": 1682627295,
  "supported_devices": [
    "mikrotik,hap-ac3"
  ],
  "target": "ipq40xx/mikrotik",
  "titles": [
    {
      "model": "hAP ac3",
      "vendor": "MikroTik"
    }
  ],
  "version_code": "r20134-5f15225c1e",
  "version_number": "22.03.5"
}