{
  "arch_packages": "mipsel_74kc",
  "build_at": "2023-09-22 06:59:57",
  "default_packages": [
    "base-files",
    "libc",
    "libgcc",
    "busybox",
    "dropbear",
    "mtd",
    "uci",
    "opkg",
    "netifd",
    "fstools",
    "uclient-fetch",
    "logd",
    "urandom-seed",
    "urngd",
    "kmod-leds-gpio",
    "kmod-gpio-button-hotplug",
    "swconfig",
    "kmod-rt2800-pci",
    "kmod-rt2800-soc",
    "wpad-mini",
    "dnsmasq",
    "iptables",
    "ip6tables",
    "ppp",
    "ppp-mod-pppoe",
    "firewall",
    "odhcpd-ipv6only",
    "odhcp6c",
    "kmod-ipt-offload",
    "kmod-leds-gpio",
    "kmod-gpio-button-hotplug",
    "swconfig"
  ],
  "device_packages": [
    "swconfig"
  ],
  "image_path": "releases/19.07.10/targets/ramips/rt3883/",
  "image_prefix": "openwrt-19.07.10-ramips-rt3883-tew-692gr",
  "images": [
    {
      "filesystem": "squashfs",
      "name": "openwrt-19.07.10-ramips-rt3883-tew-692gr-squashfs-sysupgrade.bin",
      "sha256": "c31c4ea4eb5dbcb30416a65f91d0a4f491fcd10eff86c8720f7e64514eea332f",
      "type": "sysupgrade"
    },
    {
      "filesystem": "squashfs",
      "name": "openwrt-19.07.10-ramips-rt3883-tew-692gr-squashfs-factory.bin",
      "sha256": "3e33e11ba7b038e8576c7b44ad82113021439ae2006ff611b12d4e4d773263d4",
      "type": "factory"
    }
  ],
  "metadata_version": 1,
  "model_id": "tew-692gr",
  "source_date_epoch": 1650114812,
  "supported_devices": [
    "tew-692gr"
  ],
  "target": "ramips/rt3883",
  "titles": [
    {
      "title": "TRENDnet TEW-692GR"
    }
  ],
  "version_code": "r11427-9ce6aa9d8d",
  "version_number": "19.07.10"
}