{
  "arch_packages": "mips_mips32",
  "build_at": "2023-09-22 06:59:57",
  "default_packages": [
    "base-files",
    "libc",
    "libgcc",
    "busybox",
    "dropbear",
    "mtd",
    "uci",
    "opkg",
    "netifd",
    "fstools",
    "uclient-fetch",
    "logd",
    "urandom-seed",
    "urngd",
    "swconfig",
    "kmod-gpio-button-hotplug",
    "dnsmasq",
    "iptables",
    "ip6tables",
    "ppp",
    "ppp-mod-pppoe",
    "firewall",
    "odhcpd-ipv6only",
    "odhcp6c",
    "kmod-ipt-offload",
    "swconfig",
    "kmod-gpio-button-hotplug"
  ],
  "device_packages": [],
  "image_path": "releases/19.07.10/targets/brcm63xx/smp/",
  "image_prefix": "openwrt-19.07.10-brcm63xx-smp-96328avng-generic",
  "images": [
    {
      "filesystem": "squashfs",
      "name": "openwrt-19.07.10-brcm63xx-smp-96328avng-generic-squashfs-cfe-16M.bin",
      "sha256": "9cffc026d795d3e74c7b52f8a0d5be7dfe223c8013a1f1f3d2f4623ef1e97f38",
      "type": "cfe-16M"
    },
    {
      "filesystem": "squashfs",
      "name": "openwrt-19.07.10-brcm63xx-smp-96328avng-generic-squashfs-cfe-8M.bin",
      "sha256": "34c4c267485bfa2aed94342da95009ad902d7985b5b68bf5a1cc353728b41802",
      "type": "cfe-8M"
    },
    {
      "filesystem": "squashfs",
      "name": "openwrt-19.07.10-brcm63xx-smp-96328avng-generic-squashfs-cfe-4M.bin",
      "sha256": "af8b32ae1c03b4cdb2a3ddc194871c811f04620fd188b2b65274472c288e59a5",
      "type": "cfe-4M"
    }
  ],
  "metadata_version": 1,
  "model_id": "96328avng-generic",
  "source_date_epoch": 1650114812,
  "supported_devices": [],
  "target": "brcm63xx/smp",
  "titles": [
    {
      "title": "Generic 96328avng"
    }
  ],
  "version_code": "r11427-9ce6aa9d8d",
  "version_number": "19.07.10"
}