{
  "arch_packages": "mips_mips32",
  "build_at": "2023-09-22 06:59:57",
  "default_packages": [
    "base-files",
    "libc",
    "libgcc",
    "busybox",
    "dropbear",
    "mtd",
    "uci",
    "opkg",
    "netifd",
    "fstools",
    "uclient-fetch",
    "logd",
    "urandom-seed",
    "urngd",
    "swconfig",
    "kmod-gpio-button-hotplug",
    "dnsmasq",
    "iptables",
    "ip6tables",
    "ppp",
    "ppp-mod-pppoe",
    "firewall",
    "odhcpd-ipv6only",
    "odhcp6c",
    "kmod-ipt-offload",
    "swconfig",
    "kmod-gpio-button-hotplug"
  ],
  "device_packages": [],
  "image_path": "releases/19.07.10/targets/brcm63xx/smp/",
  "image_prefix": "openwrt-19.07.10-brcm63xx-smp-96348GW-10-generic",
  "images": [
    {
      "filesystem": "squashfs",
      "name": "openwrt-19.07.10-brcm63xx-smp-96348GW-10-generic-squashfs-cfe.bin",
      "sha256": "febb7f695959379d10d35d06f2575160ee0830dca4e5a0823e9da8b0b29a3d6a",
      "type": "cfe"
    }
  ],
  "metadata_version": 1,
  "model_id": "96348GW-10-generic",
  "source_date_epoch": 1650114812,
  "supported_devices": [],
  "target": "brcm63xx/smp",
  "titles": [
    {
      "title": "Generic 96348GW-10"
    }
  ],
  "version_code": "r11427-9ce6aa9d8d",
  "version_number": "19.07.10"
}