{
  "arch_packages": "mips_mips32",
  "build_at": "2023-09-22 06:59:57",
  "default_packages": [
    "base-files",
    "libc",
    "libgcc",
    "busybox",
    "dropbear",
    "mtd",
    "uci",
    "opkg",
    "netifd",
    "fstools",
    "uclient-fetch",
    "logd",
    "urandom-seed",
    "urngd",
    "swconfig",
    "kmod-gpio-button-hotplug",
    "dnsmasq",
    "iptables",
    "ip6tables",
    "ppp",
    "ppp-mod-pppoe",
    "firewall",
    "odhcpd-ipv6only",
    "odhcp6c",
    "kmod-ipt-offload",
    "swconfig",
    "kmod-gpio-button-hotplug"
  ],
  "device_packages": [
    "kmod-b43",
    "wpad-basic",
    "iwinfo"
  ],
  "image_path": "releases/19.07.10/targets/brcm63xx/smp/",
  "image_prefix": "openwrt-19.07.10-brcm63xx-smp-BTV2110",
  "images": [
    {
      "filesystem": "squashfs",
      "name": "openwrt-19.07.10-brcm63xx-smp-BTV2110-squashfs-cfe.bin",
      "sha256": "75c8e2ddbd140d230c3ad0c328857633a2acc58d3bae63babaf52bbeca5341e7",
      "type": "cfe"
    }
  ],
  "metadata_version": 1,
  "model_id": "BTV2110",
  "source_date_epoch": 1650114812,
  "supported_devices": [],
  "target": "brcm63xx/smp",
  "titles": [
    {
      "title": "BT Voyager V2110"
    }
  ],
  "version_code": "r11427-9ce6aa9d8d",
  "version_number": "19.07.10"
}