{
  "arch_packages": "mips_mips32",
  "build_at": "2023-09-22 06:59:57",
  "default_packages": [
    "base-files",
    "libc",
    "libgcc",
    "busybox",
    "dropbear",
    "mtd",
    "uci",
    "opkg",
    "netifd",
    "fstools",
    "uclient-fetch",
    "logd",
    "urandom-seed",
    "urngd",
    "swconfig",
    "kmod-gpio-button-hotplug",
    "dnsmasq",
    "iptables",
    "ip6tables",
    "ppp",
    "ppp-mod-pppoe",
    "firewall",
    "odhcpd-ipv6only",
    "odhcp6c",
    "kmod-ipt-offload",
    "swconfig",
    "kmod-gpio-button-hotplug"
  ],
  "device_packages": [
    "kmod-rt2800-pci",
    "wpad-basic",
    "kmod-usb2",
    "kmod-usb-ohci",
    "kmod-usb-ledtrig-usbport",
    "iwinfo"
  ],
  "image_path": "releases/19.07.10/targets/brcm63xx/smp/",
  "image_prefix": "openwrt-19.07.10-brcm63xx-smp-HG556a-C",
  "images": [
    {
      "filesystem": "squashfs",
      "name": "openwrt-19.07.10-brcm63xx-smp-HG556a-C-squashfs-cfe.bin",
      "sha256": "6c3c7f44e50ab60777a9d701c21ba844cfcb8728457d7a534db06b01f5a9e07e",
      "type": "cfe"
    }
  ],
  "metadata_version": 1,
  "model_id": "HG556a-C",
  "source_date_epoch": 1650114812,
  "supported_devices": [],
  "target": "brcm63xx/smp",
  "titles": [
    {
      "title": "Huawei EchoLife HG556a rev C"
    }
  ],
  "version_code": "r11427-9ce6aa9d8d",
  "version_number": "19.07.10"
}