{
  "arch_packages": "mipsel_24kc",
  "build_at": "2023-09-22 06:59:57",
  "default_packages": [
    "base-files",
    "busybox",
    "ca-bundle",
    "dnsmasq",
    "dropbear",
    "firewall4",
    "fstools",
    "kmod-gpio-button-hotplug",
    "kmod-leds-gpio",
    "kmod-nft-offload",
    "kmod-rt2800-soc",
    "libc",
    "libgcc",
    "libustream-wolfssl",
    "logd",
    "mtd",
    "netifd",
    "nftables",
    "odhcp6c",
    "odhcpd-ipv6only",
    "opkg",
    "ppp",
    "ppp-mod-pppoe",
    "procd",
    "procd-seccomp",
    "procd-ujail",
    "swconfig",
    "uci",
    "uclient-fetch",
    "urandom-seed",
    "urngd",
    "wpad-basic-wolfssl"
  ],
  "device_packages": [
    "kmod-mt76x0e",
    "kmod-sdhci-mt7620",
    "kmod-usb2",
    "kmod-usb-ohci"
  ],
  "image_path": "releases/22.03.5/targets/ramips/mt7620/",
  "image_prefix": "openwrt-22.03.5-ramips-mt7620-domywifi_dm203",
  "images": [
    {
      "filesystem": "squashfs",
      "name": "openwrt-22.03.5-ramips-mt7620-domywifi_dm203-squashfs-sysupgrade.bin",
      "sha256": "b845e286e8403cbb6494f2ed4e96344d700d4df2da56bfcb850282921e959cc8",
      "sha256_unsigned": "172a952313b9b080162a9bc84a593f0228c635961fa5a4a9d913ec5445520b51",
      "type": "sysupgrade"
    },
    {
      "filesystem": "initramfs",
      "name": "openwrt-22.03.5-ramips-mt7620-domywifi_dm203-initramfs-kernel.bin",
      "sha256": "7f18f5009066ce637728194ac92ba78d0c1ec9b018523b5520b81d773760e345",
      "sha256_unsigned": "7f18f5009066ce637728194ac92ba78d0c1ec9b018523b5520b81d773760e345",
      "type": "kernel"
    }
  ],
  "metadata_version": 1,
  "model_id": "domywifi_dm203",
  "source_date_epoch": 1682627295,
  "supported_devices": [
    "domywifi,dm203"
  ],
  "target": "ramips/mt7620",
  "titles": [
    {
      "model": "DM203",
      "vendor": "DomyWifi"
    }
  ],
  "version_code": "r20134-5f15225c1e",
  "version_number": "22.03.5"
}