{
  "arch_packages": "mipsel_24kc",
  "build_at": "2023-09-22 06:59:57",
  "default_packages": [
    "base-files",
    "busybox",
    "ca-bundle",
    "dnsmasq",
    "dropbear",
    "firewall4",
    "fstools",
    "kmod-gpio-button-hotplug",
    "kmod-leds-gpio",
    "kmod-nft-offload",
    "kmod-rt2800-soc",
    "libc",
    "libgcc",
    "libustream-wolfssl",
    "logd",
    "mtd",
    "netifd",
    "nftables",
    "odhcp6c",
    "odhcpd-ipv6only",
    "opkg",
    "ppp",
    "ppp-mod-pppoe",
    "procd",
    "procd-seccomp",
    "procd-ujail",
    "swconfig",
    "uci",
    "uclient-fetch",
    "urandom-seed",
    "urngd",
    "wpad-basic-wolfssl"
  ],
  "device_packages": [
    "kmod-mt76x2",
    "kmod-usb2",
    "kmod-usb-ohci",
    "kmod-usb-ledtrig-usbport"
  ],
  "image_path": "releases/22.03.5/targets/ramips/mt7620/",
  "image_prefix": "openwrt-22.03.5-ramips-mt7620-edimax_ew-7478apc",
  "images": [
    {
      "filesystem": "squashfs",
      "name": "openwrt-22.03.5-ramips-mt7620-edimax_ew-7478apc-squashfs-sysupgrade.bin",
      "sha256": "b5ec6ff80158727bce51fe5847631437b64ece5b65ffcc8edaf448eb38a7127d",
      "sha256_unsigned": "3d99948492f76306efcabf44e0c7f4248760f03a6fc30c681525dd8e9f796f07",
      "type": "sysupgrade"
    },
    {
      "filesystem": "initramfs",
      "name": "openwrt-22.03.5-ramips-mt7620-edimax_ew-7478apc-initramfs-kernel.bin",
      "sha256": "84a620084715abb5f2ce08e7f24b8852c68b45e48c5fd4d1e6f0e84a4cc01de5",
      "sha256_unsigned": "84a620084715abb5f2ce08e7f24b8852c68b45e48c5fd4d1e6f0e84a4cc01de5",
      "type": "kernel"
    }
  ],
  "metadata_version": 1,
  "model_id": "edimax_ew-7478apc",
  "source_date_epoch": 1682627295,
  "supported_devices": [
    "edimax,ew-7478apc"
  ],
  "target": "ramips/mt7620",
  "titles": [
    {
      "model": "EW-7478APC",
      "vendor": "Edimax"
    }
  ],
  "version_code": "r20134-5f15225c1e",
  "version_number": "22.03.5"
}