{
  "arch_packages": "mipsel_24kc",
  "build_at": "2023-09-22 06:59:57",
  "default_packages": [
    "base-files",
    "busybox",
    "ca-bundle",
    "dnsmasq",
    "dropbear",
    "firewall4",
    "fstools",
    "kmod-gpio-button-hotplug",
    "kmod-leds-gpio",
    "kmod-nft-offload",
    "kmod-rt2800-soc",
    "libc",
    "libgcc",
    "libustream-wolfssl",
    "logd",
    "mtd",
    "netifd",
    "nftables",
    "odhcp6c",
    "odhcpd-ipv6only",
    "opkg",
    "ppp",
    "ppp-mod-pppoe",
    "procd",
    "procd-seccomp",
    "procd-ujail",
    "swconfig",
    "uci",
    "uclient-fetch",
    "urandom-seed",
    "urngd",
    "wpad-basic-wolfssl"
  ],
  "device_packages": [
    "kmod-usb2",
    "kmod-usb-ohci"
  ],
  "image_path": "releases/22.03.5/targets/ramips/mt7620/",
  "image_prefix": "openwrt-22.03.5-ramips-mt7620-microduino_microwrt",
  "images": [
    {
      "filesystem": "squashfs",
      "name": "openwrt-22.03.5-ramips-mt7620-microduino_microwrt-squashfs-sysupgrade.bin",
      "sha256": "7380d24537d57d26d62d5cdf3bc2d9d00af2e7f7457999b3f0eb44660db3e262",
      "sha256_unsigned": "77cad5fc99e291556be0345a3406cc293ca672b52fae98e7d1502c78efc24b34",
      "type": "sysupgrade"
    },
    {
      "filesystem": "initramfs",
      "name": "openwrt-22.03.5-ramips-mt7620-microduino_microwrt-initramfs-kernel.bin",
      "sha256": "65cebb788d16b27b2ad60b0b0e9055a4779e71234c60c0e4a3ac2eff9b6098b1",
      "sha256_unsigned": "65cebb788d16b27b2ad60b0b0e9055a4779e71234c60c0e4a3ac2eff9b6098b1",
      "type": "kernel"
    }
  ],
  "metadata_version": 1,
  "model_id": "microduino_microwrt",
  "source_date_epoch": 1682627295,
  "supported_devices": [
    "microduino,microwrt",
    "microwrt"
  ],
  "target": "ramips/mt7620",
  "titles": [
    {
      "model": "MicroWRT",
      "vendor": "Microduino"
    }
  ],
  "version_code": "r20134-5f15225c1e",
  "version_number": "22.03.5"
}