{
  "arch_packages": "mipsel_24kc",
  "build_at": "2023-09-22 06:59:57",
  "default_packages": [
    "base-files",
    "busybox",
    "ca-bundle",
    "dnsmasq",
    "dropbear",
    "firewall4",
    "fstools",
    "kmod-gpio-button-hotplug",
    "kmod-leds-gpio",
    "kmod-nft-offload",
    "kmod-rt2800-soc",
    "libc",
    "libgcc",
    "libustream-wolfssl",
    "logd",
    "mtd",
    "netifd",
    "nftables",
    "odhcp6c",
    "odhcpd-ipv6only",
    "opkg",
    "ppp",
    "ppp-mod-pppoe",
    "procd",
    "procd-seccomp",
    "procd-ujail",
    "swconfig",
    "uci",
    "uclient-fetch",
    "urandom-seed",
    "urngd",
    "wpad-basic-wolfssl"
  ],
  "device_packages": [
    "kmod-mt76x0e"
  ],
  "image_path": "releases/22.03.5/targets/ramips/mt7620/",
  "image_prefix": "openwrt-22.03.5-ramips-mt7620-netis_wf2770",
  "images": [
    {
      "filesystem": "squashfs",
      "name": "openwrt-22.03.5-ramips-mt7620-netis_wf2770-squashfs-sysupgrade.bin",
      "sha256": "d78ffb58764c7206ee8413da943d00e9e09cfcd6988dcf4d40c21c7dd3b986b8",
      "sha256_unsigned": "1ce8bced9673776b4a592356a9430ce006fdf34eee21a1186331e033638a945f",
      "type": "sysupgrade"
    },
    {
      "filesystem": "initramfs",
      "name": "openwrt-22.03.5-ramips-mt7620-netis_wf2770-initramfs-kernel.bin",
      "sha256": "c2c13a535b6e05ed3ec1c7a88d70d5bdca6f0f1385779997822acc52b42afa2a",
      "sha256_unsigned": "c2c13a535b6e05ed3ec1c7a88d70d5bdca6f0f1385779997822acc52b42afa2a",
      "type": "kernel"
    }
  ],
  "metadata_version": 1,
  "model_id": "netis_wf2770",
  "source_date_epoch": 1682627295,
  "supported_devices": [
    "netis,wf2770"
  ],
  "target": "ramips/mt7620",
  "titles": [
    {
      "model": "WF2770",
      "vendor": "NETIS"
    }
  ],
  "version_code": "r20134-5f15225c1e",
  "version_number": "22.03.5"
}