{
  "arch_packages": "mipsel_24kc",
  "build_at": "2023-09-22 06:59:57",
  "default_packages": [
    "base-files",
    "busybox",
    "ca-bundle",
    "dnsmasq",
    "dropbear",
    "firewall4",
    "fstools",
    "kmod-gpio-button-hotplug",
    "kmod-leds-gpio",
    "kmod-nft-offload",
    "kmod-rt2800-soc",
    "libc",
    "libgcc",
    "libustream-wolfssl",
    "logd",
    "mtd",
    "netifd",
    "nftables",
    "odhcp6c",
    "odhcpd-ipv6only",
    "opkg",
    "ppp",
    "ppp-mod-pppoe",
    "procd",
    "procd-seccomp",
    "procd-ujail",
    "swconfig",
    "uci",
    "uclient-fetch",
    "urandom-seed",
    "urngd",
    "wpad-basic-wolfssl"
  ],
  "device_packages": [
    "kmod-usb2",
    "kmod-usb-ohci",
    "kmod-sdhci-mt7620"
  ],
  "image_path": "releases/22.03.5/targets/ramips/mt7620/",
  "image_prefix": "openwrt-22.03.5-ramips-mt7620-zbtlink_zbt-we1026-h-32m",
  "images": [
    {
      "filesystem": "initramfs",
      "name": "openwrt-22.03.5-ramips-mt7620-zbtlink_zbt-we1026-h-32m-initramfs-kernel.bin",
      "sha256": "a3bb9e52983dbba0d27954ce6a3163ec0a45a60a57430b142037e97f0a2a356e",
      "sha256_unsigned": "a3bb9e52983dbba0d27954ce6a3163ec0a45a60a57430b142037e97f0a2a356e",
      "type": "kernel"
    },
    {
      "filesystem": "squashfs",
      "name": "openwrt-22.03.5-ramips-mt7620-zbtlink_zbt-we1026-h-32m-squashfs-sysupgrade.bin",
      "sha256": "57dcdc94ddbefde5462b79fb04208c864f14a19d5b452b505b6bf2c6767821f8",
      "sha256_unsigned": "fe7bb9b1b5a01a3d534dca4ec335fe3058583676b4aff7dcd20059d1601266f1",
      "type": "sysupgrade"
    }
  ],
  "metadata_version": 1,
  "model_id": "zbtlink_zbt-we1026-h-32m",
  "source_date_epoch": 1682627295,
  "supported_devices": [
    "zbtlink,zbt-we1026-h-32m"
  ],
  "target": "ramips/mt7620",
  "titles": [
    {
      "model": "ZBT-WE1026-H",
      "variant": "32M",
      "vendor": "Zbtlink"
    }
  ],
  "version_code": "r20134-5f15225c1e",
  "version_number": "22.03.5"
}