{
  "arch_packages": "mipsel_24kc",
  "build_at": "2023-09-22 06:59:57",
  "default_packages": [
    "base-files",
    "busybox",
    "ca-bundle",
    "dnsmasq",
    "dropbear",
    "firewall4",
    "fstools",
    "kmod-gpio-button-hotplug",
    "kmod-leds-gpio",
    "kmod-nft-offload",
    "kmod-rt2800-soc",
    "libc",
    "libgcc",
    "libustream-wolfssl",
    "logd",
    "mtd",
    "netifd",
    "nftables",
    "odhcp6c",
    "odhcpd-ipv6only",
    "opkg",
    "ppp",
    "ppp-mod-pppoe",
    "procd",
    "procd-seccomp",
    "procd-ujail",
    "swconfig",
    "uci",
    "uclient-fetch",
    "urandom-seed",
    "urngd",
    "wpad-basic-wolfssl"
  ],
  "device_packages": [
    "kmod-usb2",
    "kmod-usb-ohci",
    "kmod-usb-ledtrig-usbport"
  ],
  "image_path": "releases/22.03.5/targets/ramips/mt7620/",
  "image_prefix": "openwrt-22.03.5-ramips-mt7620-zyxel_keenetic-omni",
  "images": [
    {
      "filesystem": "squashfs",
      "name": "openwrt-22.03.5-ramips-mt7620-zyxel_keenetic-omni-squashfs-factory.bin",
      "sha256": "cc8e55b38432f3593b16136da71c901b6924fc3fc0ac29d42e4d39eb6eedd962",
      "sha256_unsigned": "cc8e55b38432f3593b16136da71c901b6924fc3fc0ac29d42e4d39eb6eedd962",
      "type": "factory"
    },
    {
      "filesystem": "initramfs",
      "name": "openwrt-22.03.5-ramips-mt7620-zyxel_keenetic-omni-initramfs-kernel.bin",
      "sha256": "e8126b6068f5f99b1a0e002ee27864f0f16bc62e1626dad007dc37970983fb8d",
      "sha256_unsigned": "e8126b6068f5f99b1a0e002ee27864f0f16bc62e1626dad007dc37970983fb8d",
      "type": "kernel"
    },
    {
      "filesystem": "squashfs",
      "name": "openwrt-22.03.5-ramips-mt7620-zyxel_keenetic-omni-squashfs-sysupgrade.bin",
      "sha256": "f07d1a241421614afa25317c517c5cdd3ba0360fd572de02a4547f1601b19775",
      "sha256_unsigned": "3894b47ea9860b23d22838047b488fe93b25a1be034780fbd1d5f0d901e26dd9",
      "type": "sysupgrade"
    }
  ],
  "metadata_version": 1,
  "model_id": "zyxel_keenetic-omni",
  "source_date_epoch": 1682627295,
  "supported_devices": [
    "zyxel,keenetic-omni",
    "kn_rc"
  ],
  "target": "ramips/mt7620",
  "titles": [
    {
      "model": "Keenetic Omni",
      "vendor": "ZyXEL"
    }
  ],
  "version_code": "r20134-5f15225c1e",
  "version_number": "22.03.5"
}