{
  "arch_packages": "mips_24kc",
  "build_at": "2023-09-22 06:59:57",
  "default_packages": [
    "base-files",
    "libc",
    "libgcc",
    "busybox",
    "dropbear",
    "mtd",
    "uci",
    "opkg",
    "netifd",
    "fstools",
    "uclient-fetch",
    "logd",
    "urandom-seed",
    "urngd",
    "kmod-gpio-button-hotplug",
    "swconfig",
    "kmod-ath9k",
    "uboot-envtools",
    "wpad-basic",
    "dnsmasq",
    "iptables",
    "ip6tables",
    "ppp",
    "ppp-mod-pppoe",
    "firewall",
    "odhcpd-ipv6only",
    "odhcp6c",
    "kmod-ipt-offload",
    "kmod-gpio-button-hotplug",
    "swconfig",
    "kmod-ath9k",
    "uboot-envtools"
  ],
  "device_packages": [
    "kmod-i2c-core",
    "kmod-i2c-gpio",
    "kmod-tpm-i2c-atmel"
  ],
  "image_path": "releases/19.07.10/targets/ath79/generic/",
  "image_prefix": "openwrt-19.07.10-ath79-generic-aruba_ap-105",
  "images": [
    {
      "filesystem": "squashfs",
      "name": "openwrt-19.07.10-ath79-generic-aruba_ap-105-squashfs-sysupgrade.bin",
      "sha256": "0510587a7aa5ba2917967764c947df1d25c8702d145e894a040c871ad1e0ced8",
      "type": "sysupgrade"
    }
  ],
  "metadata_version": 1,
  "model_id": "aruba_ap-105",
  "source_date_epoch": 1650114812,
  "supported_devices": [
    "aruba,ap-105"
  ],
  "target": "ath79/generic",
  "titles": [
    {
      "title": "Aruba AP-105"
    }
  ],
  "version_code": "r11427-9ce6aa9d8d",
  "version_number": "19.07.10"
}