{
  "arch_packages": "mips_24kc",
  "build_at": "2023-09-22 06:59:57",
  "default_packages": [
    "base-files",
    "libc",
    "libgcc",
    "busybox",
    "dropbear",
    "mtd",
    "uci",
    "opkg",
    "netifd",
    "fstools",
    "uclient-fetch",
    "logd",
    "urandom-seed",
    "urngd",
    "kmod-gpio-button-hotplug",
    "swconfig",
    "kmod-ath9k",
    "uboot-envtools",
    "wpad-basic",
    "dnsmasq",
    "iptables",
    "ip6tables",
    "ppp",
    "ppp-mod-pppoe",
    "firewall",
    "odhcpd-ipv6only",
    "odhcp6c",
    "kmod-ipt-offload",
    "kmod-gpio-button-hotplug",
    "swconfig",
    "kmod-ath9k",
    "uboot-envtools"
  ],
  "device_packages": [
    "kmod-usb-core",
    "kmod-usb2",
    "kmod-usb-ledtrig-usbport"
  ],
  "image_path": "releases/19.07.10/targets/ath79/generic/",
  "image_prefix": "openwrt-19.07.10-ath79-generic-buffalo_bhr-4grv",
  "images": [
    {
      "filesystem": "squashfs",
      "name": "openwrt-19.07.10-ath79-generic-buffalo_bhr-4grv-squashfs-factory.bin",
      "sha256": "b44ff3e639ab9348f4f3ee143302c528068125718e7a7a937d7f1121f27cee32",
      "type": "factory"
    },
    {
      "filesystem": "squashfs",
      "name": "openwrt-19.07.10-ath79-generic-buffalo_bhr-4grv-squashfs-tftp.bin",
      "sha256": "dd4de4d2f9ce0893ad4b724a2f9fdaf8b42cbc79695f4f55b349b53261af9c11",
      "type": "tftp"
    },
    {
      "filesystem": "squashfs",
      "name": "openwrt-19.07.10-ath79-generic-buffalo_bhr-4grv-squashfs-sysupgrade.bin",
      "sha256": "e8e1ffe3beff86f13cff64aa3dd1a87f635679454457b8248d85ba9c15c38fcc",
      "type": "sysupgrade"
    }
  ],
  "metadata_version": 1,
  "model_id": "buffalo_bhr-4grv",
  "source_date_epoch": 1650114812,
  "supported_devices": [
    "buffalo,bhr-4grv",
    "wzr-hp-g450h"
  ],
  "target": "ath79/generic",
  "titles": [
    {
      "title": "Buffalo BHR-4GRV"
    }
  ],
  "version_code": "r11427-9ce6aa9d8d",
  "version_number": "19.07.10"
}