{
  "arch_packages": "mips_24kc",
  "build_at": "2023-09-22 06:59:57",
  "default_packages": [
    "base-files",
    "libc",
    "libgcc",
    "busybox",
    "dropbear",
    "mtd",
    "uci",
    "opkg",
    "netifd",
    "fstools",
    "uclient-fetch",
    "logd",
    "urandom-seed",
    "urngd",
    "kmod-gpio-button-hotplug",
    "swconfig",
    "kmod-ath9k",
    "uboot-envtools",
    "wpad-basic",
    "dnsmasq",
    "iptables",
    "ip6tables",
    "ppp",
    "ppp-mod-pppoe",
    "firewall",
    "odhcpd-ipv6only",
    "odhcp6c",
    "kmod-ipt-offload",
    "kmod-gpio-button-hotplug",
    "swconfig",
    "kmod-ath9k",
    "uboot-envtools"
  ],
  "device_packages": [
    "kmod-usb-core",
    "kmod-usb-ohci",
    "kmod-usb2",
    "kmod-usb-ledtrig-usbport",
    "kmod-leds-reset",
    "kmod-owl-loader"
  ],
  "image_path": "releases/19.07.10/targets/ath79/generic/",
  "image_prefix": "openwrt-19.07.10-ath79-generic-dlink_dir-825-b1",
  "images": [
    {
      "filesystem": "squashfs",
      "name": "openwrt-19.07.10-ath79-generic-dlink_dir-825-b1-squashfs-sysupgrade.bin",
      "sha256": "1035816a407cb1a33a2ed50bb15601556722610b0a78a0b520cc8d3480927cf8",
      "type": "sysupgrade"
    }
  ],
  "metadata_version": 1,
  "model_id": "dlink_dir-825-b1",
  "source_date_epoch": 1650114812,
  "supported_devices": [
    "dlink,dir-825-b1",
    "dir-825-b1"
  ],
  "target": "ath79/generic",
  "titles": [
    {
      "title": "D-LINK DIR-825 B1"
    }
  ],
  "version_code": "r11427-9ce6aa9d8d",
  "version_number": "19.07.10"
}