{
  "arch_packages": "mips_24kc",
  "build_at": "2023-09-22 06:59:57",
  "default_packages": [
    "base-files",
    "libc",
    "libgcc",
    "busybox",
    "dropbear",
    "mtd",
    "uci",
    "opkg",
    "netifd",
    "fstools",
    "uclient-fetch",
    "logd",
    "urandom-seed",
    "urngd",
    "kmod-gpio-button-hotplug",
    "swconfig",
    "kmod-ath9k",
    "uboot-envtools",
    "wpad-basic",
    "dnsmasq",
    "iptables",
    "ip6tables",
    "ppp",
    "ppp-mod-pppoe",
    "firewall",
    "odhcpd-ipv6only",
    "odhcp6c",
    "kmod-ipt-offload",
    "kmod-gpio-button-hotplug",
    "swconfig",
    "kmod-ath9k",
    "uboot-envtools"
  ],
  "device_packages": [
    "kmod-usb-core",
    "kmod-usb2"
  ],
  "image_path": "releases/19.07.10/targets/ath79/generic/",
  "image_prefix": "openwrt-19.07.10-ath79-generic-librerouter_librerouter-v1",
  "images": [
    {
      "filesystem": "squashfs",
      "name": "openwrt-19.07.10-ath79-generic-librerouter_librerouter-v1-squashfs-sysupgrade.bin",
      "sha256": "fea1a20b53e4a317fc0caeb16ccc06034c63b96d3fb3633eb2d2b91bc6414d60",
      "type": "sysupgrade"
    }
  ],
  "metadata_version": 1,
  "model_id": "librerouter_librerouter-v1",
  "source_date_epoch": 1650114812,
  "supported_devices": [
    "librerouter,librerouter-v1"
  ],
  "target": "ath79/generic",
  "titles": [
    {
      "title": "LibreRouter v1"
    }
  ],
  "version_code": "r11427-9ce6aa9d8d",
  "version_number": "19.07.10"
}