{
  "arch_packages": "mips_24kc",
  "build_at": "2023-09-22 06:59:57",
  "default_packages": [
    "base-files",
    "libc",
    "libgcc",
    "busybox",
    "dropbear",
    "mtd",
    "uci",
    "opkg",
    "netifd",
    "fstools",
    "uclient-fetch",
    "logd",
    "urandom-seed",
    "urngd",
    "kmod-gpio-button-hotplug",
    "swconfig",
    "kmod-ath9k",
    "uboot-envtools",
    "wpad-basic",
    "dnsmasq",
    "iptables",
    "ip6tables",
    "ppp",
    "ppp-mod-pppoe",
    "firewall",
    "odhcpd-ipv6only",
    "odhcp6c",
    "kmod-ipt-offload",
    "kmod-gpio-button-hotplug",
    "swconfig",
    "kmod-ath9k",
    "uboot-envtools"
  ],
  "device_packages": [
    "kmod-usb-core",
    "kmod-usb-ohci",
    "kmod-usb2",
    "kmod-usb-ledtrig-usbport",
    "kmod-leds-reset",
    "kmod-owl-loader"
  ],
  "image_path": "releases/19.07.10/targets/ath79/generic/",
  "image_prefix": "openwrt-19.07.10-ath79-generic-netgear_wndr3700",
  "images": [
    {
      "filesystem": "squashfs",
      "name": "openwrt-19.07.10-ath79-generic-netgear_wndr3700-squashfs-sysupgrade.bin",
      "sha256": "5ac680b14ee0e297e64a889a54369ee69ef74abe9425fc23072b5a1f512a4339",
      "type": "sysupgrade"
    },
    {
      "filesystem": "squashfs",
      "name": "openwrt-19.07.10-ath79-generic-netgear_wndr3700-squashfs-factory-NA.img",
      "sha256": "ca61ee24e4c4a21a19ef814cd05251d04663dde27d93b0f87a22461b1d949851",
      "type": "factory-NA"
    },
    {
      "filesystem": "squashfs",
      "name": "openwrt-19.07.10-ath79-generic-netgear_wndr3700-squashfs-factory.img",
      "sha256": "ae3a0a018ad28d2e3521812cb213c02462fd15dcb62dfcea76053a3370bbf119",
      "type": "factory"
    }
  ],
  "metadata_version": 1,
  "model_id": "netgear_wndr3700",
  "source_date_epoch": 1650114812,
  "supported_devices": [
    "netgear,wndr3700",
    "wndr3700"
  ],
  "target": "ath79/generic",
  "titles": [
    {
      "title": "NETGEAR WNDR3700"
    }
  ],
  "version_code": "r11427-9ce6aa9d8d",
  "version_number": "19.07.10"
}