{
  "arch_packages": "mips_24kc",
  "build_at": "2023-09-22 06:59:57",
  "default_packages": [
    "base-files",
    "libc",
    "libgcc",
    "busybox",
    "dropbear",
    "mtd",
    "uci",
    "opkg",
    "netifd",
    "fstools",
    "uclient-fetch",
    "logd",
    "urandom-seed",
    "urngd",
    "kmod-gpio-button-hotplug",
    "swconfig",
    "kmod-ath9k",
    "uboot-envtools",
    "wpad-basic",
    "dnsmasq",
    "iptables",
    "ip6tables",
    "ppp",
    "ppp-mod-pppoe",
    "firewall",
    "odhcpd-ipv6only",
    "odhcp6c",
    "kmod-ipt-offload",
    "kmod-gpio-button-hotplug",
    "swconfig",
    "kmod-ath9k",
    "uboot-envtools"
  ],
  "device_packages": [
    "kmod-leds-reset",
    "kmod-ath10k-ct-smallbuffers",
    "ath10k-firmware-qca9888-ct"
  ],
  "image_path": "releases/19.07.10/targets/ath79/generic/",
  "image_prefix": "openwrt-19.07.10-ath79-generic-phicomm_k2t",
  "images": [
    {
      "filesystem": "squashfs",
      "name": "openwrt-19.07.10-ath79-generic-phicomm_k2t-squashfs-sysupgrade.bin",
      "sha256": "2191849d68f77ec0f77673947eb6a58a76096aef89d85e92105a86da6eb529c2",
      "type": "sysupgrade"
    }
  ],
  "metadata_version": 1,
  "model_id": "phicomm_k2t",
  "source_date_epoch": 1650114812,
  "supported_devices": [
    "phicomm,k2t"
  ],
  "target": "ath79/generic",
  "titles": [
    {
      "title": "Phicomm K2T"
    }
  ],
  "version_code": "r11427-9ce6aa9d8d",
  "version_number": "19.07.10"
}