{
  "arch_packages": "mips_24kc",
  "build_at": "2023-09-22 06:59:57",
  "default_packages": [
    "base-files",
    "libc",
    "libgcc",
    "busybox",
    "dropbear",
    "mtd",
    "uci",
    "opkg",
    "netifd",
    "fstools",
    "uclient-fetch",
    "logd",
    "urandom-seed",
    "urngd",
    "kmod-gpio-button-hotplug",
    "swconfig",
    "kmod-ath9k",
    "uboot-envtools",
    "wpad-basic",
    "dnsmasq",
    "iptables",
    "ip6tables",
    "ppp",
    "ppp-mod-pppoe",
    "firewall",
    "odhcpd-ipv6only",
    "odhcp6c",
    "kmod-ipt-offload",
    "kmod-gpio-button-hotplug",
    "swconfig",
    "kmod-ath9k",
    "uboot-envtools"
  ],
  "device_packages": [
    "kmod-usb-core",
    "kmod-usb2",
    "kmod-usb-ledtrig-usbport"
  ],
  "image_path": "releases/19.07.10/targets/ath79/generic/",
  "image_prefix": "openwrt-19.07.10-ath79-generic-tplink_tl-wr842n-v3",
  "images": [
    {
      "filesystem": "squashfs",
      "name": "openwrt-19.07.10-ath79-generic-tplink_tl-wr842n-v3-squashfs-factory.bin",
      "sha256": "252bc8d66be53798ba594b2dc3249b7df2bc39e7bcd5acd94c3797b555c1bfed",
      "type": "factory"
    },
    {
      "filesystem": "squashfs",
      "name": "openwrt-19.07.10-ath79-generic-tplink_tl-wr842n-v3-squashfs-sysupgrade.bin",
      "sha256": "9f8b138311201ac96d3373b71d0e9146634bca4207516bea6b9c72e62e97cc9e",
      "type": "sysupgrade"
    }
  ],
  "metadata_version": 1,
  "model_id": "tplink_tl-wr842n-v3",
  "source_date_epoch": 1650114812,
  "supported_devices": [
    "tplink,tl-wr842n-v3",
    "tl-wr842n-v3"
  ],
  "target": "ath79/generic",
  "titles": [
    {
      "title": "TP-Link TL-WR842N v3"
    }
  ],
  "version_code": "r11427-9ce6aa9d8d",
  "version_number": "19.07.10"
}