{
  "arch_packages": "mips_24kc",
  "build_at": "2023-09-22 06:59:57",
  "default_packages": [
    "base-files",
    "libc",
    "libgcc",
    "busybox",
    "dropbear",
    "mtd",
    "uci",
    "opkg",
    "netifd",
    "fstools",
    "uclient-fetch",
    "logd",
    "urandom-seed",
    "urngd",
    "kmod-gpio-button-hotplug",
    "swconfig",
    "kmod-ath9k",
    "uboot-envtools",
    "wpad-basic",
    "dnsmasq",
    "iptables",
    "ip6tables",
    "ppp",
    "ppp-mod-pppoe",
    "firewall",
    "odhcpd-ipv6only",
    "odhcp6c",
    "kmod-ipt-offload",
    "kmod-gpio-button-hotplug",
    "swconfig",
    "kmod-ath9k",
    "uboot-envtools"
  ],
  "device_packages": [
    "rssileds"
  ],
  "image_path": "releases/19.07.10/targets/ath79/generic/",
  "image_prefix": "openwrt-19.07.10-ath79-generic-tplink_cpe210-v3",
  "images": [
    {
      "filesystem": "squashfs",
      "name": "openwrt-19.07.10-ath79-generic-tplink_cpe210-v3-squashfs-sysupgrade.bin",
      "sha256": "d449f54d7929cdb8ae768d8840e9a352f3eb2ee439320222f57357e3e180ce88",
      "type": "sysupgrade"
    },
    {
      "filesystem": "squashfs",
      "name": "openwrt-19.07.10-ath79-generic-tplink_cpe210-v3-squashfs-factory.bin",
      "sha256": "5ce3962ea2b2a2a8a8547423880ac90c8b008601d7794599664d5b4cf5f33b41",
      "type": "factory"
    }
  ],
  "metadata_version": 1,
  "model_id": "tplink_cpe210-v3",
  "source_date_epoch": 1650114812,
  "supported_devices": [
    "tplink,cpe210-v3",
    "cpe210-v3"
  ],
  "target": "ath79/generic",
  "titles": [
    {
      "title": "TP-Link CPE210 v3"
    }
  ],
  "version_code": "r11427-9ce6aa9d8d",
  "version_number": "19.07.10"
}