{
  "arch_packages": "mips_24kc",
  "build_at": "2023-09-22 06:59:57",
  "default_packages": [
    "base-files",
    "libc",
    "libgcc",
    "busybox",
    "dropbear",
    "mtd",
    "uci",
    "opkg",
    "netifd",
    "fstools",
    "uclient-fetch",
    "logd",
    "urandom-seed",
    "urngd",
    "kmod-gpio-button-hotplug",
    "swconfig",
    "kmod-ath9k",
    "uboot-envtools",
    "wpad-basic",
    "dnsmasq",
    "iptables",
    "ip6tables",
    "ppp",
    "ppp-mod-pppoe",
    "firewall",
    "odhcpd-ipv6only",
    "odhcp6c",
    "kmod-ipt-offload",
    "kmod-gpio-button-hotplug",
    "swconfig",
    "kmod-ath9k",
    "uboot-envtools"
  ],
  "device_packages": [
    "kmod-usb2",
    "kmod-usb-ledtrig-usbport"
  ],
  "image_path": "releases/19.07.10/targets/ath79/generic/",
  "image_prefix": "openwrt-19.07.10-ath79-generic-tplink_tl-wdr4310-v1",
  "images": [
    {
      "filesystem": "squashfs",
      "name": "openwrt-19.07.10-ath79-generic-tplink_tl-wdr4310-v1-squashfs-factory.bin",
      "sha256": "4d186008624b1580a2ee4b2b72e0e10ebea474655a266f4c0d694476b8b1ac5e",
      "type": "factory"
    },
    {
      "filesystem": "squashfs",
      "name": "openwrt-19.07.10-ath79-generic-tplink_tl-wdr4310-v1-squashfs-sysupgrade.bin",
      "sha256": "221a9322931205054b5de71aaab560cc32de9aded22d42a01f6c2968319ced3b",
      "type": "sysupgrade"
    }
  ],
  "metadata_version": 1,
  "model_id": "tplink_tl-wdr4310-v1",
  "source_date_epoch": 1650114812,
  "supported_devices": [
    "tplink,tl-wdr4310-v1",
    "tl-wdr4300"
  ],
  "target": "ath79/generic",
  "titles": [
    {
      "title": "TP-Link TL-WDR4310 v1"
    }
  ],
  "version_code": "r11427-9ce6aa9d8d",
  "version_number": "19.07.10"
}