{
  "arch_packages": "mips_24kc",
  "build_at": "2023-09-22 06:59:57",
  "default_packages": [
    "base-files",
    "libc",
    "libgcc",
    "busybox",
    "dropbear",
    "mtd",
    "uci",
    "opkg",
    "netifd",
    "fstools",
    "uclient-fetch",
    "logd",
    "urandom-seed",
    "urngd",
    "kmod-gpio-button-hotplug",
    "swconfig",
    "kmod-ath9k",
    "uboot-envtools",
    "wpad-basic",
    "dnsmasq",
    "iptables",
    "ip6tables",
    "ppp",
    "ppp-mod-pppoe",
    "firewall",
    "odhcpd-ipv6only",
    "odhcp6c",
    "kmod-ipt-offload",
    "kmod-gpio-button-hotplug",
    "swconfig",
    "kmod-ath9k",
    "uboot-envtools"
  ],
  "device_packages": [
    "kmod-ath10k-ct-smallbuffers",
    "ath10k-firmware-qca9888-ct"
  ],
  "image_path": "releases/19.07.10/targets/ath79/generic/",
  "image_prefix": "openwrt-19.07.10-ath79-generic-tplink_archer-c60-v2",
  "images": [
    {
      "filesystem": "squashfs",
      "name": "openwrt-19.07.10-ath79-generic-tplink_archer-c60-v2-squashfs-sysupgrade.bin",
      "sha256": "062253c031de751ee8757e1bec3eda813d7e3ab185293650554957cb7bc5894a",
      "type": "sysupgrade"
    },
    {
      "filesystem": "squashfs",
      "name": "openwrt-19.07.10-ath79-generic-tplink_archer-c60-v2-squashfs-factory.bin",
      "sha256": "c357c8be6180651bccd4334e034237da859d6ebd2e3bd6de90a98e7b310d9905",
      "type": "factory"
    }
  ],
  "metadata_version": 1,
  "model_id": "tplink_archer-c60-v2",
  "source_date_epoch": 1650114812,
  "supported_devices": [
    "tplink,archer-c60-v2",
    "archer-c60-v2"
  ],
  "target": "ath79/generic",
  "titles": [
    {
      "title": "TP-Link Archer C60 v2"
    }
  ],
  "version_code": "r11427-9ce6aa9d8d",
  "version_number": "19.07.10"
}