{
  "arch_packages": "mips_24kc",
  "build_at": "2023-09-22 06:59:57",
  "default_packages": [
    "base-files",
    "libc",
    "libgcc",
    "busybox",
    "dropbear",
    "mtd",
    "uci",
    "opkg",
    "netifd",
    "fstools",
    "uclient-fetch",
    "logd",
    "urandom-seed",
    "urngd",
    "kmod-gpio-button-hotplug",
    "swconfig",
    "kmod-ath9k",
    "uboot-envtools",
    "wpad-basic",
    "dnsmasq",
    "iptables",
    "ip6tables",
    "ppp",
    "ppp-mod-pppoe",
    "firewall",
    "odhcpd-ipv6only",
    "odhcp6c",
    "kmod-ipt-offload",
    "kmod-gpio-button-hotplug",
    "swconfig",
    "kmod-ath9k",
    "uboot-envtools"
  ],
  "device_packages": [
    "kmod-ath10k-ct-smallbuffers",
    "ath10k-firmware-qca988x-ct"
  ],
  "image_path": "releases/19.07.10/targets/ath79/generic/",
  "image_prefix": "openwrt-19.07.10-ath79-generic-tplink_re450-v2",
  "images": [
    {
      "filesystem": "squashfs",
      "name": "openwrt-19.07.10-ath79-generic-tplink_re450-v2-squashfs-factory.bin",
      "sha256": "5bf22538826bacd172a1d4c86291e1fa67fdf93eabd7eee439f7aa43342d6f27",
      "type": "factory"
    },
    {
      "filesystem": "squashfs",
      "name": "openwrt-19.07.10-ath79-generic-tplink_re450-v2-squashfs-sysupgrade.bin",
      "sha256": "ccec5887732471681c3b7f9de640dd3a128864ed3da906d528ba068d2dc74261",
      "type": "sysupgrade"
    }
  ],
  "metadata_version": 1,
  "model_id": "tplink_re450-v2",
  "source_date_epoch": 1650114812,
  "supported_devices": [
    "tplink,re450-v2"
  ],
  "target": "ath79/generic",
  "titles": [
    {
      "title": "TP-Link RE450 v2"
    }
  ],
  "version_code": "r11427-9ce6aa9d8d",
  "version_number": "19.07.10"
}