{
  "arch_packages": "mips_24kc",
  "build_at": "2023-09-22 06:59:57",
  "default_packages": [
    "base-files",
    "libc",
    "libgcc",
    "busybox",
    "dropbear",
    "mtd",
    "uci",
    "opkg",
    "netifd",
    "fstools",
    "uclient-fetch",
    "logd",
    "urandom-seed",
    "urngd",
    "kmod-gpio-button-hotplug",
    "swconfig",
    "kmod-ath9k",
    "uboot-envtools",
    "wpad-basic",
    "dnsmasq",
    "iptables",
    "ip6tables",
    "ppp",
    "ppp-mod-pppoe",
    "firewall",
    "odhcpd-ipv6only",
    "odhcp6c",
    "kmod-ipt-offload",
    "kmod-gpio-button-hotplug",
    "swconfig",
    "kmod-ath9k",
    "uboot-envtools"
  ],
  "device_packages": [
    "-kmod-ath9k",
    "-wpad-mini",
    "-uboot-envtools",
    "kmod-usb-ohci",
    "kmod-usb2",
    "fconfig"
  ],
  "image_path": "releases/19.07.10/targets/ath79/generic/",
  "image_prefix": "openwrt-19.07.10-ath79-generic-ubnt_routerstation-pro",
  "images": [
    {
      "filesystem": "squashfs",
      "name": "openwrt-19.07.10-ath79-generic-ubnt_routerstation-pro-squashfs-factory.bin",
      "sha256": "6f0eb58e67c536358d0430835c67aac90bcf6f79d16c74e297aba0144e32c09a",
      "type": "factory"
    },
    {
      "filesystem": "squashfs",
      "name": "openwrt-19.07.10-ath79-generic-ubnt_routerstation-pro-squashfs-sysupgrade.bin",
      "sha256": "d4633d7903d4736bac1624db5b76647fb7a24e9b22bd5f3cc00e3806c0f1aa72",
      "type": "sysupgrade"
    }
  ],
  "metadata_version": 1,
  "model_id": "ubnt_routerstation-pro",
  "source_date_epoch": 1650114812,
  "supported_devices": [
    "ubnt,routerstation-pro",
    "routerstation-pro"
  ],
  "target": "ath79/generic",
  "titles": [
    {
      "title": "Ubiquiti RouterStation Pro"
    }
  ],
  "version_code": "r11427-9ce6aa9d8d",
  "version_number": "19.07.10"
}