{
  "arch_packages": "mips_24kc",
  "build_at": "2023-09-22 06:59:57",
  "default_packages": [
    "base-files",
    "libc",
    "libgcc",
    "busybox",
    "dropbear",
    "mtd",
    "uci",
    "opkg",
    "netifd",
    "fstools",
    "uclient-fetch",
    "logd",
    "urandom-seed",
    "urngd",
    "kmod-gpio-button-hotplug",
    "swconfig",
    "kmod-ath9k",
    "uboot-envtools",
    "wpad-basic",
    "dnsmasq",
    "iptables",
    "ip6tables",
    "ppp",
    "ppp-mod-pppoe",
    "firewall",
    "odhcpd-ipv6only",
    "odhcp6c",
    "kmod-ipt-offload",
    "kmod-gpio-button-hotplug",
    "swconfig",
    "kmod-ath9k",
    "uboot-envtools"
  ],
  "device_packages": [
    "kmod-usb-core",
    "kmod-usb2",
    "rssileds"
  ],
  "image_path": "releases/19.07.10/targets/ath79/generic/",
  "image_prefix": "openwrt-19.07.10-ath79-generic-ubnt_nanostation-m-xw",
  "images": [
    {
      "filesystem": "squashfs",
      "name": "openwrt-19.07.10-ath79-generic-ubnt_nanostation-m-xw-squashfs-factory.bin",
      "sha256": "351d4d14344fcaf1cbf0d663a4f834cf1b1d78e4f93d174eedfc83e658948930",
      "type": "factory"
    },
    {
      "filesystem": "squashfs",
      "name": "openwrt-19.07.10-ath79-generic-ubnt_nanostation-m-xw-squashfs-sysupgrade.bin",
      "sha256": "a0e4f694fb807394deec533d559900e224e5a039294d79b877cb9ca3243d825f",
      "type": "sysupgrade"
    }
  ],
  "metadata_version": 1,
  "model_id": "ubnt_nanostation-m-xw",
  "source_date_epoch": 1650114812,
  "supported_devices": [
    "ubnt,nanostation-m-xw",
    "nanostation-m-xw"
  ],
  "target": "ath79/generic",
  "titles": [
    {
      "title": "Ubiquiti Nanostation M (XW)"
    }
  ],
  "version_code": "r11427-9ce6aa9d8d",
  "version_number": "19.07.10"
}