{
  "arch_packages": "mips_24kc",
  "build_at": "2023-09-22 06:59:57",
  "default_packages": [
    "base-files",
    "libc",
    "libgcc",
    "busybox",
    "dropbear",
    "mtd",
    "uci",
    "opkg",
    "netifd",
    "fstools",
    "uclient-fetch",
    "logd",
    "urandom-seed",
    "urngd",
    "kmod-gpio-button-hotplug",
    "swconfig",
    "kmod-ath9k",
    "uboot-envtools",
    "wpad-basic",
    "dnsmasq",
    "iptables",
    "ip6tables",
    "ppp",
    "ppp-mod-pppoe",
    "firewall",
    "odhcpd-ipv6only",
    "odhcp6c",
    "kmod-ipt-offload",
    "kmod-gpio-button-hotplug",
    "swconfig",
    "kmod-ath9k",
    "uboot-envtools"
  ],
  "device_packages": [
    "kmod-usb-core",
    "kmod-usb2",
    "rssileds"
  ],
  "image_path": "releases/19.07.10/targets/ath79/generic/",
  "image_prefix": "openwrt-19.07.10-ath79-generic-ubnt_nanostation-loco-m-xw",
  "images": [
    {
      "filesystem": "squashfs",
      "name": "openwrt-19.07.10-ath79-generic-ubnt_nanostation-loco-m-xw-squashfs-factory.bin",
      "sha256": "09df72fe01953bb644ef8494d6f98775d8d0e3efa23e42b735c891ac1ecd2fb1",
      "type": "factory"
    },
    {
      "filesystem": "squashfs",
      "name": "openwrt-19.07.10-ath79-generic-ubnt_nanostation-loco-m-xw-squashfs-sysupgrade.bin",
      "sha256": "0d5df906f39d10f154ce9d563b8e9d2a3ea8e737c9a1b01c7e5ab6e2f1225555",
      "type": "sysupgrade"
    }
  ],
  "metadata_version": 1,
  "model_id": "ubnt_nanostation-loco-m-xw",
  "source_date_epoch": 1650114812,
  "supported_devices": [
    "ubnt,nanostation-loco-m-xw",
    "loco-m-xw"
  ],
  "target": "ath79/generic",
  "titles": [
    {
      "title": "Ubiquiti Nanostation Loco M (XW)"
    }
  ],
  "version_code": "r11427-9ce6aa9d8d",
  "version_number": "19.07.10"
}