{
  "arch_packages": "arm_cortex-a9",
  "build_at": "2023-09-22 06:59:57",
  "default_packages": [
    "base-files",
    "libc",
    "libgcc",
    "busybox",
    "dropbear",
    "mtd",
    "uci",
    "opkg",
    "netifd",
    "fstools",
    "uclient-fetch",
    "logd",
    "urandom-seed",
    "urngd",
    "swconfig",
    "nvram",
    "osafeloader",
    "oseama",
    "otrx",
    "kmod-gpio-button-hotplug",
    "kmod-leds-gpio",
    "kmod-ledtrig-default-on",
    "kmod-ledtrig-timer",
    "dnsmasq",
    "iptables",
    "ip6tables",
    "ppp",
    "ppp-mod-pppoe",
    "firewall",
    "odhcpd-ipv6only",
    "odhcp6c",
    "kmod-ipt-offload",
    "swconfig",
    "nvram",
    "osafeloader",
    "oseama",
    "otrx",
    "kmod-gpio-button-hotplug",
    "kmod-leds-gpio",
    "kmod-ledtrig-default-on",
    "kmod-ledtrig-timer"
  ],
  "device_packages": [
    "wpad-basic",
    "kmod-b43",
    "kmod-usb-ohci",
    "kmod-usb2",
    "kmod-phy-bcm-ns-usb2",
    "kmod-usb-ledtrig-usbport",
    "kmod-usb3",
    "kmod-phy-bcm-ns-usb3",
    "iwinfo"
  ],
  "image_path": "releases/19.07.10/targets/bcm53xx/generic/",
  "image_prefix": "openwrt-19.07.10-bcm53xx-buffalo-wzr-1750dhp",
  "images": [
    {
      "filesystem": "squashfs",
      "name": "openwrt-19.07.10-bcm53xx-buffalo-wzr-1750dhp-squashfs.trx",
      "sha256": "c76cf35932006e3a3bf57140c6db961dc54dd74c471ff9dd09d8fb1ba732b1d4",
      "type": "trx"
    }
  ],
  "metadata_version": 1,
  "model_id": "buffalo-wzr-1750dhp",
  "source_date_epoch": 1650114812,
  "supported_devices": [],
  "target": "bcm53xx/generic",
  "titles": [
    {
      "title": "Buffalo WZR-1750DHP"
    }
  ],
  "version_code": "r11427-9ce6aa9d8d",
  "version_number": "19.07.10"
}