{
  "arch_packages": "arm_cortex-a7_neon-vfpv4",
  "build_at": "2023-09-22 06:59:57",
  "default_packages": [
    "base-files",
    "libc",
    "libgcc",
    "busybox",
    "dropbear",
    "mtd",
    "uci",
    "opkg",
    "netifd",
    "fstools",
    "uclient-fetch",
    "logd",
    "urandom-seed",
    "urngd",
    "kmod-usb-dwc3-of-simple",
    "kmod-leds-gpio",
    "kmod-gpio-button-hotplug",
    "swconfig",
    "kmod-ath10k-ct",
    "wpad-basic",
    "kmod-usb3",
    "kmod-usb-dwc3",
    "ath10k-firmware-qca4019-ct",
    "dnsmasq",
    "iptables",
    "ip6tables",
    "ppp",
    "ppp-mod-pppoe",
    "firewall",
    "odhcpd-ipv6only",
    "odhcp6c",
    "kmod-ipt-offload",
    "kmod-usb-dwc3-of-simple",
    "kmod-leds-gpio",
    "kmod-gpio-button-hotplug",
    "swconfig",
    "kmod-ath10k-ct",
    "wpad-basic",
    "kmod-usb3",
    "kmod-usb-dwc3",
    "ath10k-firmware-qca4019-ct"
  ],
  "device_packages": [
    "kmod-gpio-beeper"
  ],
  "image_path": "releases/19.07.10/targets/ipq40xx/generic/",
  "image_prefix": "openwrt-19.07.10-ipq40xx-generic-compex_wpj428",
  "images": [
    {
      "filesystem": "squashfs",
      "name": "openwrt-19.07.10-ipq40xx-generic-compex_wpj428-squashfs-sysupgrade.bin",
      "sha256": "3c029d70709c11735e7a4ae8f72c02dc3856b749a907847cd2765f23c91a5ee8",
      "type": "sysupgrade"
    }
  ],
  "metadata_version": 1,
  "model_id": "compex_wpj428",
  "source_date_epoch": 1650114812,
  "supported_devices": [
    "compex,wpj428"
  ],
  "target": "ipq40xx/generic",
  "titles": [
    {
      "title": "Compex WPJ428"
    }
  ],
  "version_code": "r11427-9ce6aa9d8d",
  "version_number": "19.07.10"
}