{
  "arch_packages": "mipsel_74kc",
  "build_at": "2023-09-22 06:59:57",
  "default_packages": [
    "base-files",
    "busybox",
    "ca-bundle",
    "dnsmasq",
    "dropbear",
    "firewall4",
    "fstools",
    "kmod-gpio-button-hotplug",
    "kmod-leds-gpio",
    "kmod-nft-offload",
    "libc",
    "libgcc",
    "libustream-wolfssl",
    "logd",
    "mtd",
    "netifd",
    "nftables",
    "nvram",
    "odhcp6c",
    "odhcpd-ipv6only",
    "opkg",
    "otrx",
    "ppp",
    "ppp-mod-pppoe",
    "procd",
    "procd-seccomp",
    "procd-ujail",
    "swconfig",
    "uci",
    "uclient-fetch",
    "urandom-seed",
    "urngd",
    "wpad-basic-wolfssl"
  ],
  "device_packages": [],
  "image_path": "releases/22.03.5/targets/bcm47xx/mips74k/",
  "image_prefix": "openwrt-22.03.5-bcm47xx-mips74k-linksys_e1500-v1",
  "images": [
    {
      "filesystem": "squashfs",
      "name": "openwrt-22.03.5-bcm47xx-mips74k-linksys_e1500-v1-squashfs.bin",
      "sha256": "3457df84fd977a0fa0771358757e187d639bb9c821c0144e8d5190541b29e542",
      "sha256_unsigned": "3457df84fd977a0fa0771358757e187d639bb9c821c0144e8d5190541b29e542",
      "type": "bin"
    }
  ],
  "metadata_version": 1,
  "model_id": "linksys_e1500-v1",
  "source_date_epoch": 1682627295,
  "supported_devices": [
    "linksys,e1500-v1"
  ],
  "target": "bcm47xx/mips74k",
  "titles": [
    {
      "model": "E1500",
      "variant": "v1",
      "vendor": "Linksys"
    }
  ],
  "version_code": "r20134-5f15225c1e",
  "version_number": "22.03.5"
}