{
  "arch_packages": "mipsel_74kc",
  "build_at": "2023-09-22 06:59:57",
  "default_packages": [
    "base-files",
    "busybox",
    "ca-bundle",
    "dnsmasq",
    "dropbear",
    "firewall4",
    "fstools",
    "kmod-gpio-button-hotplug",
    "kmod-leds-gpio",
    "kmod-nft-offload",
    "libc",
    "libgcc",
    "libustream-wolfssl",
    "logd",
    "mtd",
    "netifd",
    "nftables",
    "nvram",
    "odhcp6c",
    "odhcpd-ipv6only",
    "opkg",
    "otrx",
    "ppp",
    "ppp-mod-pppoe",
    "procd",
    "procd-seccomp",
    "procd-ujail",
    "swconfig",
    "uci",
    "uclient-fetch",
    "urandom-seed",
    "urngd",
    "wpad-basic-wolfssl"
  ],
  "device_packages": [
    "kmod-b43"
  ],
  "image_path": "releases/22.03.5/targets/bcm47xx/mips74k/",
  "image_prefix": "openwrt-22.03.5-bcm47xx-mips74k-linksys_e3200-v1",
  "images": [
    {
      "filesystem": "squashfs",
      "name": "openwrt-22.03.5-bcm47xx-mips74k-linksys_e3200-v1-squashfs.bin",
      "sha256": "ebed17c471c0822d730d0f33a3754c7f38da04783578d9090b4bd159f0428c9a",
      "sha256_unsigned": "ebed17c471c0822d730d0f33a3754c7f38da04783578d9090b4bd159f0428c9a",
      "type": "bin"
    }
  ],
  "metadata_version": 1,
  "model_id": "linksys_e3200-v1",
  "source_date_epoch": 1682627295,
  "supported_devices": [
    "linksys,e3200-v1"
  ],
  "target": "bcm47xx/mips74k",
  "titles": [
    {
      "model": "E3200",
      "variant": "v1",
      "vendor": "Linksys"
    }
  ],
  "version_code": "r20134-5f15225c1e",
  "version_number": "22.03.5"
}