{
  "arch_packages": "mipsel_74kc",
  "build_at": "2023-09-22 06:59:57",
  "default_packages": [
    "base-files",
    "busybox",
    "ca-bundle",
    "dnsmasq",
    "dropbear",
    "firewall4",
    "fstools",
    "kmod-gpio-button-hotplug",
    "kmod-leds-gpio",
    "kmod-nft-offload",
    "libc",
    "libgcc",
    "libustream-wolfssl",
    "logd",
    "mtd",
    "netifd",
    "nftables",
    "nvram",
    "odhcp6c",
    "odhcpd-ipv6only",
    "opkg",
    "otrx",
    "ppp",
    "ppp-mod-pppoe",
    "procd",
    "procd-seccomp",
    "procd-ujail",
    "swconfig",
    "uci",
    "uclient-fetch",
    "urandom-seed",
    "urngd",
    "wpad-basic-wolfssl"
  ],
  "device_packages": [],
  "image_path": "releases/22.03.5/targets/bcm47xx/mips74k/",
  "image_prefix": "openwrt-22.03.5-bcm47xx-mips74k-standard-noloader-nodictionarylzma",
  "images": [
    {
      "filesystem": "squashfs",
      "name": "openwrt-22.03.5-bcm47xx-mips74k-standard-noloader-nodictionarylzma-squashfs.trx",
      "sha256": "380778ce42a7700fd348ad3339022b9d34dd02d3d9d590945746e6b09e3158e3",
      "sha256_unsigned": "380778ce42a7700fd348ad3339022b9d34dd02d3d9d590945746e6b09e3158e3",
      "type": "trx"
    }
  ],
  "metadata_version": 1,
  "model_id": "standard-noloader-nodictionarylzma",
  "source_date_epoch": 1682627295,
  "supported_devices": [
    "standard-noloader-nodictionarylzma"
  ],
  "target": "bcm47xx/mips74k",
  "titles": [
    {
      "model": "Image with LZMA compressed kernel matching CFE decompressor",
      "vendor": "Generic"
    }
  ],
  "version_code": "r20134-5f15225c1e",
  "version_number": "22.03.5"
}