{
  "arch_packages": "arm_cortex-a9_vfpv3-d16",
  "build_at": "2023-09-22 06:59:57",
  "default_packages": [
    "base-files",
    "libc",
    "libgcc",
    "busybox",
    "dropbear",
    "mtd",
    "uci",
    "opkg",
    "netifd",
    "fstools",
    "uclient-fetch",
    "logd",
    "urandom-seed",
    "urngd",
    "uboot-envtools",
    "kmod-gpio-button-hotplug",
    "dnsmasq",
    "iptables",
    "ip6tables",
    "ppp",
    "ppp-mod-pppoe",
    "firewall",
    "odhcpd-ipv6only",
    "odhcp6c",
    "kmod-ipt-offload",
    "uboot-envtools",
    "kmod-gpio-button-hotplug"
  ],
  "device_packages": [
    "mkf2fs",
    "e2fsprogs",
    "kmod-fs-vfat",
    "kmod-nls-cp437",
    "kmod-nls-iso8859-1",
    "wpad-basic",
    "kmod-ath9k",
    "kmod-ath10k-ct",
    "ath10k-firmware-qca988x-ct",
    "partx-utils",
    "kmod-i2c-core",
    "kmod-i2c-mux",
    "kmod-i2c-mux-pca954x",
    "iwinfo"
  ],
  "image_path": "releases/19.07.10/targets/mvebu/cortexa9/",
  "image_prefix": "openwrt-19.07.10-mvebu-cortexa9-cznic_turris-omnia",
  "images": [
    {
      "filesystem": "squashfs",
      "name": "openwrt-19.07.10-mvebu-cortexa9-cznic_turris-omnia-sysupgrade.img.gz",
      "sha256": "5e8b60d189eddf0c13b53cbe00d65128d1fe0d6a819086bff6ead8987965aaf0",
      "type": "openwrt-19"
    },
    {
      "filesystem": "squashfs",
      "name": "omnia-medkit-openwrt-19.07.10-mvebu-cortexa9-cznic_turris-omnia-initramfs.tar.gz",
      "sha256": "e9566ff45de1f9a101caafc55eda67e387188481e87fb340f24e81ccc8ab5f1f",
      "type": "omnia-medkit-openwrt-19"
    }
  ],
  "metadata_version": 1,
  "model_id": "cznic_turris-omnia",
  "source_date_epoch": 1650114812,
  "supported_devices": [
    "cznic,turris-omnia",
    "armada-385-turris-omnia"
  ],
  "target": "mvebu/cortexa9",
  "titles": [
    {
      "title": "Turris Omnia"
    }
  ],
  "version_code": "r11427-9ce6aa9d8d",
  "version_number": "19.07.10"
}