{
  "arch_packages": "arm_cortex-a9_vfpv3-d16",
  "build_at": "2023-09-22 06:59:57",
  "default_packages": [
    "base-files",
    "libc",
    "libgcc",
    "busybox",
    "dropbear",
    "mtd",
    "uci",
    "opkg",
    "netifd",
    "fstools",
    "uclient-fetch",
    "logd",
    "urandom-seed",
    "urngd",
    "uboot-envtools",
    "kmod-gpio-button-hotplug",
    "dnsmasq",
    "iptables",
    "ip6tables",
    "ppp",
    "ppp-mod-pppoe",
    "firewall",
    "odhcpd-ipv6only",
    "odhcp6c",
    "kmod-ipt-offload",
    "uboot-envtools",
    "kmod-gpio-button-hotplug"
  ],
  "device_packages": [
    "kmod-mwlwifi",
    "swconfig",
    "wpad-basic",
    "mwlwifi-firmware-88w8864",
    "iwinfo"
  ],
  "image_path": "releases/19.07.10/targets/mvebu/cortexa9/",
  "image_prefix": "openwrt-19.07.10-mvebu-cortexa9-linksys_wrt1200ac",
  "images": [
    {
      "filesystem": "squashfs",
      "name": "openwrt-19.07.10-mvebu-cortexa9-linksys_wrt1200ac-squashfs-factory.img",
      "sha256": "ce68686f16be9a5fe0f2c1c6ebf10386f01d9f546348e278fe40401ca69512a5",
      "type": "factory"
    },
    {
      "filesystem": "squashfs",
      "name": "openwrt-19.07.10-mvebu-cortexa9-linksys_wrt1200ac-squashfs-sysupgrade.bin",
      "sha256": "415abd4b12c0a65f4792288641a4b308419edf45f8e76b4d847315cecde52daa",
      "type": "sysupgrade"
    }
  ],
  "metadata_version": 1,
  "model_id": "linksys_wrt1200ac",
  "source_date_epoch": 1650114812,
  "supported_devices": [
    "armada-385-linksys-caiman",
    "linksys,caiman"
  ],
  "target": "mvebu/cortexa9",
  "titles": [
    {
      "title": "Linksys WRT1200AC (Caiman)"
    }
  ],
  "version_code": "r11427-9ce6aa9d8d",
  "version_number": "19.07.10"
}