{
  "arch_packages": "arm_cortex-a9_vfpv3-d16",
  "build_at": "2023-09-22 06:59:57",
  "default_packages": [
    "base-files",
    "libc",
    "libgcc",
    "busybox",
    "dropbear",
    "mtd",
    "uci",
    "opkg",
    "netifd",
    "fstools",
    "uclient-fetch",
    "logd",
    "urandom-seed",
    "urngd",
    "uboot-envtools",
    "kmod-gpio-button-hotplug",
    "dnsmasq",
    "iptables",
    "ip6tables",
    "ppp",
    "ppp-mod-pppoe",
    "firewall",
    "odhcpd-ipv6only",
    "odhcp6c",
    "kmod-ipt-offload",
    "uboot-envtools",
    "kmod-gpio-button-hotplug"
  ],
  "device_packages": [
    "kmod-mwlwifi",
    "swconfig",
    "wpad-basic",
    "mwlwifi-firmware-88w8864",
    "iwinfo"
  ],
  "image_path": "releases/19.07.10/targets/mvebu/cortexa9/",
  "image_prefix": "openwrt-19.07.10-mvebu-cortexa9-linksys_wrt1900acs",
  "images": [
    {
      "filesystem": "squashfs",
      "name": "openwrt-19.07.10-mvebu-cortexa9-linksys_wrt1900acs-squashfs-factory.img",
      "sha256": "239bbfedca5c0b0f7de7ce4e8a67884ae24eb08e7b55139115fba0e8ac4844d5",
      "type": "factory"
    },
    {
      "filesystem": "squashfs",
      "name": "openwrt-19.07.10-mvebu-cortexa9-linksys_wrt1900acs-squashfs-sysupgrade.bin",
      "sha256": "eb89bcba16c2bc418407ee2dd5c78f972ce10b309958e1d5795a3a574f611424",
      "type": "sysupgrade"
    }
  ],
  "metadata_version": 1,
  "model_id": "linksys_wrt1900acs",
  "source_date_epoch": 1650114812,
  "supported_devices": [
    "armada-385-linksys-shelby",
    "linksys,shelby"
  ],
  "target": "mvebu/cortexa9",
  "titles": [
    {
      "title": "Linksys WRT1900ACS (Shelby)"
    }
  ],
  "version_code": "r11427-9ce6aa9d8d",
  "version_number": "19.07.10"
}