{
  "arch_packages": "arm_cortex-a9_vfpv3-d16",
  "build_at": "2023-09-22 06:59:57",
  "default_packages": [
    "base-files",
    "libc",
    "libgcc",
    "busybox",
    "dropbear",
    "mtd",
    "uci",
    "opkg",
    "netifd",
    "fstools",
    "uclient-fetch",
    "logd",
    "urandom-seed",
    "urngd",
    "uboot-envtools",
    "kmod-gpio-button-hotplug",
    "dnsmasq",
    "iptables",
    "ip6tables",
    "ppp",
    "ppp-mod-pppoe",
    "firewall",
    "odhcpd-ipv6only",
    "odhcp6c",
    "kmod-ipt-offload",
    "uboot-envtools",
    "kmod-gpio-button-hotplug"
  ],
  "device_packages": [],
  "image_path": "releases/19.07.10/targets/mvebu/cortexa9/",
  "image_prefix": "openwrt-19.07.10-mvebu-cortexa9-marvell_axp-gp",
  "images": [
    {
      "filesystem": "squashfs",
      "name": "openwrt-19.07.10-mvebu-cortexa9-marvell_axp-gp-squashfs-sysupgrade.bin",
      "sha256": "6d2910a38f047d696572b9f918f1926b4bc4b98bcb255b37e9b2c6dda3c810ce",
      "type": "sysupgrade"
    }
  ],
  "metadata_version": 1,
  "model_id": "marvell_axp-gp",
  "source_date_epoch": 1650114812,
  "supported_devices": [
    "marvell,axp-gp",
    "armada-xp-gp"
  ],
  "target": "mvebu/cortexa9",
  "titles": [
    {
      "title": "Marvell Armada XP GP (DB-MV784MP-GP)"
    }
  ],
  "version_code": "r11427-9ce6aa9d8d",
  "version_number": "19.07.10"
}