{
  "arch_packages": "arm_cortex-a9_vfpv3-d16",
  "build_at": "2023-09-22 06:59:57",
  "default_packages": [
    "base-files",
    "libc",
    "libgcc",
    "busybox",
    "dropbear",
    "mtd",
    "uci",
    "opkg",
    "netifd",
    "fstools",
    "uclient-fetch",
    "logd",
    "urandom-seed",
    "urngd",
    "uboot-envtools",
    "kmod-gpio-button-hotplug",
    "dnsmasq",
    "iptables",
    "ip6tables",
    "ppp",
    "ppp-mod-pppoe",
    "firewall",
    "odhcpd-ipv6only",
    "odhcp6c",
    "kmod-ipt-offload",
    "uboot-envtools",
    "kmod-gpio-button-hotplug"
  ],
  "device_packages": [],
  "image_path": "releases/19.07.10/targets/mvebu/cortexa9/",
  "image_prefix": "openwrt-19.07.10-mvebu-cortexa9-plathome_openblocks-ax3-4",
  "images": [
    {
      "filesystem": "squashfs",
      "name": "openwrt-19.07.10-mvebu-cortexa9-plathome_openblocks-ax3-4-squashfs-factory.img",
      "sha256": "e46208101cebf71bc2d54c1ad20d28692cfef30e80145e5f4eba17f1ad0d67e6",
      "type": "factory"
    },
    {
      "filesystem": "squashfs",
      "name": "openwrt-19.07.10-mvebu-cortexa9-plathome_openblocks-ax3-4-squashfs-sysupgrade.bin",
      "sha256": "78933e43307df8ebd6e7db273d8fd5c4b536062e5fb78a9a004f91496d7f9b44",
      "type": "sysupgrade"
    }
  ],
  "metadata_version": 1,
  "model_id": "plathome_openblocks-ax3-4",
  "source_date_epoch": 1650114812,
  "supported_devices": [
    "plathome,openblocks-ax3-4",
    "openblocks-ax3-4"
  ],
  "target": "mvebu/cortexa9",
  "titles": [
    {
      "title": "Plat'Home OpenBlocks AX3"
    }
  ],
  "version_code": "r11427-9ce6aa9d8d",
  "version_number": "19.07.10"
}