{
  "arch_packages": "mipsel_mips32",
  "build_at": "2023-09-22 06:59:57",
  "default_packages": [
    "base-files",
    "libc",
    "libgcc",
    "busybox",
    "dropbear",
    "mtd",
    "uci",
    "opkg",
    "netifd",
    "fstools",
    "uclient-fetch",
    "logd",
    "urandom-seed",
    "urngd",
    "swconfig",
    "nvram",
    "otrx",
    "kmod-leds-gpio",
    "kmod-gpio-button-hotplug",
    "kmod-ledtrig-default-on",
    "kmod-ledtrig-timer",
    "kmod-ledtrig-netdev",
    "wpad-mini",
    "dnsmasq",
    "iptables",
    "ip6tables",
    "ppp",
    "ppp-mod-pppoe",
    "firewall",
    "odhcpd-ipv6only",
    "odhcp6c",
    "kmod-ipt-offload",
    "swconfig",
    "nvram",
    "otrx",
    "kmod-leds-gpio",
    "kmod-gpio-button-hotplug",
    "kmod-ledtrig-default-on",
    "kmod-ledtrig-timer",
    "kmod-ledtrig-netdev"
  ],
  "device_packages": [
    "kmod-b43",
    "kmod-usb-ohci",
    "kmod-usb2"
  ],
  "image_path": "releases/19.07.10/targets/brcm47xx/legacy/",
  "image_prefix": "openwrt-19.07.10-brcm47xx-legacy-asus-wl-500gp-v2",
  "images": [
    {
      "filesystem": "squashfs",
      "name": "openwrt-19.07.10-brcm47xx-legacy-asus-wl-500gp-v2-squashfs.trx",
      "sha256": "e5709882d0cd6ac480ce91ba754dec701b6116780f48b4771fce97b108160b7f",
      "type": "trx"
    }
  ],
  "metadata_version": 1,
  "model_id": "asus-wl-500gp-v2",
  "source_date_epoch": 1650114812,
  "supported_devices": [],
  "target": "brcm47xx/legacy",
  "titles": [
    {
      "title": "Asus WL-500gP v2"
    }
  ],
  "version_code": "r11427-9ce6aa9d8d",
  "version_number": "19.07.10"
}