{
  "arch_packages": "mipsel_24kc",
  "build_at": "2023-09-22 06:59:57",
  "default_packages": [
    "base-files",
    "libc",
    "libgcc",
    "busybox",
    "dropbear",
    "mtd",
    "uci",
    "opkg",
    "netifd",
    "fstools",
    "uclient-fetch",
    "logd",
    "urandom-seed",
    "urngd",
    "kmod-leds-gpio",
    "kmod-gpio-button-hotplug",
    "swconfig",
    "dnsmasq",
    "iptables",
    "ip6tables",
    "ppp",
    "ppp-mod-pppoe",
    "firewall",
    "odhcpd-ipv6only",
    "odhcp6c",
    "kmod-ipt-offload",
    "kmod-leds-gpio",
    "kmod-gpio-button-hotplug",
    "swconfig"
  ],
  "device_packages": [],
  "image_path": "releases/19.07.10/targets/ramips/mt7621/",
  "image_prefix": "openwrt-19.07.10-ramips-mt7621-elecom_wrc-1900gst",
  "images": [
    {
      "filesystem": "squashfs",
      "name": "openwrt-19.07.10-ramips-mt7621-elecom_wrc-1900gst-squashfs-factory.bin",
      "sha256": "ae4a15c08dbc0c7c534725fa46c63bb6059ce31764b1efbdf8ac9c6cb645186e",
      "type": "factory"
    },
    {
      "filesystem": "squashfs",
      "name": "openwrt-19.07.10-ramips-mt7621-elecom_wrc-1900gst-squashfs-sysupgrade.bin",
      "sha256": "c6abdd35d43ffdeec3da06bad40b77b77f2d3ca8992c46a835e18c98af67f457",
      "type": "sysupgrade"
    }
  ],
  "metadata_version": 1,
  "model_id": "elecom_wrc-1900gst",
  "source_date_epoch": 1650114812,
  "supported_devices": [
    "elecom,wrc-1900gst"
  ],
  "target": "ramips/mt7621",
  "titles": [
    {
      "title": "ELECOM WRC-1900GST"
    }
  ],
  "version_code": "r11427-9ce6aa9d8d",
  "version_number": "19.07.10"
}