{
  "arch_packages": "mipsel_24kc",
  "build_at": "2023-09-22 06:59:57",
  "default_packages": [
    "base-files",
    "libc",
    "libgcc",
    "busybox",
    "dropbear",
    "mtd",
    "uci",
    "opkg",
    "netifd",
    "fstools",
    "uclient-fetch",
    "logd",
    "urandom-seed",
    "urngd",
    "kmod-leds-gpio",
    "kmod-gpio-button-hotplug",
    "swconfig",
    "dnsmasq",
    "iptables",
    "ip6tables",
    "ppp",
    "ppp-mod-pppoe",
    "firewall",
    "odhcpd-ipv6only",
    "odhcp6c",
    "kmod-ipt-offload",
    "kmod-leds-gpio",
    "kmod-gpio-button-hotplug",
    "swconfig"
  ],
  "device_packages": [
    "kmod-ata-core",
    "kmod-ata-ahci",
    "kmod-mt76x2",
    "kmod-sdhci-mt7620",
    "kmod-usb3",
    "kmod-usb-ledtrig-usbport",
    "wpad-basic",
    "iwinfo"
  ],
  "image_path": "releases/19.07.10/targets/ramips/mt7621/",
  "image_prefix": "openwrt-19.07.10-ramips-mt7621-mqmaker_witi-512m",
  "images": [
    {
      "filesystem": "squashfs",
      "name": "openwrt-19.07.10-ramips-mt7621-mqmaker_witi-512m-squashfs-sysupgrade.bin",
      "sha256": "90ea700b1f74414e8d974752d95cceb14344679205e2ea740d769982bdf7cc9a",
      "type": "sysupgrade"
    }
  ],
  "metadata_version": 1,
  "model_id": "mqmaker_witi-512m",
  "source_date_epoch": 1650114812,
  "supported_devices": [
    "mqmaker,witi-512m"
  ],
  "target": "ramips/mt7621",
  "titles": [
    {
      "title": "MQmaker WiTi (512MB RAM)"
    }
  ],
  "version_code": "r11427-9ce6aa9d8d",
  "version_number": "19.07.10"
}