{
  "arch_packages": "mipsel_24kc",
  "build_at": "2023-09-22 06:59:57",
  "default_packages": [
    "base-files",
    "libc",
    "libgcc",
    "busybox",
    "dropbear",
    "mtd",
    "uci",
    "opkg",
    "netifd",
    "fstools",
    "uclient-fetch",
    "logd",
    "urandom-seed",
    "urngd",
    "kmod-leds-gpio",
    "kmod-gpio-button-hotplug",
    "swconfig",
    "dnsmasq",
    "iptables",
    "ip6tables",
    "ppp",
    "ppp-mod-pppoe",
    "firewall",
    "odhcpd-ipv6only",
    "odhcp6c",
    "kmod-ipt-offload",
    "kmod-leds-gpio",
    "kmod-gpio-button-hotplug",
    "swconfig"
  ],
  "device_packages": [
    "kmod-usb3"
  ],
  "image_path": "releases/19.07.10/targets/ramips/mt7621/",
  "image_prefix": "openwrt-19.07.10-ramips-mt7621-timecloud",
  "images": [
    {
      "filesystem": "squashfs",
      "name": "openwrt-19.07.10-ramips-mt7621-timecloud-squashfs-sysupgrade.bin",
      "sha256": "a16a25c35f7c922ad02c353bd84fea95309379854789dcf05bcc29d4076aabf0",
      "type": "sysupgrade"
    }
  ],
  "metadata_version": 1,
  "model_id": "timecloud",
  "source_date_epoch": 1650114812,
  "supported_devices": [
    "timecloud"
  ],
  "target": "ramips/mt7621",
  "titles": [
    {
      "title": "Thunder Timecloud"
    }
  ],
  "version_code": "r11427-9ce6aa9d8d",
  "version_number": "19.07.10"
}