{
  "arch_packages": "mipsel_24kc",
  "build_at": "2023-09-22 06:59:57",
  "default_packages": [
    "base-files",
    "libc",
    "libgcc",
    "busybox",
    "dropbear",
    "mtd",
    "uci",
    "opkg",
    "netifd",
    "fstools",
    "uclient-fetch",
    "logd",
    "urandom-seed",
    "urngd",
    "kmod-leds-gpio",
    "kmod-gpio-button-hotplug",
    "swconfig",
    "dnsmasq",
    "iptables",
    "ip6tables",
    "ppp",
    "ppp-mod-pppoe",
    "firewall",
    "odhcpd-ipv6only",
    "odhcp6c",
    "kmod-ipt-offload",
    "kmod-leds-gpio",
    "kmod-gpio-button-hotplug",
    "swconfig"
  ],
  "device_packages": [
    "kmod-mt7603",
    "kmod-mt76x2",
    "wpad-basic",
    "iwinfo"
  ],
  "image_path": "releases/19.07.10/targets/ramips/mt7621/",
  "image_prefix": "openwrt-19.07.10-ramips-mt7621-wsr-1166",
  "images": [
    {
      "filesystem": "squashfs",
      "name": "openwrt-19.07.10-ramips-mt7621-wsr-1166-squashfs-sysupgrade.bin",
      "sha256": "dcf759c5939653f7bcc8d398c07077ab0e091b1b826c4a91a26d63f49d5bb140",
      "type": "sysupgrade"
    }
  ],
  "metadata_version": 1,
  "model_id": "wsr-1166",
  "source_date_epoch": 1650114812,
  "supported_devices": [
    "wsr-1166"
  ],
  "target": "ramips/mt7621",
  "titles": [
    {
      "title": "Buffalo WSR-1166"
    }
  ],
  "version_code": "r11427-9ce6aa9d8d",
  "version_number": "19.07.10"
}