{
  "arch_packages": "mipsel_24kc",
  "build_at": "2023-09-22 06:59:57",
  "default_packages": [
    "base-files",
    "libc",
    "libgcc",
    "busybox",
    "dropbear",
    "mtd",
    "uci",
    "opkg",
    "netifd",
    "fstools",
    "uclient-fetch",
    "logd",
    "urandom-seed",
    "urngd",
    "kmod-leds-gpio",
    "kmod-gpio-button-hotplug",
    "swconfig",
    "kmod-rt2800-soc",
    "wpad-mini",
    "dnsmasq",
    "iptables",
    "ip6tables",
    "ppp",
    "ppp-mod-pppoe",
    "firewall",
    "odhcpd-ipv6only",
    "odhcp6c",
    "kmod-ipt-offload",
    "kmod-leds-gpio",
    "kmod-gpio-button-hotplug",
    "swconfig"
  ],
  "device_packages": [
    "rssileds"
  ],
  "image_path": "releases/19.07.10/targets/ramips/rt305x/",
  "image_prefix": "openwrt-19.07.10-ramips-rt305x-all0256n-8M",
  "images": [
    {
      "filesystem": "squashfs",
      "name": "openwrt-19.07.10-ramips-rt305x-all0256n-8M-squashfs-sysupgrade.bin",
      "sha256": "73c97eb2f96c373a33671ebc04149a1d54edf5b92e1e30e0b422ca340ae70709",
      "type": "sysupgrade"
    }
  ],
  "metadata_version": 1,
  "model_id": "all0256n-8M",
  "source_date_epoch": 1650114812,
  "supported_devices": [
    "all0256n-8M"
  ],
  "target": "ramips/rt305x",
  "titles": [
    {
      "title": "Allnet ALL0256N (8MB)"
    }
  ],
  "version_code": "r11427-9ce6aa9d8d",
  "version_number": "19.07.10"
}