{
  "arch_packages": "mipsel_24kc",
  "build_at": "2023-09-22 06:59:57",
  "default_packages": [
    "base-files",
    "libc",
    "libgcc",
    "busybox",
    "dropbear",
    "mtd",
    "uci",
    "opkg",
    "netifd",
    "fstools",
    "uclient-fetch",
    "logd",
    "urandom-seed",
    "urngd",
    "kmod-leds-gpio",
    "kmod-gpio-button-hotplug",
    "swconfig",
    "kmod-rt2800-soc",
    "wpad-mini",
    "dnsmasq",
    "iptables",
    "ip6tables",
    "ppp",
    "ppp-mod-pppoe",
    "firewall",
    "odhcpd-ipv6only",
    "odhcp6c",
    "kmod-ipt-offload",
    "kmod-leds-gpio",
    "kmod-gpio-button-hotplug",
    "swconfig"
  ],
  "device_packages": [
    "kmod-usb-core",
    "kmod-usb-ohci",
    "kmod-usb2",
    "kmod-i2c-core",
    "kmod-i2c-gpio"
  ],
  "image_path": "releases/19.07.10/targets/ramips/rt305x/",
  "image_prefix": "openwrt-19.07.10-ramips-rt305x-awm002-evb-8M",
  "images": [
    {
      "filesystem": "squashfs",
      "name": "openwrt-19.07.10-ramips-rt305x-awm002-evb-8M-squashfs-sysupgrade.bin",
      "sha256": "a1bbbcddd3b47a79e8f7a2a32e0e5cd67b3062553ecea300fc7afc575a520160",
      "type": "sysupgrade"
    }
  ],
  "metadata_version": 1,
  "model_id": "awm002-evb-8M",
  "source_date_epoch": 1650114812,
  "supported_devices": [
    "awm002-evb-8M"
  ],
  "target": "ramips/rt305x",
  "titles": [
    {
      "title": "AsiaRF AWM002-EVB (8M)/AsiaRF AWM003 EVB"
    }
  ],
  "version_code": "r11427-9ce6aa9d8d",
  "version_number": "19.07.10"
}