{
  "arch_packages": "mipsel_24kc",
  "build_at": "2023-09-22 06:59:57",
  "default_packages": [
    "base-files",
    "libc",
    "libgcc",
    "busybox",
    "dropbear",
    "mtd",
    "uci",
    "opkg",
    "netifd",
    "fstools",
    "uclient-fetch",
    "logd",
    "urandom-seed",
    "urngd",
    "kmod-leds-gpio",
    "kmod-gpio-button-hotplug",
    "swconfig",
    "kmod-rt2800-soc",
    "wpad-mini",
    "dnsmasq",
    "iptables",
    "ip6tables",
    "ppp",
    "ppp-mod-pppoe",
    "firewall",
    "odhcpd-ipv6only",
    "odhcp6c",
    "kmod-ipt-offload",
    "kmod-leds-gpio",
    "kmod-gpio-button-hotplug",
    "swconfig"
  ],
  "device_packages": [
    "kmod-usb-core",
    "kmod-usb2",
    "kmod-ledtrig-netdev",
    "kmod-ledtrig-timer"
  ],
  "image_path": "releases/19.07.10/targets/ramips/rt305x/",
  "image_prefix": "openwrt-19.07.10-ramips-rt305x-m4-8M",
  "images": [
    {
      "filesystem": "squashfs",
      "name": "openwrt-19.07.10-ramips-rt305x-m4-8M-squashfs-factory.bin",
      "sha256": "3dc84d6e259d2ee29481e0871340c1b868a25668b116ea6eace8fc8b0c6de084",
      "type": "factory"
    },
    {
      "filesystem": "squashfs",
      "name": "openwrt-19.07.10-ramips-rt305x-m4-8M-squashfs-sysupgrade.bin",
      "sha256": "fe3f32edc97dd5c01bd47f8cebb72f8e0981af3729ae04d1691cc9100adcba04",
      "type": "sysupgrade"
    }
  ],
  "metadata_version": 1,
  "model_id": "m4-8M",
  "source_date_epoch": 1650114812,
  "supported_devices": [
    "m4-8M"
  ],
  "target": "ramips/rt305x",
  "titles": [
    {
      "title": "Poray M4 (8MB)"
    }
  ],
  "version_code": "r11427-9ce6aa9d8d",
  "version_number": "19.07.10"
}