{
  "arch_packages": "mipsel_24kc",
  "build_at": "2023-09-22 06:59:57",
  "default_packages": [
    "base-files",
    "libc",
    "libgcc",
    "busybox",
    "dropbear",
    "mtd",
    "uci",
    "opkg",
    "netifd",
    "fstools",
    "uclient-fetch",
    "logd",
    "urandom-seed",
    "urngd",
    "kmod-leds-gpio",
    "kmod-gpio-button-hotplug",
    "swconfig",
    "kmod-rt2800-soc",
    "wpad-mini",
    "dnsmasq",
    "iptables",
    "ip6tables",
    "ppp",
    "ppp-mod-pppoe",
    "firewall",
    "odhcpd-ipv6only",
    "odhcp6c",
    "kmod-ipt-offload",
    "kmod-leds-gpio",
    "kmod-gpio-button-hotplug",
    "swconfig"
  ],
  "device_packages": [
    "kmod-usb-core",
    "kmod-usb-dwc2",
    "kmod-usb-ledtrig-usbport"
  ],
  "image_path": "releases/19.07.10/targets/ramips/rt305x/",
  "image_prefix": "openwrt-19.07.10-ramips-rt305x-ur-326n4g",
  "images": [
    {
      "filesystem": "squashfs",
      "name": "openwrt-19.07.10-ramips-rt305x-ur-326n4g-squashfs-sysupgrade.bin",
      "sha256": "dda35b06a0d0af34d833d26acca55a00927f1dc93d8910f81e53d4d04be9ab42",
      "type": "sysupgrade"
    }
  ],
  "metadata_version": 1,
  "model_id": "ur-326n4g",
  "source_date_epoch": 1650114812,
  "supported_devices": [
    "ur-326n4g"
  ],
  "target": "ramips/rt305x",
  "titles": [
    {
      "title": "UPVEL UR-326N4G"
    }
  ],
  "version_code": "r11427-9ce6aa9d8d",
  "version_number": "19.07.10"
}