{
  "arch_packages": "arm_arm1176jzf-s_vfp",
  "build_at": "2023-09-22 06:59:57",
  "default_packages": [
    "base-files",
    "bcm27xx-gpu-fw",
    "busybox",
    "ca-bundle",
    "dnsmasq",
    "dropbear",
    "e2fsprogs",
    "firewall4",
    "fstools",
    "kmod-fs-vfat",
    "kmod-nft-offload",
    "kmod-nls-cp437",
    "kmod-nls-iso8859-1",
    "kmod-sound-arm-bcm2835",
    "kmod-sound-core",
    "kmod-usb-hid",
    "libc",
    "libgcc",
    "libustream-wolfssl",
    "logd",
    "mkf2fs",
    "mtd",
    "netifd",
    "nftables",
    "odhcp6c",
    "odhcpd-ipv6only",
    "opkg",
    "partx-utils",
    "ppp",
    "ppp-mod-pppoe",
    "procd",
    "procd-seccomp",
    "procd-ujail",
    "uci",
    "uclient-fetch",
    "urandom-seed"
  ],
  "device_packages": [
    "cypress-firmware-43430-sdio",
    "cypress-nvram-43430-sdio-rpi-zero-w",
    "kmod-brcmfmac",
    "wpad-basic-wolfssl",
    "iwinfo"
  ],
  "image_path": "releases/22.03.5/targets/bcm27xx/bcm2708/",
  "image_prefix": "openwrt-22.03.5-bcm27xx-bcm2708-rpi",
  "images": [
    {
      "filesystem": "squashfs",
      "name": "openwrt-22.03.5-bcm27xx-bcm2708-rpi-squashfs-factory.img.gz",
      "sha256": "bbbb7e4e3ba47fed8604f98672a2006021878205c11dbd5422e8bcebbdf158f2",
      "sha256_unsigned": "bbbb7e4e3ba47fed8604f98672a2006021878205c11dbd5422e8bcebbdf158f2",
      "type": "factory"
    },
    {
      "filesystem": "ext4",
      "name": "openwrt-22.03.5-bcm27xx-bcm2708-rpi-ext4-factory.img.gz",
      "sha256": "9dac735681af795d580c1a82bc02ed46326b23df079367822c904d0d78c84fc9",
      "sha256_unsigned": "9dac735681af795d580c1a82bc02ed46326b23df079367822c904d0d78c84fc9",
      "type": "factory"
    },
    {
      "filesystem": "squashfs",
      "name": "openwrt-22.03.5-bcm27xx-bcm2708-rpi-squashfs-sysupgrade.img.gz",
      "sha256": "b4dcc3396d6de4f0f36644f7752f3ead3b49fc491d16205eb24c8025f6620c18",
      "sha256_unsigned": "c362a521fbb98bb2df499ded5f2512be70f4c7563072654b49ec8f637c8f77de",
      "type": "sysupgrade"
    },
    {
      "filesystem": "ext4",
      "name": "openwrt-22.03.5-bcm27xx-bcm2708-rpi-ext4-sysupgrade.img.gz",
      "sha256": "b96a2def13fe2c26298800726f1ad4c4915665ab19408cdc4af5b89831968c74",
      "sha256_unsigned": "80b6a1f0330e6d702d51abda9f5b22538b71f782e0800fa652a764f8e68bd500",
      "type": "sysupgrade"
    }
  ],
  "metadata_version": 1,
  "model_id": "rpi",
  "source_date_epoch": 1682627295,
  "supported_devices": [
    "rpi-b",
    "rpi-b-plus",
    "rpi-cm",
    "rpi-zero",
    "rpi-zero-w",
    "raspberrypi,model-b",
    "raspberrypi,model-b-plus",
    "raspberrypi,model-b-rev2",
    "raspberrypi,compute-module",
    "raspberrypi,compute-module-1",
    "raspberrypi,model-zero",
    "raspberrypi,model-zero-w"
  ],
  "target": "bcm27xx/bcm2708",
  "titles": [
    {
      "model": "B/B+/CM/Zero/ZeroW",
      "vendor": "Raspberry Pi"
    }
  ],
  "version_code": "r20134-5f15225c1e",
  "version_number": "22.03.5"
}