{
  "arch_packages": "mipsel_24kc",
  "build_at": "2023-09-22 06:59:57",
  "default_packages": [
    "base-files",
    "libc",
    "libgcc",
    "busybox",
    "dropbear",
    "mtd",
    "uci",
    "opkg",
    "netifd",
    "fstools",
    "uclient-fetch",
    "logd",
    "urandom-seed",
    "urngd",
    "kmod-leds-gpio",
    "kmod-gpio-button-hotplug",
    "swconfig",
    "kmod-rt2800-soc",
    "wpad-mini",
    "dnsmasq",
    "iptables",
    "ip6tables",
    "ppp",
    "ppp-mod-pppoe",
    "firewall",
    "odhcpd-ipv6only",
    "odhcp6c",
    "kmod-ipt-offload",
    "kmod-leds-gpio",
    "kmod-gpio-button-hotplug",
    "swconfig"
  ],
  "device_packages": [
    "kmod-switch-rtl8366s"
  ],
  "image_path": "releases/19.07.10/targets/ramips/rt288x/",
  "image_prefix": "openwrt-19.07.10-ramips-rt288x-dlink_dap-1522-a1",
  "images": [
    {
      "filesystem": "squashfs",
      "name": "openwrt-19.07.10-ramips-rt288x-dlink_dap-1522-a1-squashfs-factory.bin",
      "sha256": "00d5e9c7979ff2a5e46fa2585fee2e26570637ec80590f6fa4e9abf3149f1bd2",
      "type": "factory"
    },
    {
      "filesystem": "squashfs",
      "name": "openwrt-19.07.10-ramips-rt288x-dlink_dap-1522-a1-squashfs-sysupgrade.bin",
      "sha256": "94f0f5e11cc9d963183295cb99e1faaffa8bd51fe9e159ed3a09ad0702d21edc",
      "type": "sysupgrade"
    }
  ],
  "metadata_version": 1,
  "model_id": "dlink_dap-1522-a1",
  "source_date_epoch": 1650114812,
  "supported_devices": [
    "dlink,dap-1522-a1"
  ],
  "target": "ramips/rt288x",
  "titles": [
    {
      "title": "D-Link DAP-1522 A1"
    }
  ],
  "version_code": "r11427-9ce6aa9d8d",
  "version_number": "19.07.10"
}