{
  "arch_packages": "arm_cortex-a15_neon-vfpv4",
  "build_at": "2023-09-22 06:59:57",
  "default_packages": [
    "base-files",
    "busybox",
    "ca-bundle",
    "dnsmasq",
    "dropbear",
    "firewall4",
    "fstools",
    "kmod-ata-ahci",
    "kmod-ata-ahci-platform",
    "kmod-ath10k-ct",
    "kmod-gpio-button-hotplug",
    "kmod-leds-gpio",
    "kmod-nft-offload",
    "kmod-phy-qcom-ipq806x-usb",
    "kmod-usb-dwc3-qcom",
    "kmod-usb-ledtrig-usbport",
    "kmod-usb-ohci",
    "kmod-usb2",
    "kmod-usb3",
    "libc",
    "libgcc",
    "libustream-wolfssl",
    "logd",
    "mtd",
    "netifd",
    "nftables",
    "odhcp6c",
    "odhcpd-ipv6only",
    "opkg",
    "ppp",
    "ppp-mod-pppoe",
    "procd",
    "procd-seccomp",
    "procd-ujail",
    "swconfig",
    "uboot-envtools",
    "uci",
    "uclient-fetch",
    "urandom-seed",
    "urngd",
    "wpad-basic-wolfssl"
  ],
  "device_packages": [
    "ath10k-firmware-qca9984-ct"
  ],
  "image_path": "releases/22.03.5/targets/ipq806x/generic/",
  "image_prefix": "openwrt-22.03.5-ipq806x-generic-askey_rt4230w-rev6",
  "images": [
    {
      "filesystem": "initramfs",
      "name": "openwrt-22.03.5-ipq806x-generic-askey_rt4230w-rev6-initramfs-uImage",
      "sha256": "b9eac3864cdddcdfa882f32ced9c96de496bc0e2fe1dde477ead11215d57358d",
      "sha256_unsigned": "b9eac3864cdddcdfa882f32ced9c96de496bc0e2fe1dde477ead11215d57358d",
      "type": "kernel"
    },
    {
      "filesystem": "squashfs",
      "name": "openwrt-22.03.5-ipq806x-generic-askey_rt4230w-rev6-squashfs-sysupgrade.bin",
      "sha256": "3c3d6a83829fa950c212c6743a78640f2ed1c46f7cfbc4a338e953ff5f65b70c",
      "sha256_unsigned": "5aa4f3c022ce82ff583aabab901862c01b919122e5a9a8add31786fb0b3688a3",
      "type": "sysupgrade"
    }
  ],
  "metadata_version": 1,
  "model_id": "askey_rt4230w-rev6",
  "source_date_epoch": 1682627295,
  "supported_devices": [
    "askey,rt4230w-rev6"
  ],
  "target": "ipq806x/generic",
  "titles": [
    {
      "model": "RT4230W",
      "variant": "REV6",
      "vendor": "Askey"
    }
  ],
  "version_code": "r20134-5f15225c1e",
  "version_number": "22.03.5"
}