{
  "arch_packages": "arm_cortex-a15_neon-vfpv4",
  "build_at": "2023-09-22 06:59:57",
  "default_packages": [
    "base-files",
    "busybox",
    "ca-bundle",
    "dnsmasq",
    "dropbear",
    "firewall4",
    "fstools",
    "kmod-ata-ahci",
    "kmod-ata-ahci-platform",
    "kmod-ath10k-ct",
    "kmod-gpio-button-hotplug",
    "kmod-leds-gpio",
    "kmod-nft-offload",
    "kmod-phy-qcom-ipq806x-usb",
    "kmod-usb-dwc3-qcom",
    "kmod-usb-ledtrig-usbport",
    "kmod-usb-ohci",
    "kmod-usb2",
    "kmod-usb3",
    "libc",
    "libgcc",
    "libustream-wolfssl",
    "logd",
    "mtd",
    "netifd",
    "nftables",
    "odhcp6c",
    "odhcpd-ipv6only",
    "opkg",
    "ppp",
    "ppp-mod-pppoe",
    "procd",
    "procd-seccomp",
    "procd-ujail",
    "swconfig",
    "uboot-envtools",
    "uci",
    "uclient-fetch",
    "urandom-seed",
    "urngd",
    "wpad-basic-wolfssl"
  ],
  "device_packages": [
    "ath10k-firmware-qca99x0-ct",
    "ath10k-firmware-qca988x-ct"
  ],
  "image_path": "releases/22.03.5/targets/ipq806x/generic/",
  "image_prefix": "openwrt-22.03.5-ipq806x-generic-netgear_r7500v2",
  "images": [
    {
      "filesystem": "squashfs",
      "name": "openwrt-22.03.5-ipq806x-generic-netgear_r7500v2-squashfs-factory.img",
      "sha256": "c75b5016bbee49a8821bfff294412185473d51f99c61dca8ee98a31c8a298b59",
      "sha256_unsigned": "c75b5016bbee49a8821bfff294412185473d51f99c61dca8ee98a31c8a298b59",
      "type": "factory"
    },
    {
      "filesystem": "squashfs",
      "name": "openwrt-22.03.5-ipq806x-generic-netgear_r7500v2-squashfs-sysupgrade.bin",
      "sha256": "2f39103bbc7d7429f7d5d69f0d6a3ac131ee246aba8f7cb3fe9f0f8260c6c6c8",
      "sha256_unsigned": "6f942ad88a1ac71bba863c6824f0f0bfcf04e35b86da1d3640b9d49fb4a65bab",
      "type": "sysupgrade"
    },
    {
      "filesystem": "initramfs",
      "name": "openwrt-22.03.5-ipq806x-generic-netgear_r7500v2-initramfs-uImage",
      "sha256": "393ed12b8ee0ff1727b822cc14cdefe596cdab4150b4fbaa63e360b747c479cc",
      "sha256_unsigned": "393ed12b8ee0ff1727b822cc14cdefe596cdab4150b4fbaa63e360b747c479cc",
      "type": "kernel"
    }
  ],
  "metadata_version": 1,
  "model_id": "netgear_r7500v2",
  "source_date_epoch": 1682627295,
  "supported_devices": [
    "netgear,r7500v2",
    "r7500v2"
  ],
  "target": "ipq806x/generic",
  "titles": [
    {
      "model": "Nighthawk X4 R7500",
      "variant": "v2",
      "vendor": "NETGEAR"
    }
  ],
  "version_code": "r20134-5f15225c1e",
  "version_number": "22.03.5"
}