{
  "arch_packages": "arm_cortex-a15_neon-vfpv4",
  "build_at": "2023-09-22 06:59:57",
  "default_packages": [
    "base-files",
    "busybox",
    "ca-bundle",
    "dnsmasq",
    "dropbear",
    "firewall4",
    "fstools",
    "kmod-ata-ahci",
    "kmod-ata-ahci-platform",
    "kmod-ath10k-ct",
    "kmod-gpio-button-hotplug",
    "kmod-leds-gpio",
    "kmod-nft-offload",
    "kmod-phy-qcom-ipq806x-usb",
    "kmod-usb-dwc3-qcom",
    "kmod-usb-ledtrig-usbport",
    "kmod-usb-ohci",
    "kmod-usb2",
    "kmod-usb3",
    "libc",
    "libgcc",
    "libustream-wolfssl",
    "logd",
    "mtd",
    "netifd",
    "nftables",
    "odhcp6c",
    "odhcpd-ipv6only",
    "opkg",
    "ppp",
    "ppp-mod-pppoe",
    "procd",
    "procd-seccomp",
    "procd-ujail",
    "swconfig",
    "uboot-envtools",
    "uci",
    "uclient-fetch",
    "urandom-seed",
    "urngd",
    "wpad-basic-wolfssl"
  ],
  "device_packages": [
    "ath10k-firmware-qca9984-ct",
    "kmod-ramoops"
  ],
  "image_path": "releases/22.03.5/targets/ipq806x/generic/",
  "image_prefix": "openwrt-22.03.5-ipq806x-generic-netgear_xr500",
  "images": [
    {
      "filesystem": "initramfs",
      "name": "openwrt-22.03.5-ipq806x-generic-netgear_xr500-initramfs-uImage",
      "sha256": "00ac9b8cf4b1743b72606f05e7fc0bcfc99440d6eccf6fd8656ccb8ec49a2efe",
      "sha256_unsigned": "00ac9b8cf4b1743b72606f05e7fc0bcfc99440d6eccf6fd8656ccb8ec49a2efe",
      "type": "kernel"
    },
    {
      "filesystem": "squashfs",
      "name": "openwrt-22.03.5-ipq806x-generic-netgear_xr500-squashfs-factory.img",
      "sha256": "f4bab9a1dd465ec8f43e7e9c11b6f810c6e8bbda9c0ee3f3475d28dc2ef72be1",
      "sha256_unsigned": "f4bab9a1dd465ec8f43e7e9c11b6f810c6e8bbda9c0ee3f3475d28dc2ef72be1",
      "type": "factory"
    },
    {
      "filesystem": "squashfs",
      "name": "openwrt-22.03.5-ipq806x-generic-netgear_xr500-squashfs-sysupgrade.bin",
      "sha256": "29ebe2902d7fd61514d68df355f7642952acc3e83322503289e62fe0c1fda18f",
      "sha256_unsigned": "94ea5a646b430eb82d24214c4fe2a95ad65380130d3ad0f2f053600c7794f19e",
      "type": "sysupgrade"
    }
  ],
  "metadata_version": 1,
  "model_id": "netgear_xr500",
  "source_date_epoch": 1682627295,
  "supported_devices": [
    "netgear,xr500"
  ],
  "target": "ipq806x/generic",
  "titles": [
    {
      "model": "Nighthawk XR500",
      "vendor": "NETGEAR"
    }
  ],
  "version_code": "r20134-5f15225c1e",
  "version_number": "22.03.5"
}