{
  "arch_packages": "arm_cortex-a15_neon-vfpv4",
  "build_at": "2023-09-22 06:59:57",
  "default_packages": [
    "base-files",
    "busybox",
    "ca-bundle",
    "dnsmasq",
    "dropbear",
    "firewall4",
    "fstools",
    "kmod-ata-ahci",
    "kmod-ata-ahci-platform",
    "kmod-ath10k-ct",
    "kmod-gpio-button-hotplug",
    "kmod-leds-gpio",
    "kmod-nft-offload",
    "kmod-phy-qcom-ipq806x-usb",
    "kmod-usb-dwc3-qcom",
    "kmod-usb-ledtrig-usbport",
    "kmod-usb-ohci",
    "kmod-usb2",
    "kmod-usb3",
    "libc",
    "libgcc",
    "libustream-wolfssl",
    "logd",
    "mtd",
    "netifd",
    "nftables",
    "odhcp6c",
    "odhcpd-ipv6only",
    "opkg",
    "ppp",
    "ppp-mod-pppoe",
    "procd",
    "procd-seccomp",
    "procd-ujail",
    "swconfig",
    "uboot-envtools",
    "uci",
    "uclient-fetch",
    "urandom-seed",
    "urngd",
    "wpad-basic-wolfssl"
  ],
  "device_packages": [
    "ath10k-firmware-qca9984-ct",
    "e2fsprogs",
    "kmod-fs-ext4",
    "losetup"
  ],
  "image_path": "releases/22.03.5/targets/ipq806x/generic/",
  "image_prefix": "openwrt-22.03.5-ipq806x-generic-zyxel_nbg6817",
  "images": [
    {
      "filesystem": "initramfs",
      "name": "openwrt-22.03.5-ipq806x-generic-zyxel_nbg6817-initramfs-uImage",
      "sha256": "a53a51b1a5ca3971fa634c81d6c8ae850d7b2b227f2e61b0a88190bd2a1e78f4",
      "sha256_unsigned": "a53a51b1a5ca3971fa634c81d6c8ae850d7b2b227f2e61b0a88190bd2a1e78f4",
      "type": "kernel"
    },
    {
      "filesystem": "squashfs",
      "name": "openwrt-22.03.5-ipq806x-generic-zyxel_nbg6817-squashfs-sysupgrade.bin",
      "sha256": "bfd2c0404802c373db8bd04ba7fb0febc7cd009d2480f0165042cfe91dbc16dd",
      "sha256_unsigned": "be09720a52fd382c61f32520bca245632dac80fae44391a2340e15ee1492834f",
      "type": "sysupgrade"
    },
    {
      "filesystem": "squashfs",
      "name": "openwrt-22.03.5-ipq806x-generic-zyxel_nbg6817-squashfs-factory.bin",
      "sha256": "afdd789edce459da4eec00bf8e2bc8a4c074115a23f394288225c98f1f00e8d3",
      "sha256_unsigned": "afdd789edce459da4eec00bf8e2bc8a4c074115a23f394288225c98f1f00e8d3",
      "type": "factory"
    }
  ],
  "metadata_version": 1,
  "model_id": "zyxel_nbg6817",
  "source_date_epoch": 1682627295,
  "supported_devices": [
    "zyxel,nbg6817",
    "nbg6817"
  ],
  "target": "ipq806x/generic",
  "titles": [
    {
      "model": "NBG6817",
      "vendor": "ZyXEL"
    }
  ],
  "version_code": "r20134-5f15225c1e",
  "version_number": "22.03.5"
}