{
  "arch_packages": "mips64_octeonplus",
  "build_at": "2023-09-22 06:59:57",
  "default_packages": [
    "base-files",
    "busybox",
    "ca-bundle",
    "dnsmasq",
    "dropbear",
    "e2fsprogs",
    "firewall4",
    "fstools",
    "kmod-nft-offload",
    "libc",
    "libgcc",
    "libustream-wolfssl",
    "logd",
    "mkf2fs",
    "mtd",
    "netifd",
    "nftables",
    "odhcp6c",
    "odhcpd-ipv6only",
    "opkg",
    "ppp",
    "ppp-mod-pppoe",
    "procd",
    "procd-seccomp",
    "procd-ujail",
    "uci",
    "uclient-fetch",
    "urandom-seed",
    "urngd"
  ],
  "device_packages": [],
  "image_path": "releases/22.03.5/targets/octeon/generic/",
  "image_prefix": "openwrt-22.03.5-octeon-generic-generic",
  "images": [
    {
      "filesystem": "initramfs",
      "name": "openwrt-22.03.5-octeon-generic-generic-initramfs-kernel.bin",
      "sha256": "9fb9cc1589155ab6bf16cadea4af34800170848533065fedc2906fac5b0df218",
      "sha256_unsigned": "9fb9cc1589155ab6bf16cadea4af34800170848533065fedc2906fac5b0df218",
      "type": "kernel"
    }
  ],
  "metadata_version": 1,
  "model_id": "generic",
  "source_date_epoch": 1682627295,
  "supported_devices": [
    "generic"
  ],
  "target": "octeon/generic",
  "titles": [
    {
      "model": "Octeon",
      "vendor": "Generic"
    }
  ],
  "version_code": "r20134-5f15225c1e",
  "version_number": "22.03.5"
}