{
  "arch_packages": "mips64_octeonplus",
  "build_at": "2023-09-22 06:59:57",
  "default_packages": [
    "base-files",
    "busybox",
    "ca-bundle",
    "dnsmasq",
    "dropbear",
    "e2fsprogs",
    "firewall4",
    "fstools",
    "kmod-nft-offload",
    "libc",
    "libgcc",
    "libustream-wolfssl",
    "logd",
    "mkf2fs",
    "mtd",
    "netifd",
    "nftables",
    "odhcp6c",
    "odhcpd-ipv6only",
    "opkg",
    "ppp",
    "ppp-mod-pppoe",
    "procd",
    "procd-seccomp",
    "procd-ujail",
    "uci",
    "uclient-fetch",
    "urandom-seed",
    "urngd"
  ],
  "device_packages": [
    "kmod-gpio-button-hotplug",
    "kmod-leds-gpio",
    "kmod-of-mdio",
    "kmod-sfp",
    "kmod-usb3",
    "kmod-usb-dwc3",
    "kmod-usb-storage-uas"
  ],
  "image_path": "releases/22.03.5/targets/octeon/generic/",
  "image_prefix": "openwrt-22.03.5-octeon-generic-ubnt_edgerouter-6p",
  "images": [
    {
      "filesystem": "initramfs",
      "name": "openwrt-22.03.5-octeon-generic-ubnt_edgerouter-6p-initramfs-kernel.bin",
      "sha256": "fa8df8bc45dd81edbe8b07a399a956fbb9ffbceead06be1e4ed2a9952c2f059f",
      "sha256_unsigned": "fa8df8bc45dd81edbe8b07a399a956fbb9ffbceead06be1e4ed2a9952c2f059f",
      "type": "kernel"
    },
    {
      "filesystem": "squashfs",
      "name": "openwrt-22.03.5-octeon-generic-ubnt_edgerouter-6p-squashfs-sysupgrade.tar",
      "sha256": "87cb9161269a067487fa07c0a0ae116ecb2f96703ebb642e63c8357228b339af",
      "sha256_unsigned": "87cb9161269a067487fa07c0a0ae116ecb2f96703ebb642e63c8357228b339af",
      "type": "sysupgrade"
    }
  ],
  "metadata_version": 1,
  "model_id": "ubnt_edgerouter-6p",
  "source_date_epoch": 1682627295,
  "supported_devices": [
    "ubnt,edgerouter-6p"
  ],
  "target": "octeon/generic",
  "titles": [
    {
      "model": "EdgeRouter 6P",
      "vendor": "Ubiquiti"
    }
  ],
  "version_code": "r20134-5f15225c1e",
  "version_number": "22.03.5"
}