{
  "arch_packages": "mipsel_74kc",
  "build_at": "2023-09-22 06:59:57",
  "default_packages": [
    "base-files",
    "busybox",
    "ca-bundle",
    "dnsmasq",
    "dropbear",
    "firewall4",
    "fstools",
    "kmod-gpio-button-hotplug",
    "kmod-leds-gpio",
    "kmod-nft-offload",
    "kmod-rt2800-pci",
    "kmod-rt2800-soc",
    "libc",
    "libgcc",
    "libustream-wolfssl",
    "logd",
    "mtd",
    "netifd",
    "nftables",
    "odhcp6c",
    "odhcpd-ipv6only",
    "opkg",
    "ppp",
    "ppp-mod-pppoe",
    "procd",
    "procd-seccomp",
    "swconfig",
    "uci",
    "uclient-fetch",
    "urandom-seed",
    "urngd",
    "wpad-basic-wolfssl"
  ],
  "device_packages": [
    "kmod-usb-ohci",
    "kmod-usb2"
  ],
  "image_path": "releases/22.03.5/targets/ramips/rt3883/",
  "image_prefix": "openwrt-22.03.5-ramips-rt3883-sitecom_wlr-6000",
  "images": [
    {
      "filesystem": "squashfs",
      "name": "openwrt-22.03.5-ramips-rt3883-sitecom_wlr-6000-squashfs-sysupgrade.bin",
      "sha256": "249e470c43b3fe8401daf84d7d2c01ec7b23dc73b512aebe75ed11e47df007da",
      "sha256_unsigned": "016ea57a2ab8afe11dc38a5e97454d66f8ec5bfdc7d369723de749c8fb125051",
      "type": "sysupgrade"
    },
    {
      "filesystem": "squashfs",
      "name": "openwrt-22.03.5-ramips-rt3883-sitecom_wlr-6000-squashfs-factory.dlf",
      "sha256": "788fe1a2b5276350f3e05eb212389a014838bac2b87ec2c55d84114418b84a77",
      "sha256_unsigned": "788fe1a2b5276350f3e05eb212389a014838bac2b87ec2c55d84114418b84a77",
      "type": "factory"
    }
  ],
  "metadata_version": 1,
  "model_id": "sitecom_wlr-6000",
  "source_date_epoch": 1682627295,
  "supported_devices": [
    "sitecom,wlr-6000",
    "wlr-6000"
  ],
  "target": "ramips/rt3883",
  "titles": [
    {
      "model": "WLR-6000",
      "vendor": "Sitecom"
    }
  ],
  "version_code": "r20134-5f15225c1e",
  "version_number": "22.03.5"
}