{
  "arch_packages": "mips_24kc",
  "build_at": "2023-09-22 06:59:57",
  "default_packages": [
    "base-files",
    "libc",
    "libgcc",
    "busybox",
    "dropbear",
    "mtd",
    "uci",
    "opkg",
    "netifd",
    "fstools",
    "uclient-fetch",
    "logd",
    "urandom-seed",
    "urngd",
    "kmod-leds-gpio",
    "kmod-gpio-button-hotplug",
    "swconfig",
    "dnsmasq",
    "iptables",
    "ip6tables",
    "ppp",
    "ppp-mod-pppoe",
    "firewall",
    "odhcpd-ipv6only",
    "odhcp6c",
    "kmod-ipt-offload"
  ],
  "device_packages": [
    "kmod-usb-dwc2",
    "kmod-usb-ledtrig-usbport",
    "kmod-ltq-adsl-danube-mei",
    "kmod-ltq-adsl-danube",
    "kmod-ltq-adsl-danube-fw-b",
    "kmod-ltq-atm-danube",
    "ltq-adsl-app",
    "ppp-mod-pppoa",
    "kmod-ltq-tapi",
    "kmod-ltq-vmmc",
    "kmod-rt2800-pci",
    "wpad-basic",
    "iwinfo"
  ],
  "image_path": "releases/19.07.10/targets/lantiq/xway/",
  "image_prefix": "openwrt-19.07.10-lantiq-xway-arcadyan_arv752dpw",
  "images": [
    {
      "filesystem": "squashfs",
      "name": "openwrt-19.07.10-lantiq-xway-arcadyan_arv752dpw-squashfs-sysupgrade.bin",
      "sha256": "2f6b483a358c76857128cc1e83ba6f90ca79bc70970f428865e9cf7c0625c1fd",
      "type": "sysupgrade"
    }
  ],
  "metadata_version": 1,
  "model_id": "arcadyan_arv752dpw",
  "source_date_epoch": 1650114812,
  "supported_devices": [
    "arcadyan,arv752dpw",
    "ARV752DPW"
  ],
  "target": "lantiq/xway",
  "titles": [
    {
      "title": "Easybox 802 - ARV752DPW"
    }
  ],
  "version_code": "r11427-9ce6aa9d8d",
  "version_number": "19.07.10"
}