{
  "arch_packages": "mips_24kc",
  "build_at": "2023-09-22 06:59:57",
  "default_packages": [
    "base-files",
    "libc",
    "libgcc",
    "busybox",
    "dropbear",
    "mtd",
    "uci",
    "opkg",
    "netifd",
    "fstools",
    "uclient-fetch",
    "logd",
    "urandom-seed",
    "urngd",
    "kmod-leds-gpio",
    "kmod-gpio-button-hotplug",
    "swconfig",
    "dnsmasq",
    "iptables",
    "ip6tables",
    "ppp",
    "ppp-mod-pppoe",
    "firewall",
    "odhcpd-ipv6only",
    "odhcp6c",
    "kmod-ipt-offload"
  ],
  "device_packages": [
    "kmod-ath9k",
    "kmod-owl-loader",
    "wpad-basic",
    "kmod-ltq-adsl-ar9-mei",
    "kmod-ltq-adsl-ar9",
    "kmod-ltq-adsl-ar9-fw-b",
    "kmod-ltq-atm-ar9",
    "ltq-adsl-app",
    "ppp-mod-pppoa",
    "kmod-ltq-deu-ar9",
    "kmod-usb-dwc2",
    "-swconfig",
    "iwinfo"
  ],
  "image_path": "releases/19.07.10/targets/lantiq/xway/",
  "image_prefix": "openwrt-19.07.10-lantiq-xway-avm_fritz7320",
  "images": [
    {
      "filesystem": "squashfs",
      "name": "openwrt-19.07.10-lantiq-xway-avm_fritz7320-squashfs-sysupgrade.bin",
      "sha256": "d23b2e27ad113030a0ceb9daaa1e411a33135279923e00cb66efab12674e3ab5",
      "type": "sysupgrade"
    }
  ],
  "metadata_version": 1,
  "model_id": "avm_fritz7320",
  "source_date_epoch": 1650114812,
  "supported_devices": [
    "avm,fritz7320",
    "FRITZ7320"
  ],
  "target": "lantiq/xway",
  "titles": [
    {
      "title": "AVM FRITZ!Box 7320"
    }
  ],
  "version_code": "r11427-9ce6aa9d8d",
  "version_number": "19.07.10"
}