{
  "arch_packages": "mips_24kc",
  "build_at": "2023-09-22 06:59:57",
  "default_packages": [
    "base-files",
    "libc",
    "libgcc",
    "busybox",
    "dropbear",
    "mtd",
    "uci",
    "opkg",
    "netifd",
    "fstools",
    "uclient-fetch",
    "logd",
    "urandom-seed",
    "urngd",
    "kmod-leds-gpio",
    "kmod-gpio-button-hotplug",
    "swconfig",
    "dnsmasq",
    "iptables",
    "ip6tables",
    "ppp",
    "ppp-mod-pppoe",
    "firewall",
    "odhcpd-ipv6only",
    "odhcp6c",
    "kmod-ipt-offload"
  ],
  "device_packages": [
    "kmod-usb-dwc2",
    "kmod-ltq-adsl-danube-mei",
    "kmod-ltq-adsl-danube",
    "kmod-ltq-adsl-danube-fw-a",
    "kmod-ltq-atm-danube",
    "kmod-ltq-deu-danube",
    "ltq-adsl-app",
    "ppp-mod-pppoa",
    "kmod-ath9k",
    "kmod-owl-loader",
    "wpad-basic",
    "iwinfo"
  ],
  "image_path": "releases/19.07.10/targets/lantiq/xway/",
  "image_prefix": "openwrt-19.07.10-lantiq-xway-bt_homehub-v2b",
  "images": [
    {
      "filesystem": "squashfs",
      "name": "openwrt-19.07.10-lantiq-xway-bt_homehub-v2b-squashfs-sysupgrade.bin",
      "sha256": "f40638dc9934de47eacff0a7f5287c5def98c18477144a514d07a53365d15097",
      "type": "sysupgrade"
    }
  ],
  "metadata_version": 1,
  "model_id": "bt_homehub-v2b",
  "source_date_epoch": 1650114812,
  "supported_devices": [
    "bt,homehub-v2b",
    "BTHOMEHUBV2B"
  ],
  "target": "lantiq/xway",
  "titles": [
    {
      "title": "BT Home Hub 2B"
    }
  ],
  "version_code": "r11427-9ce6aa9d8d",
  "version_number": "19.07.10"
}