{
  "arch_packages": "powerpc_464fp",
  "build_at": "2023-09-22 06:59:57",
  "default_packages": [
    "base-files",
    "libc",
    "libgcc",
    "busybox",
    "dropbear",
    "mtd",
    "uci",
    "opkg",
    "netifd",
    "fstools",
    "uclient-fetch",
    "logd",
    "urandom-seed",
    "urngd",
    "kmod-leds-gpio",
    "kmod-i2c-core",
    "kmod-gpio-button-hotplug",
    "kmod-ath9k",
    "swconfig",
    "wpad-basic",
    "dnsmasq",
    "iptables",
    "ip6tables",
    "ppp",
    "ppp-mod-pppoe",
    "firewall",
    "odhcpd-ipv6only",
    "odhcp6c",
    "kmod-ipt-offload",
    "kmod-leds-gpio",
    "kmod-i2c-core",
    "kmod-gpio-button-hotplug"
  ],
  "device_packages": [
    "kmod-eeprom-at24"
  ],
  "image_path": "releases/19.07.10/targets/apm821xx/nand/",
  "image_prefix": "openwrt-19.07.10-apm821xx-nand-netgear_wndap660",
  "images": [
    {
      "filesystem": "squashfs",
      "name": "openwrt-19.07.10-apm821xx-nand-netgear_wndap660-squashfs-sysupgrade.bin",
      "sha256": "7451894a6abdaf468f492afd929811b1ed516ff1f2042fe30736412f0360d444",
      "type": "sysupgrade"
    },
    {
      "filesystem": "squashfs",
      "name": "openwrt-19.07.10-apm821xx-nand-netgear_wndap660-squashfs-factory.img",
      "sha256": "db7ed5e91f0e6a88c7002ff8a5f302e0a95a77ab1f3ea7760e08c1945b628022",
      "type": "factory"
    }
  ],
  "metadata_version": 1,
  "model_id": "netgear_wndap660",
  "source_date_epoch": 1650114812,
  "supported_devices": [
    "netgear,wndap660"
  ],
  "target": "apm821xx/nand",
  "titles": [
    {
      "title": "Netgear WNDAP660 - Dual Radio Dual Band Wireless-N"
    }
  ],
  "version_code": "r11427-9ce6aa9d8d",
  "version_number": "19.07.10"
}