{
  "arch_packages": "mips_24kc",
  "build_at": "2023-09-22 06:59:57",
  "default_packages": [
    "base-files",
    "busybox",
    "ca-bundle",
    "dnsmasq",
    "dropbear",
    "firewall4",
    "fstools",
    "kmod-ath9k",
    "kmod-gpio-button-hotplug",
    "kmod-nft-offload",
    "libc",
    "libgcc",
    "libustream-wolfssl",
    "logd",
    "mtd",
    "netifd",
    "nftables",
    "odhcp6c",
    "odhcpd-ipv6only",
    "opkg",
    "ppp",
    "ppp-mod-pppoe",
    "procd",
    "procd-seccomp",
    "swconfig",
    "uboot-envtools",
    "uci",
    "uclient-fetch",
    "urandom-seed",
    "urngd",
    "wpad-basic-wolfssl"
  ],
  "device_packages": [
    "kmod-usb2",
    "kmod-usb-ohci",
    "rssileds"
  ],
  "image_path": "releases/22.03.5/targets/ath79/tiny/",
  "image_prefix": "openwrt-22.03.5-ath79-tiny-ubnt_nanostation-loco-m",
  "images": [
    {
      "filesystem": "squashfs",
      "name": "openwrt-22.03.5-ath79-tiny-ubnt_nanostation-loco-m-squashfs-sysupgrade.bin",
      "sha256": "bfeec6c9bd79dc17f2c11df91721e136285b02761700ecf5871199f8da498ba8",
      "sha256_unsigned": "7dfbc27031b8aa819280ee5f0aa67bcb49bc5925c6dd60e4454544186f7d5bb4",
      "type": "sysupgrade"
    },
    {
      "filesystem": "squashfs",
      "name": "openwrt-22.03.5-ath79-tiny-ubnt_nanostation-loco-m-squashfs-factory.bin",
      "sha256": "e990a7677fbbda63a44ee099251787d8c18772d291d69c5f840f68159ea9e4d4",
      "sha256_unsigned": "e990a7677fbbda63a44ee099251787d8c18772d291d69c5f840f68159ea9e4d4",
      "type": "factory"
    },
    {
      "filesystem": "initramfs",
      "name": "openwrt-22.03.5-ath79-tiny-ubnt_nanostation-loco-m-initramfs-kernel.bin",
      "sha256": "d3e1eada6060cb9d5f8cb13af9fcd687be433354b07a6aaeeac388b3f1099e5e",
      "sha256_unsigned": "d3e1eada6060cb9d5f8cb13af9fcd687be433354b07a6aaeeac388b3f1099e5e",
      "type": "kernel"
    }
  ],
  "metadata_version": 1,
  "model_id": "ubnt_nanostation-loco-m",
  "source_date_epoch": 1682627295,
  "supported_devices": [
    "ubnt,nanostation-loco-m",
    "bullet-m"
  ],
  "target": "ath79/tiny",
  "titles": [
    {
      "model": "Nanostation Loco M",
      "variant": "XM",
      "vendor": "Ubiquiti"
    }
  ],
  "version_code": "r20134-5f15225c1e",
  "version_number": "22.03.5"
}