{
  "arch_packages": "mips_24kc",
  "build_at": "2023-09-22 06:59:57",
  "default_packages": [
    "base-files",
    "busybox",
    "ca-bundle",
    "dnsmasq",
    "dropbear",
    "firewall4",
    "fstools",
    "kmod-ath9k",
    "kmod-gpio-button-hotplug",
    "kmod-nft-offload",
    "libc",
    "libgcc",
    "libustream-wolfssl",
    "logd",
    "mtd",
    "netifd",
    "nftables",
    "odhcp6c",
    "odhcpd-ipv6only",
    "opkg",
    "ppp",
    "ppp-mod-pppoe",
    "procd",
    "procd-seccomp",
    "swconfig",
    "uboot-envtools",
    "uci",
    "uclient-fetch",
    "urandom-seed",
    "urngd",
    "wpad-basic-wolfssl"
  ],
  "device_packages": [
    "kmod-usb2",
    "kmod-usb-ohci",
    "rssileds"
  ],
  "image_path": "releases/22.03.5/targets/ath79/tiny/",
  "image_prefix": "openwrt-22.03.5-ath79-tiny-ubnt_bullet-m-ar7241",
  "images": [
    {
      "filesystem": "initramfs",
      "name": "openwrt-22.03.5-ath79-tiny-ubnt_bullet-m-ar7241-initramfs-kernel.bin",
      "sha256": "2be6c9670d18d63e73d1dce099ad7865881a7f10755d9136b55991c2ca4a7e11",
      "sha256_unsigned": "2be6c9670d18d63e73d1dce099ad7865881a7f10755d9136b55991c2ca4a7e11",
      "type": "kernel"
    },
    {
      "filesystem": "squashfs",
      "name": "openwrt-22.03.5-ath79-tiny-ubnt_bullet-m-ar7241-squashfs-factory.bin",
      "sha256": "e08ac09fdcd9d22339c1d6d69aa72a4a6ed92c62aa19970bcf763d0df21b7bc9",
      "sha256_unsigned": "e08ac09fdcd9d22339c1d6d69aa72a4a6ed92c62aa19970bcf763d0df21b7bc9",
      "type": "factory"
    },
    {
      "filesystem": "squashfs",
      "name": "openwrt-22.03.5-ath79-tiny-ubnt_bullet-m-ar7241-squashfs-sysupgrade.bin",
      "sha256": "5ac16b138213860e673cde7692319ebbc224129576aa4c2112ddb95726f6927b",
      "sha256_unsigned": "0ade785c333f87c9ed1be6332ff5beecbbaac797eaa9899e715bff72b5dda737",
      "type": "sysupgrade"
    }
  ],
  "metadata_version": 1,
  "model_id": "ubnt_bullet-m-ar7241",
  "source_date_epoch": 1682627295,
  "supported_devices": [
    "ubnt,bullet-m-ar7241",
    "bullet-m",
    "ubnt,bullet-m"
  ],
  "target": "ath79/tiny",
  "titles": [
    {
      "model": "Bullet M",
      "variant": "XM (AR7241)",
      "vendor": "Ubiquiti"
    }
  ],
  "version_code": "r20134-5f15225c1e",
  "version_number": "22.03.5"
}