{
  "arch_packages": "aarch64_cortex-a53",
  "build_at": "2023-09-22 06:59:57",
  "default_packages": [
    "base-files",
    "busybox",
    "ca-bundle",
    "dnsmasq",
    "dropbear",
    "e2fsprogs",
    "ethtool",
    "firewall4",
    "fstools",
    "kmod-gpio-button-hotplug",
    "kmod-nft-offload",
    "libc",
    "libgcc",
    "libustream-wolfssl",
    "logd",
    "mkf2fs",
    "mtd",
    "netifd",
    "nftables",
    "odhcp6c",
    "odhcpd-ipv6only",
    "opkg",
    "partx-utils",
    "ppp",
    "ppp-mod-pppoe",
    "procd",
    "procd-seccomp",
    "procd-ujail",
    "uboot-envtools",
    "uci",
    "uclient-fetch",
    "urandom-seed",
    "urngd"
  ],
  "device_packages": [],
  "image_path": "releases/22.03.5/targets/mvebu/cortexa53/",
  "image_prefix": "openwrt-22.03.5-mvebu-cortexa53-globalscale_espressobin-v7",
  "images": [
    {
      "filesystem": "squashfs",
      "name": "openwrt-22.03.5-mvebu-cortexa53-globalscale_espressobin-v7-squashfs-sdcard.img.gz",
      "sha256": "4787847354c87aa01f86c1f8322fef86e9a3b8f9746177361fa1d59e248bfc06",
      "sha256_unsigned": "273d6bad44f422d06939c708a901143e53b4912c3ea828431b1e62835a82ada1",
      "type": "sdcard"
    },
    {
      "filesystem": "initramfs",
      "name": "openwrt-22.03.5-mvebu-cortexa53-globalscale_espressobin-v7-initramfs-kernel.bin",
      "sha256": "4001d5b0b57cae19897e1302c35f088f51b2ccf9722942526a15216e4adba5eb",
      "sha256_unsigned": "4001d5b0b57cae19897e1302c35f088f51b2ccf9722942526a15216e4adba5eb",
      "type": "kernel"
    },
    {
      "filesystem": "ext4",
      "name": "openwrt-22.03.5-mvebu-cortexa53-globalscale_espressobin-v7-ext4-sdcard.img.gz",
      "sha256": "2fe381b0043f1e8549ff6c120807a4265ecb205841a4ef472a51e6a6fca7422b",
      "sha256_unsigned": "c804eed858d0f13c8cc56573dd354035cc11b1a710fd749827db9b93cf6773ad",
      "type": "sdcard"
    }
  ],
  "metadata_version": 1,
  "model_id": "globalscale_espressobin-v7",
  "source_date_epoch": 1682627295,
  "supported_devices": [
    "globalscale,espressobin-v7"
  ],
  "target": "mvebu/cortexa53",
  "titles": [
    {
      "model": "ESPRESSObin",
      "variant": "V7 Non-eMMC",
      "vendor": "Marvell"
    },
    {
      "model": "Armada 3700 Community Board",
      "variant": "V7 Non-eMMC",
      "vendor": "Marvell"
    }
  ],
  "version_code": "r20134-5f15225c1e",
  "version_number": "22.03.5"
}