{
  "arch_packages": "mips_mips32",
  "build_at": "2023-09-22 06:59:57",
  "default_packages": [
    "base-files",
    "busybox",
    "ca-bundle",
    "dnsmasq",
    "dropbear",
    "firewall4",
    "fstools",
    "kmod-gpio-button-hotplug",
    "kmod-nft-offload",
    "libc",
    "libgcc",
    "libustream-wolfssl",
    "logd",
    "mtd",
    "netifd",
    "nftables",
    "odhcp6c",
    "odhcpd-ipv6only",
    "opkg",
    "ppp",
    "ppp-mod-pppoe",
    "procd",
    "procd-seccomp",
    "procd-ujail",
    "swconfig",
    "uci",
    "uclient-fetch",
    "urandom-seed",
    "urngd"
  ],
  "device_packages": [
    "kmod-b43",
    "wpad-basic-wolfssl",
    "kmod-usb2",
    "kmod-usb-ohci",
    "kmod-usb-ledtrig-usbport",
    "iwinfo"
  ],
  "image_path": "releases/22.03.5/targets/bcm63xx/generic/",
  "image_prefix": "openwrt-22.03.5-bcm63xx-generic-comtrend_wap-5813n",
  "images": [
    {
      "filesystem": "squashfs",
      "name": "openwrt-22.03.5-bcm63xx-generic-comtrend_wap-5813n-squashfs-cfe.bin",
      "sha256": "3ccd222ea5d170f57a1977bd61d3a25bad55d05ad598e66842e9bb04a230d405",
      "sha256_unsigned": "3ccd222ea5d170f57a1977bd61d3a25bad55d05ad598e66842e9bb04a230d405",
      "type": "cfe"
    }
  ],
  "metadata_version": 1,
  "model_id": "comtrend_wap-5813n",
  "source_date_epoch": 1682627295,
  "supported_devices": [
    "comtrend,wap-5813n"
  ],
  "target": "bcm63xx/generic",
  "titles": [
    {
      "model": "WAP-5813n",
      "vendor": "Comtrend"
    }
  ],
  "version_code": "r20134-5f15225c1e",
  "version_number": "22.03.5"
}