{
  "arch_packages": "mips_mips32",
  "build_at": "2023-09-22 06:59:57",
  "default_packages": [
    "base-files",
    "busybox",
    "ca-bundle",
    "dnsmasq",
    "dropbear",
    "firewall4",
    "fstools",
    "kmod-gpio-button-hotplug",
    "kmod-nft-offload",
    "libc",
    "libgcc",
    "libustream-wolfssl",
    "logd",
    "mtd",
    "netifd",
    "nftables",
    "odhcp6c",
    "odhcpd-ipv6only",
    "opkg",
    "ppp",
    "ppp-mod-pppoe",
    "procd",
    "procd-seccomp",
    "procd-ujail",
    "swconfig",
    "uci",
    "uclient-fetch",
    "urandom-seed",
    "urngd"
  ],
  "device_packages": [
    "kmod-b43",
    "wpad-basic-wolfssl",
    "kmod-usb2",
    "kmod-usb-ohci",
    "kmod-usb-ledtrig-usbport",
    "iwinfo"
  ],
  "image_path": "releases/22.03.5/targets/bcm63xx/generic/",
  "image_prefix": "openwrt-22.03.5-bcm63xx-generic-d-link_dsl-275xb-d1",
  "images": [
    {
      "filesystem": "squashfs",
      "name": "openwrt-22.03.5-bcm63xx-generic-d-link_dsl-275xb-d1-squashfs-cfe.bin",
      "sha256": "432f693852497ebe78f4b0ddb8fd70d255d141f127ee6c3660bcdb74f4fb25cd",
      "sha256_unsigned": "432f693852497ebe78f4b0ddb8fd70d255d141f127ee6c3660bcdb74f4fb25cd",
      "type": "cfe"
    }
  ],
  "metadata_version": 1,
  "model_id": "d-link_dsl-275xb-d1",
  "source_date_epoch": 1682627295,
  "supported_devices": [
    "d-link,dsl-275xb-d1"
  ],
  "target": "bcm63xx/generic",
  "titles": [
    {
      "model": "DSL-2750B",
      "variant": "D1",
      "vendor": "D-Link"
    },
    {
      "model": "DSL-2751",
      "variant": "D1",
      "vendor": "D-Link"
    }
  ],
  "version_code": "r20134-5f15225c1e",
  "version_number": "22.03.5"
}