{
  "arch_packages": "arm_fa526",
  "build_at": "2023-09-22 06:59:57",
  "default_packages": [
    "base-files",
    "busybox",
    "ca-bundle",
    "dnsmasq",
    "dropbear",
    "firewall4",
    "fstools",
    "kmod-gpio-button-hotplug",
    "kmod-leds-gpio",
    "kmod-nft-offload",
    "kmod-usb-fotg210",
    "kmod-usb-ledtrig-usbport",
    "libc",
    "libgcc",
    "libustream-wolfssl",
    "logd",
    "mtd",
    "netifd",
    "nftables",
    "odhcp6c",
    "odhcpd-ipv6only",
    "opkg",
    "ppp",
    "ppp-mod-pppoe",
    "procd",
    "procd-seccomp",
    "procd-ujail",
    "uci",
    "uclient-fetch",
    "urandom-seed",
    "urngd"
  ],
  "device_packages": [
    "block-mount",
    "fdisk",
    "lsblk",
    "mdadm",
    "kmod-md-mod",
    "kmod-md-linear",
    "kmod-md-multipath",
    "kmod-md-raid0",
    "kmod-md-raid1",
    "kmod-md-raid10",
    "kmod-md-raid456",
    "kmod-fs-btrfs",
    "kmod-fs-cifs",
    "kmod-fs-nfs",
    "kmod-fs-nfsd",
    "kmod-fs-ntfs",
    "kmod-fs-reiserfs",
    "kmod-fs-vfat",
    "kmod-nls-utf8",
    "kmod-usb-storage-extras",
    "kmod-hwmon-drivetemp",
    "cfdisk",
    "e2fsprogs",
    "badblocks",
    "partx-utils"
  ],
  "image_path": "releases/22.03.5/targets/gemini/generic/",
  "image_prefix": "openwrt-22.03.5-gemini-storlink_sl93512r",
  "images": [
    {
      "filesystem": "squashfs",
      "name": "openwrt-22.03.5-gemini-storlink_sl93512r-squashfs-factory.bin",
      "sha256": "ab3c29a351f342a1b6792de1b8f050fbf1487e1b68d6037dda752eeb2bd1fa85",
      "sha256_unsigned": "ab3c29a351f342a1b6792de1b8f050fbf1487e1b68d6037dda752eeb2bd1fa85",
      "type": "factory"
    }
  ],
  "metadata_version": 1,
  "model_id": "storlink_sl93512r",
  "source_date_epoch": 1682627295,
  "supported_devices": [
    "storlink,sl93512r"
  ],
  "target": "gemini/generic",
  "titles": [
    {
      "model": "SL93512r",
      "vendor": "StorLink"
    }
  ],
  "version_code": "r20134-5f15225c1e",
  "version_number": "22.03.5"
}