{
  "arch_packages": "mips_24kc",
  "build_at": "2023-09-22 06:59:57",
  "default_packages": [
    "base-files",
    "busybox",
    "ca-bundle",
    "dnsmasq",
    "dropbear",
    "firewall4",
    "fstools",
    "kmod-ath9k",
    "kmod-gpio-button-hotplug",
    "kmod-nft-offload",
    "libc",
    "libgcc",
    "libustream-wolfssl",
    "logd",
    "mtd",
    "netifd",
    "nftables",
    "odhcp6c",
    "odhcpd-ipv6only",
    "opkg",
    "ppp",
    "ppp-mod-pppoe",
    "procd",
    "procd-seccomp",
    "procd-ujail",
    "swconfig",
    "uboot-envtools",
    "uci",
    "uclient-fetch",
    "urandom-seed",
    "urngd",
    "wpad-basic-wolfssl"
  ],
  "device_packages": [
    "kmod-i2c-gpio",
    "kmod-gpio-pcf857x",
    "kmod-usb2",
    "kmod-usb-ledtrig-usbport",
    "rssileds"
  ],
  "image_path": "releases/22.03.5/targets/ath79/generic/",
  "image_prefix": "openwrt-22.03.5-ath79-generic-alfa-network_n2q",
  "images": [
    {
      "filesystem": "initramfs",
      "name": "openwrt-22.03.5-ath79-generic-alfa-network_n2q-initramfs-kernel.bin",
      "sha256": "debfd32c15761768caa20eb6fad17aa2b9358459617e9bb27920c1685c76229c",
      "sha256_unsigned": "debfd32c15761768caa20eb6fad17aa2b9358459617e9bb27920c1685c76229c",
      "type": "kernel"
    },
    {
      "filesystem": "squashfs",
      "name": "openwrt-22.03.5-ath79-generic-alfa-network_n2q-squashfs-sysupgrade.bin",
      "sha256": "d6d4e6a7c6d5d0d1f196c45043e3884f04c2266544af937cd31732b3757cff14",
      "sha256_unsigned": "e7b45c5c727fe455939cf1e3ba5333baf67e84416d9e623f221a66fc3ab72d67",
      "type": "sysupgrade"
    }
  ],
  "metadata_version": 1,
  "model_id": "alfa-network_n2q",
  "source_date_epoch": 1682627295,
  "supported_devices": [
    "alfa-network,n2q"
  ],
  "target": "ath79/generic",
  "titles": [
    {
      "model": "N2Q",
      "vendor": "ALFA Network"
    }
  ],
  "version_code": "r20134-5f15225c1e",
  "version_number": "22.03.5"
}