{
  "arch_packages": "mips_24kc",
  "build_at": "2023-09-22 06:59:57",
  "default_packages": [
    "base-files",
    "busybox",
    "ca-bundle",
    "dnsmasq",
    "dropbear",
    "firewall4",
    "fstools",
    "kmod-ath9k",
    "kmod-gpio-button-hotplug",
    "kmod-nft-offload",
    "libc",
    "libgcc",
    "libustream-wolfssl",
    "logd",
    "mtd",
    "netifd",
    "nftables",
    "odhcp6c",
    "odhcpd-ipv6only",
    "opkg",
    "ppp",
    "ppp-mod-pppoe",
    "procd",
    "procd-seccomp",
    "procd-ujail",
    "swconfig",
    "uboot-envtools",
    "uci",
    "uclient-fetch",
    "urandom-seed",
    "urngd",
    "wpad-basic-wolfssl"
  ],
  "device_packages": [
    "fritz-tffs"
  ],
  "image_path": "releases/22.03.5/targets/ath79/generic/",
  "image_prefix": "openwrt-22.03.5-ath79-generic-avm_fritz4020",
  "images": [
    {
      "filesystem": "squashfs",
      "name": "openwrt-22.03.5-ath79-generic-avm_fritz4020-squashfs-sysupgrade.bin",
      "sha256": "9477983fcb55ee409113093a1f76c2ad1ba279d9ed55d00043b958bf44ded4f8",
      "sha256_unsigned": "fad36851c067c433aca936bb78c2f7eebcc425e9ef3da06f96e209174d709eb1",
      "type": "sysupgrade"
    },
    {
      "filesystem": "initramfs",
      "name": "openwrt-22.03.5-ath79-generic-avm_fritz4020-initramfs-kernel.bin",
      "sha256": "89e91686b719656556a41c7a16392bdd126b1a6a24998870cf0d704346ed71f9",
      "sha256_unsigned": "89e91686b719656556a41c7a16392bdd126b1a6a24998870cf0d704346ed71f9",
      "type": "kernel"
    }
  ],
  "metadata_version": 1,
  "model_id": "avm_fritz4020",
  "source_date_epoch": 1682627295,
  "supported_devices": [
    "avm,fritz4020",
    "fritz4020"
  ],
  "target": "ath79/generic",
  "titles": [
    {
      "model": "FRITZ!Box 4020",
      "vendor": "AVM"
    }
  ],
  "version_code": "r20134-5f15225c1e",
  "version_number": "22.03.5"
}