{
  "arch_packages": "mips_24kc",
  "build_at": "2023-09-22 06:59:57",
  "default_packages": [
    "base-files",
    "busybox",
    "ca-bundle",
    "dnsmasq",
    "dropbear",
    "firewall4",
    "fstools",
    "kmod-ath9k",
    "kmod-gpio-button-hotplug",
    "kmod-nft-offload",
    "libc",
    "libgcc",
    "libustream-wolfssl",
    "logd",
    "mtd",
    "netifd",
    "nftables",
    "odhcp6c",
    "odhcpd-ipv6only",
    "opkg",
    "ppp",
    "ppp-mod-pppoe",
    "procd",
    "procd-seccomp",
    "procd-ujail",
    "swconfig",
    "uboot-envtools",
    "uci",
    "uclient-fetch",
    "urandom-seed",
    "urngd",
    "wpad-basic-wolfssl"
  ],
  "device_packages": [
    "kmod-gpio-cascade",
    "kmod-mux-gpio",
    "kmod-usb2",
    "kmod-usb-ledtrig-usbport"
  ],
  "image_path": "releases/22.03.5/targets/ath79/generic/",
  "image_prefix": "openwrt-22.03.5-ath79-generic-buffalo_wzr-hp-g300nh-rb",
  "images": [
    {
      "filesystem": "squashfs",
      "name": "openwrt-22.03.5-ath79-generic-buffalo_wzr-hp-g300nh-rb-squashfs-factory.bin",
      "sha256": "2ca136f15681974ce23f91461937edd360450f1f955d1a03890681dbbd6d8902",
      "sha256_unsigned": "2ca136f15681974ce23f91461937edd360450f1f955d1a03890681dbbd6d8902",
      "type": "factory"
    },
    {
      "filesystem": "squashfs",
      "name": "openwrt-22.03.5-ath79-generic-buffalo_wzr-hp-g300nh-rb-squashfs-sysupgrade.bin",
      "sha256": "719492b6f741ffbd2ecaf8f4ff926d99409458d347e8860a02e80e5a9b014739",
      "sha256_unsigned": "49467e1e71a021b1e70369a374a5f30e819ae1cf0b2e48930083882846716029",
      "type": "sysupgrade"
    },
    {
      "filesystem": "squashfs",
      "name": "openwrt-22.03.5-ath79-generic-buffalo_wzr-hp-g300nh-rb-squashfs-tftp.bin",
      "sha256": "a4bb68984bd0e7a4b75c41d00948b381aef38b9c6ea563a6f8968a20a370e1fc",
      "sha256_unsigned": "a4bb68984bd0e7a4b75c41d00948b381aef38b9c6ea563a6f8968a20a370e1fc",
      "type": "tftp"
    },
    {
      "filesystem": "initramfs",
      "name": "openwrt-22.03.5-ath79-generic-buffalo_wzr-hp-g300nh-rb-initramfs-kernel.bin",
      "sha256": "030850177e9545f207ef2f13d7015009527e277ae3aaf3a9e16122ac9aa59148",
      "sha256_unsigned": "030850177e9545f207ef2f13d7015009527e277ae3aaf3a9e16122ac9aa59148",
      "type": "kernel"
    }
  ],
  "metadata_version": 1,
  "model_id": "buffalo_wzr-hp-g300nh-rb",
  "source_date_epoch": 1682627295,
  "supported_devices": [
    "buffalo,wzr-hp-g300nh-rb",
    "wzr-hp-g300nh"
  ],
  "target": "ath79/generic",
  "titles": [
    {
      "model": "WZR-HP-G300NH (RTL8366RB switch)",
      "vendor": "Buffalo"
    }
  ],
  "version_code": "r20134-5f15225c1e",
  "version_number": "22.03.5"
}