{
  "arch_packages": "mips_24kc",
  "build_at": "2023-09-22 06:59:57",
  "default_packages": [
    "base-files",
    "busybox",
    "ca-bundle",
    "dnsmasq",
    "dropbear",
    "firewall4",
    "fstools",
    "kmod-ath9k",
    "kmod-gpio-button-hotplug",
    "kmod-nft-offload",
    "libc",
    "libgcc",
    "libustream-wolfssl",
    "logd",
    "mtd",
    "netifd",
    "nftables",
    "odhcp6c",
    "odhcpd-ipv6only",
    "opkg",
    "ppp",
    "ppp-mod-pppoe",
    "procd",
    "procd-seccomp",
    "procd-ujail",
    "swconfig",
    "uboot-envtools",
    "uci",
    "uclient-fetch",
    "urandom-seed",
    "urngd",
    "wpad-basic-wolfssl"
  ],
  "device_packages": [
    "kmod-usb2",
    "kmod-usb-ledtrig-usbport"
  ],
  "image_path": "releases/22.03.5/targets/ath79/generic/",
  "image_prefix": "openwrt-22.03.5-ath79-generic-buffalo_wzr-hp-g450h",
  "images": [
    {
      "filesystem": "squashfs",
      "name": "openwrt-22.03.5-ath79-generic-buffalo_wzr-hp-g450h-squashfs-tftp.bin",
      "sha256": "4f881d1651eeeda65399290dd1bb5791e662f529e1022354d7ce9d7d91ea10e2",
      "sha256_unsigned": "4f881d1651eeeda65399290dd1bb5791e662f529e1022354d7ce9d7d91ea10e2",
      "type": "tftp"
    },
    {
      "filesystem": "squashfs",
      "name": "openwrt-22.03.5-ath79-generic-buffalo_wzr-hp-g450h-squashfs-sysupgrade.bin",
      "sha256": "f6dde283036b704fed6ecc75025b362626c34f97a8648497ec981990eae884b8",
      "sha256_unsigned": "95b42abe967859292f5dddb7844e3b8d2fe7fa6a584e1fa4a30088b90cd0da61",
      "type": "sysupgrade"
    },
    {
      "filesystem": "initramfs",
      "name": "openwrt-22.03.5-ath79-generic-buffalo_wzr-hp-g450h-initramfs-kernel.bin",
      "sha256": "d893b0d7a31b4623d287e71362939210f78b2924c61b65dc2610f823fc31aa27",
      "sha256_unsigned": "d893b0d7a31b4623d287e71362939210f78b2924c61b65dc2610f823fc31aa27",
      "type": "kernel"
    },
    {
      "filesystem": "squashfs",
      "name": "openwrt-22.03.5-ath79-generic-buffalo_wzr-hp-g450h-squashfs-factory.bin",
      "sha256": "e373eceabd8045200e0e1977abed1be429cad1cc8938255e3adbe571e48b02b1",
      "sha256_unsigned": "e373eceabd8045200e0e1977abed1be429cad1cc8938255e3adbe571e48b02b1",
      "type": "factory"
    }
  ],
  "metadata_version": 1,
  "model_id": "buffalo_wzr-hp-g450h",
  "source_date_epoch": 1682627295,
  "supported_devices": [
    "buffalo,wzr-hp-g450h",
    "wzr-hp-g450h"
  ],
  "target": "ath79/generic",
  "titles": [
    {
      "model": "WZR-HP-G450H/WZR-450HP",
      "vendor": "Buffalo"
    }
  ],
  "version_code": "r20134-5f15225c1e",
  "version_number": "22.03.5"
}