{
  "arch_packages": "mips_24kc",
  "build_at": "2023-09-22 06:59:57",
  "default_packages": [
    "base-files",
    "busybox",
    "ca-bundle",
    "dnsmasq",
    "dropbear",
    "firewall4",
    "fstools",
    "kmod-ath9k",
    "kmod-gpio-button-hotplug",
    "kmod-nft-offload",
    "libc",
    "libgcc",
    "libustream-wolfssl",
    "logd",
    "mtd",
    "netifd",
    "nftables",
    "odhcp6c",
    "odhcpd-ipv6only",
    "opkg",
    "ppp",
    "ppp-mod-pppoe",
    "procd",
    "procd-seccomp",
    "procd-ujail",
    "swconfig",
    "uboot-envtools",
    "uci",
    "uclient-fetch",
    "urandom-seed",
    "urngd",
    "wpad-basic-wolfssl"
  ],
  "device_packages": [
    "kmod-usb2",
    "kmod-usb3"
  ],
  "image_path": "releases/22.03.5/targets/ath79/generic/",
  "image_prefix": "openwrt-22.03.5-ath79-generic-compex_wpj563",
  "images": [
    {
      "filesystem": "squashfs",
      "name": "openwrt-22.03.5-ath79-generic-compex_wpj563-squashfs-cpximg-7a02.bin",
      "sha256": "01ec21b48850ebeef10e33fbfc603ce98c50e5bcf425ad2c5b80dd2e9250976c",
      "sha256_unsigned": "01ec21b48850ebeef10e33fbfc603ce98c50e5bcf425ad2c5b80dd2e9250976c",
      "type": "cpximg-7a02"
    },
    {
      "filesystem": "initramfs",
      "name": "openwrt-22.03.5-ath79-generic-compex_wpj563-initramfs-kernel.bin",
      "sha256": "cf605f000ab5daa6b538fae5c4f2a7350ce348a1f86220cfd6d3002768497068",
      "sha256_unsigned": "cf605f000ab5daa6b538fae5c4f2a7350ce348a1f86220cfd6d3002768497068",
      "type": "kernel"
    },
    {
      "filesystem": "squashfs",
      "name": "openwrt-22.03.5-ath79-generic-compex_wpj563-squashfs-sysupgrade.bin",
      "sha256": "3142c67314ae815e2d06d365c5d8f68cd8d729865508aaf858e85cba02d585ff",
      "sha256_unsigned": "a93b4fc0f4e9e41f65337a9b19390cf9dee000228f6524f1b5d3f2e0110d20c2",
      "type": "sysupgrade"
    }
  ],
  "metadata_version": 1,
  "model_id": "compex_wpj563",
  "source_date_epoch": 1682627295,
  "supported_devices": [
    "compex,wpj563",
    "wpj563"
  ],
  "target": "ath79/generic",
  "titles": [
    {
      "model": "WPJ563",
      "vendor": "Compex"
    }
  ],
  "version_code": "r20134-5f15225c1e",
  "version_number": "22.03.5"
}