{
  "arch_packages": "mips_24kc",
  "build_at": "2023-09-22 06:59:57",
  "default_packages": [
    "base-files",
    "busybox",
    "ca-bundle",
    "dnsmasq",
    "dropbear",
    "firewall4",
    "fstools",
    "kmod-ath9k",
    "kmod-gpio-button-hotplug",
    "kmod-nft-offload",
    "libc",
    "libgcc",
    "libustream-wolfssl",
    "logd",
    "mtd",
    "netifd",
    "nftables",
    "odhcp6c",
    "odhcpd-ipv6only",
    "opkg",
    "ppp",
    "ppp-mod-pppoe",
    "procd",
    "procd-seccomp",
    "procd-ujail",
    "swconfig",
    "uboot-envtools",
    "uci",
    "uclient-fetch",
    "urandom-seed",
    "urngd",
    "wpad-basic-wolfssl"
  ],
  "device_packages": [
    "kmod-usb-chipidea2"
  ],
  "image_path": "releases/22.03.5/targets/ath79/generic/",
  "image_prefix": "openwrt-22.03.5-ath79-generic-glinet_gl-ar150",
  "images": [
    {
      "filesystem": "initramfs",
      "name": "openwrt-22.03.5-ath79-generic-glinet_gl-ar150-initramfs-kernel.bin",
      "sha256": "e5232ff79b2ac040b9489367863b2e2fc3e3f6c1bef0bc479673c80eea1fed24",
      "sha256_unsigned": "e5232ff79b2ac040b9489367863b2e2fc3e3f6c1bef0bc479673c80eea1fed24",
      "type": "kernel"
    },
    {
      "filesystem": "squashfs",
      "name": "openwrt-22.03.5-ath79-generic-glinet_gl-ar150-squashfs-sysupgrade.bin",
      "sha256": "af9f4c377ad22b9387cd34d4b1a38eb960dafd0f461bdff3b4f19dba6eba671d",
      "sha256_unsigned": "348d7a453a4fa1b5abd2035d5418556c3b85fbc9db05be71dfd1988431852f52",
      "type": "sysupgrade"
    }
  ],
  "metadata_version": 1,
  "model_id": "glinet_gl-ar150",
  "source_date_epoch": 1682627295,
  "supported_devices": [
    "glinet,gl-ar150",
    "gl-ar150"
  ],
  "target": "ath79/generic",
  "titles": [
    {
      "model": "GL-AR150",
      "vendor": "GL.iNet"
    }
  ],
  "version_code": "r20134-5f15225c1e",
  "version_number": "22.03.5"
}