{
  "arch_packages": "mips_24kc",
  "build_at": "2023-09-22 06:59:57",
  "default_packages": [
    "base-files",
    "busybox",
    "ca-bundle",
    "dnsmasq",
    "dropbear",
    "firewall4",
    "fstools",
    "kmod-ath9k",
    "kmod-gpio-button-hotplug",
    "kmod-nft-offload",
    "libc",
    "libgcc",
    "libustream-wolfssl",
    "logd",
    "mtd",
    "netifd",
    "nftables",
    "odhcp6c",
    "odhcpd-ipv6only",
    "opkg",
    "ppp",
    "ppp-mod-pppoe",
    "procd",
    "procd-seccomp",
    "procd-ujail",
    "swconfig",
    "uboot-envtools",
    "uci",
    "uclient-fetch",
    "urandom-seed",
    "urngd",
    "wpad-basic-wolfssl"
  ],
  "device_packages": [
    "kmod-usb2"
  ],
  "image_path": "releases/22.03.5/targets/ath79/generic/",
  "image_prefix": "openwrt-22.03.5-ath79-generic-qca_ap143-16m",
  "images": [
    {
      "filesystem": "squashfs",
      "name": "openwrt-22.03.5-ath79-generic-qca_ap143-16m-squashfs-factory.bin",
      "sha256": "84906cbd313d1f50d0cc7ef7b31f44cb6e482c2e276e9a8816471dca48e7d46f",
      "sha256_unsigned": "84906cbd313d1f50d0cc7ef7b31f44cb6e482c2e276e9a8816471dca48e7d46f",
      "type": "factory"
    },
    {
      "filesystem": "squashfs",
      "name": "openwrt-22.03.5-ath79-generic-qca_ap143-16m-squashfs-sysupgrade.bin",
      "sha256": "393ae9514a4325331db4f6da89c31c7541698a0c18ae1de2e205348cf9b2fd54",
      "sha256_unsigned": "a9256c4b1c92170b38ce36c82c10de2c5668fdec3d71f53ab7a2fa683b88c53a",
      "type": "sysupgrade"
    },
    {
      "filesystem": "initramfs",
      "name": "openwrt-22.03.5-ath79-generic-qca_ap143-16m-initramfs-kernel.bin",
      "sha256": "6a2d3b1de9d14a8ae91f5c299cdb7abce06d1808f14edd52a557b3e0b3ac764a",
      "sha256_unsigned": "6a2d3b1de9d14a8ae91f5c299cdb7abce06d1808f14edd52a557b3e0b3ac764a",
      "type": "kernel"
    }
  ],
  "metadata_version": 1,
  "model_id": "qca_ap143-16m",
  "source_date_epoch": 1682627295,
  "supported_devices": [
    "qca,ap143-16m",
    "ap143"
  ],
  "target": "ath79/generic",
  "titles": [
    {
      "model": "AP143",
      "variant": "(16M)",
      "vendor": "Qualcomm Atheros"
    }
  ],
  "version_code": "r20134-5f15225c1e",
  "version_number": "22.03.5"
}