{
  "arch_packages": "mips_24kc",
  "build_at": "2023-09-22 06:59:57",
  "default_packages": [
    "base-files",
    "busybox",
    "ca-bundle",
    "dnsmasq",
    "dropbear",
    "firewall4",
    "fstools",
    "kmod-ath9k",
    "kmod-gpio-button-hotplug",
    "kmod-nft-offload",
    "libc",
    "libgcc",
    "libustream-wolfssl",
    "logd",
    "mtd",
    "netifd",
    "nftables",
    "odhcp6c",
    "odhcpd-ipv6only",
    "opkg",
    "ppp",
    "ppp-mod-pppoe",
    "procd",
    "procd-seccomp",
    "procd-ujail",
    "swconfig",
    "uboot-envtools",
    "uci",
    "uclient-fetch",
    "urandom-seed",
    "urngd",
    "wpad-basic-wolfssl"
  ],
  "device_packages": [
    "kmod-usb2"
  ],
  "image_path": "releases/22.03.5/targets/ath79/generic/",
  "image_prefix": "openwrt-22.03.5-ath79-generic-qxwlan_e750g-v8-16m",
  "images": [
    {
      "filesystem": "initramfs",
      "name": "openwrt-22.03.5-ath79-generic-qxwlan_e750g-v8-16m-initramfs-kernel.bin",
      "sha256": "d0d74b584d9a0db537af6ed522db6eb14bfb1a1ee86980b8c6d24c655b63225b",
      "sha256_unsigned": "d0d74b584d9a0db537af6ed522db6eb14bfb1a1ee86980b8c6d24c655b63225b",
      "type": "kernel"
    },
    {
      "filesystem": "squashfs",
      "name": "openwrt-22.03.5-ath79-generic-qxwlan_e750g-v8-16m-squashfs-sysupgrade.bin",
      "sha256": "67ff7374b8303d92c1302074fbc618c4f2af7984e858c67dcf393a1044767f2d",
      "sha256_unsigned": "2bbe3fa49b29040bd51204d26afbe4ddcfdc03b5d44f9e44f275e6a476abb65b",
      "type": "sysupgrade"
    }
  ],
  "metadata_version": 1,
  "model_id": "qxwlan_e750g-v8-16m",
  "source_date_epoch": 1682627295,
  "supported_devices": [
    "qxwlan,e750g-v8-16m",
    "e750g-v8"
  ],
  "target": "ath79/generic",
  "titles": [
    {
      "model": "E750G",
      "variant": "v8 (16M)",
      "vendor": "Qxwlan"
    }
  ],
  "version_code": "r20134-5f15225c1e",
  "version_number": "22.03.5"
}