{
  "arch_packages": "mips_24kc",
  "build_at": "2023-09-22 06:59:57",
  "default_packages": [
    "base-files",
    "busybox",
    "ca-bundle",
    "dnsmasq",
    "dropbear",
    "firewall4",
    "fstools",
    "kmod-ath9k",
    "kmod-gpio-button-hotplug",
    "kmod-nft-offload",
    "libc",
    "libgcc",
    "libustream-wolfssl",
    "logd",
    "mtd",
    "netifd",
    "nftables",
    "odhcp6c",
    "odhcpd-ipv6only",
    "opkg",
    "ppp",
    "ppp-mod-pppoe",
    "procd",
    "procd-seccomp",
    "procd-ujail",
    "swconfig",
    "uboot-envtools",
    "uci",
    "uclient-fetch",
    "urandom-seed",
    "urngd",
    "wpad-basic-wolfssl"
  ],
  "device_packages": [
    "kmod-usb2",
    "kmod-ath10k-ct",
    "ath10k-firmware-qca988x-ct"
  ],
  "image_path": "releases/22.03.5/targets/ath79/generic/",
  "image_prefix": "openwrt-22.03.5-ath79-generic-qxwlan_e1700ac-v2-16m",
  "images": [
    {
      "filesystem": "initramfs",
      "name": "openwrt-22.03.5-ath79-generic-qxwlan_e1700ac-v2-16m-initramfs-kernel.bin",
      "sha256": "63a8f0226d008b77cdb38f2b3e023bb46165969ea3d5cd4a55013ffd402e9a28",
      "sha256_unsigned": "63a8f0226d008b77cdb38f2b3e023bb46165969ea3d5cd4a55013ffd402e9a28",
      "type": "kernel"
    },
    {
      "filesystem": "squashfs",
      "name": "openwrt-22.03.5-ath79-generic-qxwlan_e1700ac-v2-16m-squashfs-sysupgrade.bin",
      "sha256": "b01b9d19f2fd890c3f4a48689ac5d6541b117aa3472b1d7c12bc84ceb1df02d1",
      "sha256_unsigned": "64434899df6db3af0973209084b38c124bf7570e472840488667aafd29b0d01d",
      "type": "sysupgrade"
    }
  ],
  "metadata_version": 1,
  "model_id": "qxwlan_e1700ac-v2-16m",
  "source_date_epoch": 1682627295,
  "supported_devices": [
    "qxwlan,e1700ac-v2-16m",
    "e1700ac-v2"
  ],
  "target": "ath79/generic",
  "titles": [
    {
      "model": "E1700AC",
      "variant": "v2 (16M)",
      "vendor": "Qxwlan"
    }
  ],
  "version_code": "r20134-5f15225c1e",
  "version_number": "22.03.5"
}