{
  "arch_packages": "mips_24kc",
  "build_at": "2023-09-22 06:59:57",
  "default_packages": [
    "base-files",
    "busybox",
    "ca-bundle",
    "dnsmasq",
    "dropbear",
    "firewall4",
    "fstools",
    "kmod-ath9k",
    "kmod-gpio-button-hotplug",
    "kmod-nft-offload",
    "libc",
    "libgcc",
    "libustream-wolfssl",
    "logd",
    "mtd",
    "netifd",
    "nftables",
    "odhcp6c",
    "odhcpd-ipv6only",
    "opkg",
    "ppp",
    "ppp-mod-pppoe",
    "procd",
    "procd-seccomp",
    "procd-ujail",
    "swconfig",
    "uboot-envtools",
    "uci",
    "uclient-fetch",
    "urandom-seed",
    "urngd",
    "wpad-basic-wolfssl"
  ],
  "device_packages": [
    "kmod-usb2",
    "kmod-usb-ledtrig-usbport"
  ],
  "image_path": "releases/22.03.5/targets/ath79/generic/",
  "image_prefix": "openwrt-22.03.5-ath79-generic-tplink_tl-wr1043nd-v4",
  "images": [
    {
      "filesystem": "initramfs",
      "name": "openwrt-22.03.5-ath79-generic-tplink_tl-wr1043nd-v4-initramfs-kernel.bin",
      "sha256": "e7c8fe4fea0be2313ed0757d8a9eef87b6e77e73e87abe1ad152d1286c35e7c7",
      "sha256_unsigned": "e7c8fe4fea0be2313ed0757d8a9eef87b6e77e73e87abe1ad152d1286c35e7c7",
      "type": "kernel"
    },
    {
      "filesystem": "squashfs",
      "name": "openwrt-22.03.5-ath79-generic-tplink_tl-wr1043nd-v4-squashfs-sysupgrade.bin",
      "sha256": "8f53da6d04c2846d6e9af8ea45427d958d922246623a28f0a09d66e00f3ccc1b",
      "sha256_unsigned": "19a06441a4c257dceaca9f359cdf4741d33af8729631e0831aa7ca0c05d9b269",
      "type": "sysupgrade"
    },
    {
      "filesystem": "squashfs",
      "name": "openwrt-22.03.5-ath79-generic-tplink_tl-wr1043nd-v4-squashfs-factory.bin",
      "sha256": "1903a7bb28401c094e2e694e8453fb7ff72c2c3ae8f0585330ac5aae07777ca3",
      "sha256_unsigned": "1903a7bb28401c094e2e694e8453fb7ff72c2c3ae8f0585330ac5aae07777ca3",
      "type": "factory"
    }
  ],
  "metadata_version": 1,
  "model_id": "tplink_tl-wr1043nd-v4",
  "source_date_epoch": 1682627295,
  "supported_devices": [
    "tplink,tl-wr1043nd-v4",
    "tl-wr1043nd-v4"
  ],
  "target": "ath79/generic",
  "titles": [
    {
      "model": "TL-WR1043N/ND",
      "variant": "v4",
      "vendor": "TP-Link"
    }
  ],
  "version_code": "r20134-5f15225c1e",
  "version_number": "22.03.5"
}