{
  "arch_packages": "mips_24kc",
  "build_at": "2023-09-22 06:59:57",
  "default_packages": [
    "base-files",
    "busybox",
    "ca-bundle",
    "dnsmasq",
    "dropbear",
    "firewall4",
    "fstools",
    "kmod-ath9k",
    "kmod-gpio-button-hotplug",
    "kmod-nft-offload",
    "libc",
    "libgcc",
    "libustream-wolfssl",
    "logd",
    "mtd",
    "netifd",
    "nftables",
    "odhcp6c",
    "odhcpd-ipv6only",
    "opkg",
    "ppp",
    "ppp-mod-pppoe",
    "procd",
    "procd-seccomp",
    "procd-ujail",
    "swconfig",
    "uboot-envtools",
    "uci",
    "uclient-fetch",
    "urandom-seed",
    "urngd",
    "wpad-basic-wolfssl"
  ],
  "device_packages": [
    "kmod-usb2",
    "kmod-usb-ledtrig-usbport",
    "kmod-ath10k-ct",
    "ath10k-firmware-qca9888-ct"
  ],
  "image_path": "releases/22.03.5/targets/ath79/generic/",
  "image_prefix": "openwrt-22.03.5-ath79-generic-tplink_archer-c59-v2",
  "images": [
    {
      "filesystem": "squashfs",
      "name": "openwrt-22.03.5-ath79-generic-tplink_archer-c59-v2-squashfs-factory.bin",
      "sha256": "c2649c2523e798181cc32b9ff37fbf453265e5082e6971d677ff65a0c27ba5f0",
      "sha256_unsigned": "c2649c2523e798181cc32b9ff37fbf453265e5082e6971d677ff65a0c27ba5f0",
      "type": "factory"
    },
    {
      "filesystem": "squashfs",
      "name": "openwrt-22.03.5-ath79-generic-tplink_archer-c59-v2-squashfs-sysupgrade.bin",
      "sha256": "1b1678db8724ddf94b7a76782c6f63d9182e1d18f776f2024a58578b385fa891",
      "sha256_unsigned": "fadb8321b87ea843a88c20bcc2fdc421baa4882d63694c010359e5013cdefe55",
      "type": "sysupgrade"
    },
    {
      "filesystem": "initramfs",
      "name": "openwrt-22.03.5-ath79-generic-tplink_archer-c59-v2-initramfs-kernel.bin",
      "sha256": "5bd32889de34b472ee4f94df9881c87760e013c4ec7f9e27d5ed6c32ef5795c1",
      "sha256_unsigned": "5bd32889de34b472ee4f94df9881c87760e013c4ec7f9e27d5ed6c32ef5795c1",
      "type": "kernel"
    }
  ],
  "metadata_version": 1,
  "model_id": "tplink_archer-c59-v2",
  "source_date_epoch": 1682627295,
  "supported_devices": [
    "tplink,archer-c59-v2",
    "archer-c59-v2"
  ],
  "target": "ath79/generic",
  "titles": [
    {
      "model": "Archer C59",
      "variant": "v2",
      "vendor": "TP-Link"
    }
  ],
  "version_code": "r20134-5f15225c1e",
  "version_number": "22.03.5"
}