{
  "arch_packages": "mips_24kc",
  "build_at": "2023-09-22 06:59:57",
  "default_packages": [
    "base-files",
    "busybox",
    "ca-bundle",
    "dnsmasq",
    "dropbear",
    "firewall4",
    "fstools",
    "kmod-ath9k",
    "kmod-gpio-button-hotplug",
    "kmod-nft-offload",
    "libc",
    "libgcc",
    "libustream-wolfssl",
    "logd",
    "mtd",
    "netifd",
    "nftables",
    "odhcp6c",
    "odhcpd-ipv6only",
    "opkg",
    "ppp",
    "ppp-mod-pppoe",
    "procd",
    "procd-seccomp",
    "procd-ujail",
    "swconfig",
    "uboot-envtools",
    "uci",
    "uclient-fetch",
    "urandom-seed",
    "urngd",
    "wpad-basic-wolfssl"
  ],
  "device_packages": [
    "kmod-usb2"
  ],
  "image_path": "releases/22.03.5/targets/ath79/generic/",
  "image_prefix": "openwrt-22.03.5-ath79-generic-ubnt_unifi",
  "images": [
    {
      "filesystem": "initramfs",
      "name": "openwrt-22.03.5-ath79-generic-ubnt_unifi-initramfs-kernel.bin",
      "sha256": "020173a395ba2cfbe806a6e80a1bf47de421d0bf545a7721867ae84103f75b74",
      "sha256_unsigned": "020173a395ba2cfbe806a6e80a1bf47de421d0bf545a7721867ae84103f75b74",
      "type": "kernel"
    },
    {
      "filesystem": "squashfs",
      "name": "openwrt-22.03.5-ath79-generic-ubnt_unifi-squashfs-sysupgrade.bin",
      "sha256": "95285619052fdd36aaf54787cdef04247ed658e4f013c98a0a0ef67877b47508",
      "sha256_unsigned": "bbdc5368236461e06e00292e5990aa1643a51e447bc10a39d9c4d0424950b55d",
      "type": "sysupgrade"
    },
    {
      "filesystem": "squashfs",
      "name": "openwrt-22.03.5-ath79-generic-ubnt_unifi-squashfs-factory.bin",
      "sha256": "0707a6ec79bc62cc351f84ecb195090f589907d54c682af4296591ca3c95bb22",
      "sha256_unsigned": "0707a6ec79bc62cc351f84ecb195090f589907d54c682af4296591ca3c95bb22",
      "type": "factory"
    }
  ],
  "metadata_version": 1,
  "model_id": "ubnt_unifi",
  "source_date_epoch": 1682627295,
  "supported_devices": [
    "ubnt,unifi",
    "unifi"
  ],
  "target": "ath79/generic",
  "titles": [
    {
      "model": "UniFi AP",
      "vendor": "Ubiquiti"
    }
  ],
  "version_code": "r20134-5f15225c1e",
  "version_number": "22.03.5"
}