{
  "arch_packages": "mips_24kc",
  "build_at": "2023-09-22 06:59:57",
  "default_packages": [
    "base-files",
    "busybox",
    "ca-bundle",
    "dnsmasq",
    "dropbear",
    "firewall4",
    "fstools",
    "kmod-ath9k",
    "kmod-gpio-button-hotplug",
    "kmod-nft-offload",
    "libc",
    "libgcc",
    "libustream-wolfssl",
    "logd",
    "mtd",
    "netifd",
    "nftables",
    "odhcp6c",
    "odhcpd-ipv6only",
    "opkg",
    "ppp",
    "ppp-mod-pppoe",
    "procd",
    "procd-seccomp",
    "procd-ujail",
    "swconfig",
    "uboot-envtools",
    "uci",
    "uclient-fetch",
    "urandom-seed",
    "urngd",
    "wpad-basic-wolfssl"
  ],
  "device_packages": [
    "kmod-usb2",
    "rssileds"
  ],
  "image_path": "releases/22.03.5/targets/ath79/generic/",
  "image_prefix": "openwrt-22.03.5-ath79-generic-ubnt_nanostation-m-xw",
  "images": [
    {
      "filesystem": "squashfs",
      "name": "openwrt-22.03.5-ath79-generic-ubnt_nanostation-m-xw-squashfs-sysupgrade.bin",
      "sha256": "da87a72b6126d29adcf35baf5db71c9fbf80978723f90d654f628784ba3096eb",
      "sha256_unsigned": "bc74ca20888aae6506e5d17e747a2128cef63cdac47642403321747c73ed0884",
      "type": "sysupgrade"
    },
    {
      "filesystem": "squashfs",
      "name": "openwrt-22.03.5-ath79-generic-ubnt_nanostation-m-xw-squashfs-factory.bin",
      "sha256": "ca2a020c16fb259dbc1e68dd06a83efac7426c001d5ef7a50cbed2300b06908c",
      "sha256_unsigned": "ca2a020c16fb259dbc1e68dd06a83efac7426c001d5ef7a50cbed2300b06908c",
      "type": "factory"
    },
    {
      "filesystem": "initramfs",
      "name": "openwrt-22.03.5-ath79-generic-ubnt_nanostation-m-xw-initramfs-kernel.bin",
      "sha256": "82ce20aaf32348e495be555f5d1141302a6c7d8885aca7b2d1c5520f295ede36",
      "sha256_unsigned": "82ce20aaf32348e495be555f5d1141302a6c7d8885aca7b2d1c5520f295ede36",
      "type": "kernel"
    }
  ],
  "metadata_version": 1,
  "model_id": "ubnt_nanostation-m-xw",
  "source_date_epoch": 1682627295,
  "supported_devices": [
    "ubnt,nanostation-m-xw",
    "nanostation-m-xw"
  ],
  "target": "ath79/generic",
  "titles": [
    {
      "model": "Nanostation M",
      "variant": "XW",
      "vendor": "Ubiquiti"
    }
  ],
  "version_code": "r20134-5f15225c1e",
  "version_number": "22.03.5"
}