{
  "arch_packages": "mips_24kc",
  "build_at": "2023-09-22 06:59:57",
  "default_packages": [
    "base-files",
    "busybox",
    "ca-bundle",
    "dnsmasq",
    "dropbear",
    "firewall4",
    "fstools",
    "kmod-ath9k",
    "kmod-gpio-button-hotplug",
    "kmod-nft-offload",
    "libc",
    "libgcc",
    "libustream-wolfssl",
    "logd",
    "mtd",
    "netifd",
    "nftables",
    "odhcp6c",
    "odhcpd-ipv6only",
    "opkg",
    "ppp",
    "ppp-mod-pppoe",
    "procd",
    "procd-seccomp",
    "procd-ujail",
    "swconfig",
    "uboot-envtools",
    "uci",
    "uclient-fetch",
    "urandom-seed",
    "urngd",
    "wpad-basic-wolfssl"
  ],
  "device_packages": [
    "kmod-ath10k-ct",
    "ath10k-firmware-qca9888-ct"
  ],
  "image_path": "releases/22.03.5/targets/ath79/generic/",
  "image_prefix": "openwrt-22.03.5-ath79-generic-yuncore_xd4200",
  "images": [
    {
      "filesystem": "squashfs",
      "name": "openwrt-22.03.5-ath79-generic-yuncore_xd4200-squashfs-tftp.bin",
      "sha256": "3f51b8ad8c54561e0b193f4d729afed2b4ec6e7ff13ac68c1fd7926e01994e44",
      "sha256_unsigned": "800e51909ccd17c6f67117cfcb75552abb38cd76c3168047218a159f8476efe1",
      "type": "tftp"
    },
    {
      "filesystem": "squashfs",
      "name": "openwrt-22.03.5-ath79-generic-yuncore_xd4200-squashfs-sysupgrade.bin",
      "sha256": "5144a0956e4c722e5a51da3e7b3440274eef0abb4ffa3b089c8c86a06ddf6ace",
      "sha256_unsigned": "800e51909ccd17c6f67117cfcb75552abb38cd76c3168047218a159f8476efe1",
      "type": "sysupgrade"
    },
    {
      "filesystem": "initramfs",
      "name": "openwrt-22.03.5-ath79-generic-yuncore_xd4200-initramfs-kernel.bin",
      "sha256": "9675fa5c66226921b5b7a8bf091e7d560997869e713812756d0c91bf877b5b20",
      "sha256_unsigned": "9675fa5c66226921b5b7a8bf091e7d560997869e713812756d0c91bf877b5b20",
      "type": "kernel"
    }
  ],
  "metadata_version": 1,
  "model_id": "yuncore_xd4200",
  "source_date_epoch": 1682627295,
  "supported_devices": [
    "yuncore,xd4200"
  ],
  "target": "ath79/generic",
  "titles": [
    {
      "model": "XD4200",
      "vendor": "YunCore"
    }
  ],
  "version_code": "r20134-5f15225c1e",
  "version_number": "22.03.5"
}