{
  "arch_packages": "mips_24kc",
  "build_at": "2023-09-22 06:59:57",
  "default_packages": [
    "base-files",
    "libc",
    "libgcc",
    "busybox",
    "dropbear",
    "mtd",
    "uci",
    "opkg",
    "netifd",
    "fstools",
    "uclient-fetch",
    "logd",
    "urandom-seed",
    "urngd",
    "kmod-leds-gpio",
    "kmod-gpio-button-hotplug",
    "ltq-vdsl-vr9-vectoring-fw-installer",
    "kmod-ltq-vdsl-vr9-mei",
    "kmod-ltq-vdsl-vr9",
    "kmod-ltq-atm-vr9",
    "kmod-ltq-ptm-vr9",
    "kmod-ltq-deu-vr9",
    "ltq-vdsl-app",
    "dsl-vrx200-firmware-xdsl-a",
    "dsl-vrx200-firmware-xdsl-b-patch",
    "ppp-mod-pppoa",
    "swconfig",
    "dnsmasq",
    "iptables",
    "ip6tables",
    "ppp",
    "ppp-mod-pppoe",
    "firewall",
    "odhcpd-ipv6only",
    "odhcp6c",
    "kmod-ipt-offload"
  ],
  "device_packages": [
    "kmod-ath9k",
    "wpad-basic",
    "kmod-usb-dwc2",
    "fritz-tffs",
    "iwinfo"
  ],
  "image_path": "releases/19.07.10/targets/lantiq/xrx200/",
  "image_prefix": "openwrt-19.07.10-lantiq-xrx200-avm_fritz3370-rev2-hynix",
  "images": [
    {
      "filesystem": "squashfs",
      "name": "openwrt-19.07.10-lantiq-xrx200-avm_fritz3370-rev2-hynix-squashfs-eva-filesystem.bin",
      "sha256": "5e36ee6ac323f361fe8a42b5aa8edc352f9b016c969648b9cd54ffbc7acd5ca7",
      "type": "eva-filesystem"
    },
    {
      "filesystem": "squashfs",
      "name": "openwrt-19.07.10-lantiq-xrx200-avm_fritz3370-rev2-hynix-squashfs-eva-kernel.bin",
      "sha256": "9a6a8ae0ca359ad4853f0caaf66489b18231b860e319f13967b7aeabccf8f80a",
      "type": "eva-kernel"
    },
    {
      "filesystem": "squashfs",
      "name": "openwrt-19.07.10-lantiq-xrx200-avm_fritz3370-rev2-hynix-squashfs-sysupgrade.bin",
      "sha256": "491ea5e26af2be783a5c637135adbec14960ed58170f630d4f5dc43329e434dd",
      "type": "sysupgrade"
    }
  ],
  "metadata_version": 1,
  "model_id": "avm_fritz3370-rev2-hynix",
  "source_date_epoch": 1650114812,
  "supported_devices": [
    "avm,fritz3370-rev2-hynix"
  ],
  "target": "lantiq/xrx200",
  "titles": [
    {
      "title": "AVM FRITZ!Box 3370 Rev. 2 (Hynix NAND)"
    }
  ],
  "version_code": "r11427-9ce6aa9d8d",
  "version_number": "19.07.10"
}