{
  "arch_packages": "mips_24kc",
  "build_at": "2023-09-22 06:59:57",
  "default_packages": [
    "base-files",
    "libc",
    "libgcc",
    "busybox",
    "dropbear",
    "mtd",
    "uci",
    "opkg",
    "netifd",
    "fstools",
    "uclient-fetch",
    "logd",
    "urandom-seed",
    "urngd",
    "kmod-leds-gpio",
    "kmod-gpio-button-hotplug",
    "ltq-vdsl-vr9-vectoring-fw-installer",
    "kmod-ltq-vdsl-vr9-mei",
    "kmod-ltq-vdsl-vr9",
    "kmod-ltq-atm-vr9",
    "kmod-ltq-ptm-vr9",
    "kmod-ltq-deu-vr9",
    "ltq-vdsl-app",
    "dsl-vrx200-firmware-xdsl-a",
    "dsl-vrx200-firmware-xdsl-b-patch",
    "ppp-mod-pppoa",
    "swconfig",
    "dnsmasq",
    "iptables",
    "ip6tables",
    "ppp",
    "ppp-mod-pppoe",
    "firewall",
    "odhcpd-ipv6only",
    "odhcp6c",
    "kmod-ipt-offload"
  ],
  "device_packages": [],
  "image_path": "releases/19.07.10/targets/lantiq/xrx200/",
  "image_prefix": "openwrt-19.07.10-lantiq-xrx200-netgear_dm200",
  "images": [
    {
      "filesystem": "squashfs",
      "name": "openwrt-19.07.10-lantiq-xrx200-netgear_dm200-squashfs-factory.img",
      "sha256": "ae42e34e92e413d15f725155fe5e43ea86a1773c529371952a2e960b6fd033b1",
      "type": "factory"
    },
    {
      "filesystem": "squashfs",
      "name": "openwrt-19.07.10-lantiq-xrx200-netgear_dm200-squashfs-sysupgrade.bin",
      "sha256": "04aa725effecda682551a89238c22f80740e6aa1affbbe8a552e319fd9c2e07d",
      "type": "sysupgrade"
    }
  ],
  "metadata_version": 1,
  "model_id": "netgear_dm200",
  "source_date_epoch": 1650114812,
  "supported_devices": [
    "netgear,dm200"
  ],
  "target": "lantiq/xrx200",
  "titles": [
    {
      "title": "Netgear DM200"
    }
  ],
  "version_code": "r11427-9ce6aa9d8d",
  "version_number": "19.07.10"
}