{
  "arch_packages": "mips_24kc",
  "build_at": "2023-09-22 06:59:57",
  "default_packages": [
    "base-files",
    "libc",
    "libgcc",
    "busybox",
    "dropbear",
    "mtd",
    "uci",
    "opkg",
    "netifd",
    "fstools",
    "uclient-fetch",
    "logd",
    "urandom-seed",
    "urngd",
    "kmod-leds-gpio",
    "kmod-gpio-button-hotplug",
    "ltq-vdsl-vr9-vectoring-fw-installer",
    "kmod-ltq-vdsl-vr9-mei",
    "kmod-ltq-vdsl-vr9",
    "kmod-ltq-atm-vr9",
    "kmod-ltq-ptm-vr9",
    "kmod-ltq-deu-vr9",
    "ltq-vdsl-app",
    "dsl-vrx200-firmware-xdsl-a",
    "dsl-vrx200-firmware-xdsl-b-patch",
    "ppp-mod-pppoa",
    "swconfig",
    "dnsmasq",
    "iptables",
    "ip6tables",
    "ppp",
    "ppp-mod-pppoe",
    "firewall",
    "odhcpd-ipv6only",
    "odhcp6c",
    "kmod-ipt-offload"
  ],
  "device_packages": [
    "kmod-rt2800-pci",
    "wpad-basic",
    "kmod-usb-dwc2",
    "kmod-usb-ledtrig-usbport",
    "iwinfo"
  ],
  "image_path": "releases/19.07.10/targets/lantiq/xrx200/",
  "image_prefix": "openwrt-19.07.10-lantiq-xrx200-zyxel_p-2812hnu-f1",
  "images": [
    {
      "filesystem": "squashfs",
      "name": "openwrt-19.07.10-lantiq-xrx200-zyxel_p-2812hnu-f1-squashfs-sysupgrade.bin",
      "sha256": "994c53d8d4cb46a36bfbc4475ba239251390bf7877932d443bf3a20e121c5793",
      "type": "sysupgrade"
    }
  ],
  "metadata_version": 1,
  "model_id": "zyxel_p-2812hnu-f1",
  "source_date_epoch": 1650114812,
  "supported_devices": [
    "zyxel,p-2812hnu-f1",
    "P2812HNUF1"
  ],
  "target": "lantiq/xrx200",
  "titles": [
    {
      "title": "ZyXEL P-2812HNU-F1"
    }
  ],
  "version_code": "r11427-9ce6aa9d8d",
  "version_number": "19.07.10"
}