{
  "arch_packages": "mips_24kc",
  "build_at": "2023-09-22 06:59:57",
  "default_packages": [
    "base-files",
    "libc",
    "libgcc",
    "busybox",
    "dropbear",
    "mtd",
    "uci",
    "opkg",
    "netifd",
    "fstools",
    "uclient-fetch",
    "logd",
    "urandom-seed",
    "urngd",
    "kmod-gpio-button-hotplug",
    "swconfig",
    "kmod-ath9k",
    "uboot-envtools",
    "wpad-basic",
    "dnsmasq",
    "iptables",
    "ip6tables",
    "ppp",
    "ppp-mod-pppoe",
    "firewall",
    "odhcpd-ipv6only",
    "odhcp6c",
    "kmod-ipt-offload",
    "kmod-gpio-button-hotplug",
    "swconfig",
    "kmod-ath9k",
    "uboot-envtools"
  ],
  "device_packages": [
    "kmod-usb-core",
    "kmod-usb2",
    "kmod-usb-ledtrig-usbport",
    "kmod-ath10k-ct",
    "ath10k-firmware-qca9888-ct"
  ],
  "image_path": "releases/19.07.10/targets/ar71xx/generic/",
  "image_prefix": "openwrt-19.07.10-ar71xx-generic-archer-c59-v2",
  "images": [
    {
      "filesystem": "squashfs",
      "name": "openwrt-19.07.10-ar71xx-generic-archer-c59-v2-squashfs-factory.bin",
      "sha256": "be3b1e57045bf40353c4ae8d1a2b6e39f40bcd5748953f298010eba714111224",
      "type": "factory"
    },
    {
      "filesystem": "squashfs",
      "name": "openwrt-19.07.10-ar71xx-generic-archer-c59-v2-squashfs-sysupgrade.bin",
      "sha256": "13706a5ad51144b3ae2732ce3250a4cd217beeca6fe3a0ac4c27b236c5952483",
      "type": "sysupgrade"
    }
  ],
  "metadata_version": 1,
  "model_id": "archer-c59-v2",
  "source_date_epoch": 1650114812,
  "supported_devices": [
    "archer-c59-v2"
  ],
  "target": "ar71xx/generic",
  "titles": [
    {
      "title": "TP-LINK Archer C59 v2"
    }
  ],
  "version_code": "r11427-9ce6aa9d8d",
  "version_number": "19.07.10"
}