{
  "arch_packages": "mips_24kc",
  "build_at": "2023-09-22 06:59:57",
  "default_packages": [
    "base-files",
    "libc",
    "libgcc",
    "busybox",
    "dropbear",
    "mtd",
    "uci",
    "opkg",
    "netifd",
    "fstools",
    "uclient-fetch",
    "logd",
    "urandom-seed",
    "urngd",
    "kmod-gpio-button-hotplug",
    "swconfig",
    "kmod-ath9k",
    "uboot-envtools",
    "wpad-basic",
    "dnsmasq",
    "iptables",
    "ip6tables",
    "ppp",
    "ppp-mod-pppoe",
    "firewall",
    "odhcpd-ipv6only",
    "odhcp6c",
    "kmod-ipt-offload",
    "kmod-gpio-button-hotplug",
    "swconfig",
    "kmod-ath9k",
    "uboot-envtools"
  ],
  "device_packages": [
    "kmod-ath10k-ct",
    "ath10k-firmware-qca9888-ct"
  ],
  "image_path": "releases/19.07.10/targets/ar71xx/generic/",
  "image_prefix": "openwrt-19.07.10-ar71xx-generic-archer-c60-v1",
  "images": [
    {
      "filesystem": "squashfs",
      "name": "openwrt-19.07.10-ar71xx-generic-archer-c60-v1-squashfs-factory.bin",
      "sha256": "efcffbfaecf42aed3863b0fc4342012497a5dff437b465873580f2d74c4ba264",
      "type": "factory"
    },
    {
      "filesystem": "squashfs",
      "name": "openwrt-19.07.10-ar71xx-generic-archer-c60-v1-squashfs-sysupgrade.bin",
      "sha256": "c9250b2503b1026d1997ed3abcbfe35e5bae6ceded730c7df968c3eb87ca2e8c",
      "type": "sysupgrade"
    }
  ],
  "metadata_version": 1,
  "model_id": "archer-c60-v1",
  "source_date_epoch": 1650114812,
  "supported_devices": [
    "archer-c60-v1"
  ],
  "target": "ar71xx/generic",
  "titles": [
    {
      "title": "TP-LINK Archer C60 v1"
    }
  ],
  "version_code": "r11427-9ce6aa9d8d",
  "version_number": "19.07.10"
}