{
  "arch_packages": "mips_24kc",
  "build_at": "2023-09-22 06:59:57",
  "default_packages": [
    "base-files",
    "libc",
    "libgcc",
    "busybox",
    "dropbear",
    "mtd",
    "uci",
    "opkg",
    "netifd",
    "fstools",
    "uclient-fetch",
    "logd",
    "urandom-seed",
    "urngd",
    "kmod-gpio-button-hotplug",
    "swconfig",
    "kmod-ath9k",
    "uboot-envtools",
    "wpad-basic",
    "dnsmasq",
    "iptables",
    "ip6tables",
    "ppp",
    "ppp-mod-pppoe",
    "firewall",
    "odhcpd-ipv6only",
    "odhcp6c",
    "kmod-ipt-offload",
    "kmod-gpio-button-hotplug",
    "swconfig",
    "kmod-ath9k",
    "uboot-envtools"
  ],
  "device_packages": [
    "kmod-usb-core",
    "kmod-usb2",
    "kmod-ath10k-ct",
    "ath10k-firmware-qca988x-ct",
    "-swconfig",
    "-uboot-envtools"
  ],
  "image_path": "releases/19.07.10/targets/ar71xx/generic/",
  "image_prefix": "openwrt-19.07.10-ar71xx-generic-cf-e380ac-v1",
  "images": [
    {
      "filesystem": "squashfs",
      "name": "openwrt-19.07.10-ar71xx-generic-cf-e380ac-v1-squashfs-sysupgrade.bin",
      "sha256": "b3e430e2acaeabf885d84e6a8230a872ea0980d560cb79f85568f851c74510de",
      "type": "sysupgrade"
    }
  ],
  "metadata_version": 1,
  "model_id": "cf-e380ac-v1",
  "source_date_epoch": 1650114812,
  "supported_devices": [],
  "target": "ar71xx/generic",
  "titles": [
    {
      "title": "COMFAST CF-E380AC v1"
    }
  ],
  "version_code": "r11427-9ce6aa9d8d",
  "version_number": "19.07.10"
}