{
  "arch_packages": "mips_24kc",
  "build_at": "2023-09-22 06:59:57",
  "default_packages": [
    "base-files",
    "libc",
    "libgcc",
    "busybox",
    "dropbear",
    "mtd",
    "uci",
    "opkg",
    "netifd",
    "fstools",
    "uclient-fetch",
    "logd",
    "urandom-seed",
    "urngd",
    "kmod-gpio-button-hotplug",
    "swconfig",
    "kmod-ath9k",
    "uboot-envtools",
    "wpad-basic",
    "dnsmasq",
    "iptables",
    "ip6tables",
    "ppp",
    "ppp-mod-pppoe",
    "firewall",
    "odhcpd-ipv6only",
    "odhcp6c",
    "kmod-ipt-offload",
    "kmod-gpio-button-hotplug",
    "swconfig",
    "kmod-ath9k",
    "uboot-envtools"
  ],
  "device_packages": [
    "kmod-usb-core",
    "kmod-usb2",
    "kmod-usb-storage",
    "-kmod-ath9k",
    "-swconfig",
    "-uboot-envtools",
    "-wpad-basic"
  ],
  "image_path": "releases/19.07.10/targets/ar71xx/generic/",
  "image_prefix": "openwrt-19.07.10-ar71xx-generic-lan-turtle",
  "images": [
    {
      "filesystem": "squashfs",
      "name": "openwrt-19.07.10-ar71xx-generic-lan-turtle-squashfs-sysupgrade.bin",
      "sha256": "11be59a5d4b86d4afba42521a35186c1e79e11b3b4b0d653eb09e2164a494643",
      "type": "sysupgrade"
    }
  ],
  "metadata_version": 1,
  "model_id": "lan-turtle",
  "source_date_epoch": 1650114812,
  "supported_devices": [],
  "target": "ar71xx/generic",
  "titles": [
    {
      "title": "Hak5 LAN Turtle"
    }
  ],
  "version_code": "r11427-9ce6aa9d8d",
  "version_number": "19.07.10"
}