{
  "arch_packages": "mips_24kc",
  "build_at": "2023-09-22 06:59:57",
  "default_packages": [
    "base-files",
    "libc",
    "libgcc",
    "busybox",
    "dropbear",
    "mtd",
    "uci",
    "opkg",
    "netifd",
    "fstools",
    "uclient-fetch",
    "logd",
    "urandom-seed",
    "urngd",
    "kmod-gpio-button-hotplug",
    "swconfig",
    "kmod-ath9k",
    "uboot-envtools",
    "wpad-basic",
    "dnsmasq",
    "iptables",
    "ip6tables",
    "ppp",
    "ppp-mod-pppoe",
    "firewall",
    "odhcpd-ipv6only",
    "odhcp6c",
    "kmod-ipt-offload",
    "kmod-gpio-button-hotplug",
    "swconfig",
    "kmod-ath9k",
    "uboot-envtools"
  ],
  "device_packages": [
    "kmod-usb-core",
    "kmod-usb2",
    "kmod-usb-storage",
    "kmod-i2c-core",
    "kmod-i2c-gpio-custom",
    "kmod-spi-bitbang",
    "kmod-spi-dev",
    "kmod-spi-gpio",
    "kmod-spi-gpio-custom",
    "kmod-usb-serial"
  ],
  "image_path": "releases/19.07.10/targets/ar71xx/generic/",
  "image_prefix": "openwrt-19.07.10-ar71xx-generic-onion-omega",
  "images": [
    {
      "filesystem": "squashfs",
      "name": "openwrt-19.07.10-ar71xx-generic-onion-omega-squashfs-factory.bin",
      "sha256": "db2f44f315a61783b152b0fae24e1c515dff22446b473747c582dc89378f091a",
      "type": "factory"
    },
    {
      "filesystem": "squashfs",
      "name": "openwrt-19.07.10-ar71xx-generic-onion-omega-squashfs-sysupgrade.bin",
      "sha256": "ec0dce35b102749a38a9eb819ccd0256f91b5b08bebbcdc0bbaa4829bb8b5191",
      "type": "sysupgrade"
    }
  ],
  "metadata_version": 1,
  "model_id": "onion-omega",
  "source_date_epoch": 1650114812,
  "supported_devices": [],
  "target": "ar71xx/generic",
  "titles": [
    {
      "title": "Onion Omega"
    }
  ],
  "version_code": "r11427-9ce6aa9d8d",
  "version_number": "19.07.10"
}