{
  "arch_packages": "mips_24kc",
  "build_at": "2023-09-22 06:59:57",
  "default_packages": [
    "base-files",
    "libc",
    "libgcc",
    "busybox",
    "dropbear",
    "mtd",
    "uci",
    "opkg",
    "netifd",
    "fstools",
    "uclient-fetch",
    "logd",
    "urandom-seed",
    "urngd",
    "kmod-gpio-button-hotplug",
    "swconfig",
    "kmod-ath9k",
    "uboot-envtools",
    "wpad-basic",
    "dnsmasq",
    "iptables",
    "ip6tables",
    "ppp",
    "ppp-mod-pppoe",
    "firewall",
    "odhcpd-ipv6only",
    "odhcp6c",
    "kmod-ipt-offload",
    "kmod-gpio-button-hotplug",
    "swconfig",
    "kmod-ath9k",
    "uboot-envtools"
  ],
  "device_packages": [
    "kmod-usb-core",
    "kmod-usb2",
    "kmod-usb-ledtrig-usbport",
    "-swconfig"
  ],
  "image_path": "releases/19.07.10/targets/ar71xx/generic/",
  "image_prefix": "openwrt-19.07.10-ar71xx-generic-r36a",
  "images": [
    {
      "filesystem": "squashfs",
      "name": "openwrt-19.07.10-ar71xx-generic-r36a-squashfs-sysupgrade.bin",
      "sha256": "a7e7e2757b6737c4dbe4233062cf1b0cc149399efe4a0f54d8b21402a6c9b346",
      "type": "sysupgrade"
    }
  ],
  "metadata_version": 1,
  "model_id": "r36a",
  "source_date_epoch": 1650114812,
  "supported_devices": [
    "r36a"
  ],
  "target": "ar71xx/generic",
  "titles": [
    {
      "title": "ALFA Network R36A"
    }
  ],
  "version_code": "r11427-9ce6aa9d8d",
  "version_number": "19.07.10"
}