{
  "arch_packages": "mips_24kc",
  "build_at": "2023-09-22 06:59:57",
  "default_packages": [
    "base-files",
    "libc",
    "libgcc",
    "busybox",
    "dropbear",
    "mtd",
    "uci",
    "opkg",
    "netifd",
    "fstools",
    "uclient-fetch",
    "logd",
    "urandom-seed",
    "urngd",
    "kmod-gpio-button-hotplug",
    "swconfig",
    "kmod-ath9k",
    "uboot-envtools",
    "wpad-basic",
    "dnsmasq",
    "iptables",
    "ip6tables",
    "ppp",
    "ppp-mod-pppoe",
    "firewall",
    "odhcpd-ipv6only",
    "odhcp6c",
    "kmod-ipt-offload",
    "kmod-gpio-button-hotplug",
    "swconfig",
    "kmod-ath9k",
    "uboot-envtools"
  ],
  "device_packages": [
    "kmod-usb-core",
    "kmod-usb-ohci",
    "kmod-usb2"
  ],
  "image_path": "releases/19.07.10/targets/ar71xx/generic/",
  "image_prefix": "openwrt-19.07.10-ar71xx-generic-ubnt-rs",
  "images": [
    {
      "filesystem": "squashfs",
      "name": "openwrt-19.07.10-ar71xx-generic-ubnt-rs-squashfs-factory.bin",
      "sha256": "a923e2328f2a4bb55e1b7dbb187b3e37d3edb55bcb840acb6995b994e64158a2",
      "type": "factory"
    },
    {
      "filesystem": "squashfs",
      "name": "openwrt-19.07.10-ar71xx-generic-ubnt-rs-squashfs-sysupgrade.bin",
      "sha256": "5fa3aee274076a01b4b1ee6d0d69cd7455de75cec237fd6815ce91b549ccb18f",
      "type": "sysupgrade"
    }
  ],
  "metadata_version": 1,
  "model_id": "ubnt-rs",
  "source_date_epoch": 1650114812,
  "supported_devices": [],
  "target": "ar71xx/generic",
  "titles": [
    {
      "title": "Ubiquiti RouterStation"
    }
  ],
  "version_code": "r11427-9ce6aa9d8d",
  "version_number": "19.07.10"
}