{
  "arch_packages": "mips_24kc",
  "build_at": "2023-09-22 06:59:57",
  "default_packages": [
    "base-files",
    "libc",
    "libgcc",
    "busybox",
    "dropbear",
    "mtd",
    "uci",
    "opkg",
    "netifd",
    "fstools",
    "uclient-fetch",
    "logd",
    "urandom-seed",
    "urngd",
    "kmod-gpio-button-hotplug",
    "swconfig",
    "kmod-ath9k",
    "uboot-envtools",
    "wpad-basic",
    "dnsmasq",
    "iptables",
    "ip6tables",
    "ppp",
    "ppp-mod-pppoe",
    "firewall",
    "odhcpd-ipv6only",
    "odhcp6c",
    "kmod-ipt-offload",
    "kmod-gpio-button-hotplug",
    "swconfig",
    "kmod-ath9k",
    "uboot-envtools"
  ],
  "device_packages": [
    "kmod-usb-core",
    "kmod-usb2",
    "rssileds"
  ],
  "image_path": "releases/19.07.10/targets/ar71xx/generic/",
  "image_prefix": "openwrt-19.07.10-ar71xx-generic-ubnt-bullet-m-xw",
  "images": [
    {
      "filesystem": "squashfs",
      "name": "openwrt-19.07.10-ar71xx-generic-ubnt-bullet-m-xw-squashfs-factory.bin",
      "sha256": "5fe813df331b51eb6dff1f5cfdcafc200ec2258ee13c245ef30bda7b34dd02d6",
      "type": "factory"
    },
    {
      "filesystem": "squashfs",
      "name": "openwrt-19.07.10-ar71xx-generic-ubnt-bullet-m-xw-squashfs-sysupgrade.bin",
      "sha256": "66641d22dd7dbc1784106394b264bfd0f6bf3467eabe8be45b03f992bc8d8cb2",
      "type": "sysupgrade"
    }
  ],
  "metadata_version": 1,
  "model_id": "ubnt-bullet-m-xw",
  "source_date_epoch": 1650114812,
  "supported_devices": [],
  "target": "ar71xx/generic",
  "titles": [
    {
      "title": "Ubiquiti Bullet-M XW"
    }
  ],
  "version_code": "r11427-9ce6aa9d8d",
  "version_number": "19.07.10"
}