{
  "arch_packages": "mipsel_24kc",
  "build_at": "2023-09-22 06:59:57",
  "default_packages": [
    "base-files",
    "libc",
    "libgcc",
    "busybox",
    "dropbear",
    "mtd",
    "uci",
    "opkg",
    "netifd",
    "fstools",
    "uclient-fetch",
    "logd",
    "urandom-seed",
    "urngd",
    "kmod-leds-gpio",
    "kmod-gpio-button-hotplug",
    "swconfig",
    "kmod-mt7603",
    "wpad-basic",
    "dnsmasq",
    "iptables",
    "ip6tables",
    "ppp",
    "ppp-mod-pppoe",
    "firewall",
    "odhcpd-ipv6only",
    "odhcp6c",
    "kmod-ipt-offload",
    "kmod-leds-gpio",
    "kmod-gpio-button-hotplug",
    "swconfig"
  ],
  "device_packages": [],
  "image_path": "releases/19.07.10/targets/ramips/mt76x8/",
  "image_prefix": "openwrt-19.07.10-ramips-mt76x8-hilink_hlk-7628n",
  "images": [
    {
      "filesystem": "squashfs",
      "name": "openwrt-19.07.10-ramips-mt76x8-hilink_hlk-7628n-squashfs-sysupgrade.bin",
      "sha256": "222cb69444644b0e98684b5bbaa707c269f3e58ebbe3028c13a20bfc0172178a",
      "type": "sysupgrade"
    }
  ],
  "metadata_version": 1,
  "model_id": "hilink_hlk-7628n",
  "source_date_epoch": 1650114812,
  "supported_devices": [
    "hilink,hlk-7628n"
  ],
  "target": "ramips/mt76x8",
  "titles": [
    {
      "title": "HILINK HLK7628N"
    }
  ],
  "version_code": "r11427-9ce6aa9d8d",
  "version_number": "19.07.10"
}