{
  "arch_packages": "mipsel_24kc",
  "build_at": "2023-09-22 06:59:57",
  "default_packages": [
    "base-files",
    "libc",
    "libgcc",
    "busybox",
    "dropbear",
    "mtd",
    "uci",
    "opkg",
    "netifd",
    "fstools",
    "uclient-fetch",
    "logd",
    "urandom-seed",
    "urngd",
    "kmod-leds-gpio",
    "kmod-gpio-button-hotplug",
    "swconfig",
    "kmod-mt7603",
    "wpad-basic",
    "dnsmasq",
    "iptables",
    "ip6tables",
    "ppp",
    "ppp-mod-pppoe",
    "firewall",
    "odhcpd-ipv6only",
    "odhcp6c",
    "kmod-ipt-offload",
    "kmod-leds-gpio",
    "kmod-gpio-button-hotplug",
    "swconfig"
  ],
  "device_packages": [
    "kmod-mt76x0e",
    "kmod-usb2",
    "kmod-usb-ohci",
    "kmod-usb-ledtrig-usbport"
  ],
  "image_path": "releases/19.07.10/targets/ramips/mt76x8/",
  "image_prefix": "openwrt-19.07.10-ramips-mt76x8-tplink_tl-wr902ac-v3",
  "images": [
    {
      "filesystem": "squashfs",
      "name": "openwrt-19.07.10-ramips-mt76x8-tplink_tl-wr902ac-v3-squashfs-tftp-recovery.bin",
      "sha256": "d5b2a6faf9301da157b4438f11fdd418e45d50c57f2345559b5fe836e2f18dbd",
      "type": "tftp-recovery"
    },
    {
      "filesystem": "squashfs",
      "name": "openwrt-19.07.10-ramips-mt76x8-tplink_tl-wr902ac-v3-squashfs-sysupgrade.bin",
      "sha256": "2038a25a59651887f62828fcca2a6dca9d1348da6b3a3491deaa7b603df966d3",
      "type": "sysupgrade"
    }
  ],
  "metadata_version": 1,
  "model_id": "tplink_tl-wr902ac-v3",
  "source_date_epoch": 1650114812,
  "supported_devices": [
    "tplink,tl-wr902ac-v3"
  ],
  "target": "ramips/mt76x8",
  "titles": [
    {
      "title": "TP-Link TL-WR902AC v3"
    }
  ],
  "version_code": "r11427-9ce6aa9d8d",
  "version_number": "19.07.10"
}