{
  "arch_packages": "mipsel_24kc",
  "build_at": "2023-09-22 06:59:57",
  "default_packages": [
    "base-files",
    "libc",
    "libgcc",
    "busybox",
    "dropbear",
    "mtd",
    "uci",
    "opkg",
    "netifd",
    "fstools",
    "uclient-fetch",
    "logd",
    "urandom-seed",
    "urngd",
    "kmod-leds-gpio",
    "kmod-gpio-button-hotplug",
    "swconfig",
    "kmod-mt7603",
    "wpad-basic",
    "dnsmasq",
    "iptables",
    "ip6tables",
    "ppp",
    "ppp-mod-pppoe",
    "firewall",
    "odhcpd-ipv6only",
    "odhcp6c",
    "kmod-ipt-offload",
    "kmod-leds-gpio",
    "kmod-gpio-button-hotplug",
    "swconfig"
  ],
  "device_packages": [
    "kmod-mt76x2"
  ],
  "image_path": "releases/19.07.10/targets/ramips/mt76x8/",
  "image_prefix": "openwrt-19.07.10-ramips-mt76x8-xiaomi_mir4a-100m",
  "images": [
    {
      "filesystem": "squashfs",
      "name": "openwrt-19.07.10-ramips-mt76x8-xiaomi_mir4a-100m-squashfs-sysupgrade.bin",
      "sha256": "8c6aa76a26f3e269089a86295e41c0e26501d33c3a308c2fe874896f38aa2411",
      "type": "sysupgrade"
    }
  ],
  "metadata_version": 1,
  "model_id": "xiaomi_mir4a-100m",
  "source_date_epoch": 1650114812,
  "supported_devices": [
    "xiaomi,mir4a-100m"
  ],
  "target": "ramips/mt76x8",
  "titles": [
    {
      "title": "Xiaomi Mi Router 4A (100M Edition)"
    }
  ],
  "version_code": "r11427-9ce6aa9d8d",
  "version_number": "19.07.10"
}