{
  "arch_packages": "arm_cortex-a7_neon-vfpv4",
  "build_at": "2023-09-22 06:59:57",
  "default_packages": [
    "base-files",
    "busybox",
    "ca-bundle",
    "dnsmasq",
    "dropbear",
    "e2fsprogs",
    "firewall4",
    "fstools",
    "kmod-nft-offload",
    "libc",
    "libgcc",
    "libustream-wolfssl",
    "logd",
    "mkf2fs",
    "mtd",
    "netifd",
    "nftables",
    "odhcp6c",
    "odhcpd-ipv6only",
    "opkg",
    "partx-utils",
    "ppp",
    "ppp-mod-pppoe",
    "procd",
    "procd-seccomp",
    "procd-ujail",
    "uboot-envtools",
    "uci",
    "uclient-fetch",
    "urandom-seed",
    "urngd"
  ],
  "device_packages": [
    "kmod-sun4i-emac",
    "kmod-rtl8192cu"
  ],
  "image_path": "releases/22.03.5/targets/sunxi/cortexa7/",
  "image_prefix": "openwrt-22.03.5-sunxi-cortexa7-mele_m9",
  "images": [
    {
      "filesystem": "squashfs",
      "name": "openwrt-22.03.5-sunxi-cortexa7-mele_m9-squashfs-sdcard.img.gz",
      "sha256": "578fd496436e81fdf9fd1f1bd61e100477765afd06d7c73ab366dc4c96842be0",
      "sha256_unsigned": "1e24f8fdc0beb3093da666183e837dbc29b7bc9102262e3a5a96137e7741c90d",
      "type": "sdcard"
    },
    {
      "filesystem": "ext4",
      "name": "openwrt-22.03.5-sunxi-cortexa7-mele_m9-ext4-sdcard.img.gz",
      "sha256": "9a13b1c3eca8faf2a710a7de25f486d3d94ba1af037aed8f282d3a1dad8a66d3",
      "sha256_unsigned": "bf6645de9bdf9017701dd1734e88193731121235f61ba16f4db245d68b914312",
      "type": "sdcard"
    }
  ],
  "metadata_version": 1,
  "model_id": "mele_m9",
  "source_date_epoch": 1682627295,
  "supported_devices": [
    "mele,m9"
  ],
  "target": "sunxi/cortexa7",
  "titles": [
    {
      "model": "M9",
      "vendor": "Mele"
    }
  ],
  "version_code": "r20134-5f15225c1e",
  "version_number": "22.03.5"
}