{
  "arch_packages": "arm_cortex-a7_neon-vfpv4",
  "build_at": "2023-09-22 06:59:57",
  "default_packages": [
    "base-files",
    "busybox",
    "ca-bundle",
    "dnsmasq",
    "dropbear",
    "e2fsprogs",
    "firewall4",
    "fstools",
    "kmod-nft-offload",
    "libc",
    "libgcc",
    "libustream-wolfssl",
    "logd",
    "mkf2fs",
    "mtd",
    "netifd",
    "nftables",
    "odhcp6c",
    "odhcpd-ipv6only",
    "opkg",
    "partx-utils",
    "ppp",
    "ppp-mod-pppoe",
    "procd",
    "procd-seccomp",
    "procd-ujail",
    "uboot-envtools",
    "uci",
    "uclient-fetch",
    "urandom-seed",
    "urngd"
  ],
  "device_packages": [
    "kmod-leds-gpio",
    "kmod-brcmfmac",
    "brcmfmac-firmware-43430a0-sdio",
    "wpad-basic-wolfssl",
    "iwinfo"
  ],
  "image_path": "releases/22.03.5/targets/sunxi/cortexa7/",
  "image_prefix": "openwrt-22.03.5-sunxi-cortexa7-sinovoip_bananapi-m2-plus",
  "images": [
    {
      "filesystem": "ext4",
      "name": "openwrt-22.03.5-sunxi-cortexa7-sinovoip_bananapi-m2-plus-ext4-sdcard.img.gz",
      "sha256": "37dc1184299f0f4203c221b740d68123673ac54908d36fae3c605144fd4f17ae",
      "sha256_unsigned": "3a1615d9b6435145d55a713fe0003a184af60bb5dee1ec429bfe3a3ea204d893",
      "type": "sdcard"
    },
    {
      "filesystem": "squashfs",
      "name": "openwrt-22.03.5-sunxi-cortexa7-sinovoip_bananapi-m2-plus-squashfs-sdcard.img.gz",
      "sha256": "692d973ae7b77741b1871559db1f5c27d4db70fade44f47c31d945b20520344a",
      "sha256_unsigned": "c0110ead7c77fbae4457a44a12292a1ca0a550bef8582a57e0d7c0b4c2489007",
      "type": "sdcard"
    }
  ],
  "metadata_version": 1,
  "model_id": "sinovoip_bananapi-m2-plus",
  "source_date_epoch": 1682627295,
  "supported_devices": [
    "sinovoip,bananapi-m2-plus"
  ],
  "target": "sunxi/cortexa7",
  "titles": [
    {
      "model": "Banana Pi M2+",
      "vendor": "Sinovoip"
    }
  ],
  "version_code": "r20134-5f15225c1e",
  "version_number": "22.03.5"
}