{
  "arch_packages": "mips_mips32",
  "build_at": "2023-09-22 06:59:57",
  "default_packages": [
    "base-files",
    "libc",
    "libgcc",
    "busybox",
    "dropbear",
    "mtd",
    "uci",
    "opkg",
    "netifd",
    "fstools",
    "uclient-fetch",
    "logd",
    "urandom-seed",
    "urngd",
    "swconfig",
    "kmod-gpio-button-hotplug",
    "dnsmasq",
    "iptables",
    "ip6tables",
    "ppp",
    "ppp-mod-pppoe",
    "firewall",
    "odhcpd-ipv6only",
    "odhcp6c",
    "kmod-ipt-offload",
    "swconfig",
    "kmod-gpio-button-hotplug"
  ],
  "device_packages": [
    "kmod-b43",
    "wpad-basic",
    "kmod-usb2",
    "kmod-usb-ohci",
    "kmod-usb-ledtrig-usbport",
    "iwinfo"
  ],
  "image_path": "releases/19.07.10/targets/brcm63xx/generic/",
  "image_prefix": "openwrt-19.07.10-brcm63xx-generic-AR5315u",
  "images": [
    {
      "filesystem": "squashfs",
      "name": "openwrt-19.07.10-brcm63xx-generic-AR5315u-squashfs-sysupgrade.bin",
      "sha256": "4211c02885d04612668976cd44606a85c6917bde10fa9de01aadf2ccb72521c9",
      "type": "sysupgrade"
    },
    {
      "filesystem": "squashfs",
      "name": "openwrt-19.07.10-brcm63xx-generic-AR5315u-squashfs-cfe.bin",
      "sha256": "f61da6aa7d89a7ce8e3eb49f8976f59ab69677d15ab3384a11ab460c2d2d214f",
      "type": "cfe"
    }
  ],
  "metadata_version": 1,
  "model_id": "AR5315u",
  "source_date_epoch": 1650114812,
  "supported_devices": [],
  "target": "brcm63xx/generic",
  "titles": [
    {
      "title": "Comtrend AR-5315u"
    }
  ],
  "version_code": "r11427-9ce6aa9d8d",
  "version_number": "19.07.10"
}