{
  "arch_packages": "mips_mips32",
  "build_at": "2023-09-22 06:59:57",
  "default_packages": [
    "base-files",
    "libc",
    "libgcc",
    "busybox",
    "dropbear",
    "mtd",
    "uci",
    "opkg",
    "netifd",
    "fstools",
    "uclient-fetch",
    "logd",
    "urandom-seed",
    "urngd",
    "swconfig",
    "kmod-gpio-button-hotplug",
    "dnsmasq",
    "iptables",
    "ip6tables",
    "ppp",
    "ppp-mod-pppoe",
    "firewall",
    "odhcpd-ipv6only",
    "odhcp6c",
    "kmod-ipt-offload",
    "swconfig",
    "kmod-gpio-button-hotplug"
  ],
  "device_packages": [
    "kmod-b43",
    "wpad-basic",
    "kmod-usb2",
    "kmod-usb-ohci",
    "kmod-usb-ledtrig-usbport",
    "iwinfo"
  ],
  "image_path": "releases/19.07.10/targets/brcm63xx/generic/",
  "image_prefix": "openwrt-19.07.10-brcm63xx-generic-HomeHub2A",
  "images": [
    {
      "filesystem": "squashfs",
      "name": "openwrt-19.07.10-brcm63xx-generic-HomeHub2A-squashfs-cfe.bin",
      "sha256": "1d83d593790411d3b881d06888d7786516ae03a4efe2f596f3b0a672c61835bb",
      "type": "cfe"
    }
  ],
  "metadata_version": 1,
  "model_id": "HomeHub2A",
  "source_date_epoch": 1650114812,
  "supported_devices": [],
  "target": "brcm63xx/generic",
  "titles": [
    {
      "title": "BT Home Hub 2.0 A"
    }
  ],
  "version_code": "r11427-9ce6aa9d8d",
  "version_number": "19.07.10"
}