{
  "arch_packages": "mips_mips32",
  "build_at": "2023-09-22 06:59:57",
  "default_packages": [
    "base-files",
    "libc",
    "libgcc",
    "busybox",
    "dropbear",
    "mtd",
    "uci",
    "opkg",
    "netifd",
    "fstools",
    "uclient-fetch",
    "logd",
    "urandom-seed",
    "urngd",
    "swconfig",
    "kmod-gpio-button-hotplug",
    "dnsmasq",
    "iptables",
    "ip6tables",
    "ppp",
    "ppp-mod-pppoe",
    "firewall",
    "odhcpd-ipv6only",
    "odhcp6c",
    "kmod-ipt-offload",
    "swconfig",
    "kmod-gpio-button-hotplug"
  ],
  "device_packages": [
    "kmod-b43",
    "wpad-basic",
    "iwinfo"
  ],
  "image_path": "releases/19.07.10/targets/brcm63xx/generic/",
  "image_prefix": "openwrt-19.07.10-brcm63xx-generic-SPW500V",
  "images": [
    {
      "filesystem": "squashfs",
      "name": "openwrt-19.07.10-brcm63xx-generic-SPW500V-squashfs-cfe.bin",
      "sha256": "7f3ff3aee196eae93be3cfb4d79bed0b768bfb10e121efc15acf3672cf8a2b50",
      "type": "cfe"
    }
  ],
  "metadata_version": 1,
  "model_id": "SPW500V",
  "source_date_epoch": 1650114812,
  "supported_devices": [],
  "target": "brcm63xx/generic",
  "titles": [
    {
      "title": "T-Com Speedport W 500V"
    }
  ],
  "version_code": "r11427-9ce6aa9d8d",
  "version_number": "19.07.10"
}