{
  "arch_packages": "mipsel_mips32",
  "build_at": "2023-09-22 06:59:57",
  "default_packages": [
    "base-files",
    "busybox",
    "ca-bundle",
    "dnsmasq",
    "dropbear",
    "firewall4",
    "fstools",
    "kmod-gpio-button-hotplug",
    "kmod-leds-gpio",
    "kmod-nft-offload",
    "libc",
    "libgcc",
    "libustream-wolfssl",
    "logd",
    "mtd",
    "netifd",
    "nftables",
    "nvram",
    "odhcp6c",
    "odhcpd-ipv6only",
    "opkg",
    "otrx",
    "ppp",
    "ppp-mod-pppoe",
    "procd",
    "procd-seccomp",
    "swconfig",
    "uci",
    "uclient-fetch",
    "urandom-seed",
    "urngd",
    "wpad-basic-wolfssl"
  ],
  "device_packages": [
    "kmod-b43"
  ],
  "image_path": "releases/22.03.5/targets/bcm47xx/legacy/",
  "image_prefix": "openwrt-22.03.5-bcm47xx-legacy-asus_wl-330ge",
  "images": [
    {
      "filesystem": "squashfs",
      "name": "openwrt-22.03.5-bcm47xx-legacy-asus_wl-330ge-squashfs.trx",
      "sha256": "a39a42c4096c9f704b30b7d1bef451d051026980c546024e764e0d5eb2b1a658",
      "sha256_unsigned": "a39a42c4096c9f704b30b7d1bef451d051026980c546024e764e0d5eb2b1a658",
      "type": "trx"
    }
  ],
  "metadata_version": 1,
  "model_id": "asus_wl-330ge",
  "source_date_epoch": 1682627295,
  "supported_devices": [
    "asus,wl-330ge"
  ],
  "target": "bcm47xx/legacy",
  "titles": [
    {
      "model": "WL-330gE",
      "vendor": "ASUS"
    }
  ],
  "version_code": "r20134-5f15225c1e",
  "version_number": "22.03.5"
}