{
  "arch_packages": "mipsel_mips32",
  "build_at": "2023-09-22 06:59:57",
  "default_packages": [
    "base-files",
    "busybox",
    "ca-bundle",
    "dnsmasq",
    "dropbear",
    "firewall4",
    "fstools",
    "kmod-gpio-button-hotplug",
    "kmod-leds-gpio",
    "kmod-nft-offload",
    "libc",
    "libgcc",
    "libustream-wolfssl",
    "logd",
    "mtd",
    "netifd",
    "nftables",
    "nvram",
    "odhcp6c",
    "odhcpd-ipv6only",
    "opkg",
    "otrx",
    "ppp",
    "ppp-mod-pppoe",
    "procd",
    "procd-seccomp",
    "swconfig",
    "uci",
    "uclient-fetch",
    "urandom-seed",
    "urngd",
    "wpad-basic-wolfssl"
  ],
  "device_packages": [
    "kmod-b43",
    "kmod-b43legacy"
  ],
  "image_path": "releases/22.03.5/targets/bcm47xx/legacy/",
  "image_prefix": "openwrt-22.03.5-bcm47xx-legacy-motorola_wa840g",
  "images": [
    {
      "filesystem": "squashfs",
      "name": "openwrt-22.03.5-bcm47xx-legacy-motorola_wa840g-squashfs.bin",
      "sha256": "c45d3d6f37582eabc20e323ef112f2314fac57f51160fa301c797a03bbaccb15",
      "sha256_unsigned": "c45d3d6f37582eabc20e323ef112f2314fac57f51160fa301c797a03bbaccb15",
      "type": "bin"
    }
  ],
  "metadata_version": 1,
  "model_id": "motorola_wa840g",
  "source_date_epoch": 1682627295,
  "supported_devices": [
    "motorola,wa840g"
  ],
  "target": "bcm47xx/legacy",
  "titles": [
    {
      "model": "WA840G",
      "vendor": "Motorola"
    }
  ],
  "version_code": "r20134-5f15225c1e",
  "version_number": "22.03.5"
}