{
  "arch_packages": "arm_cortex-a7_neon-vfpv4",
  "build_at": "2023-09-22 06:59:57",
  "default_packages": [
    "ath10k-board-qca4019",
    "ath10k-firmware-qca4019-ct",
    "base-files",
    "busybox",
    "ca-bundle",
    "dnsmasq",
    "dropbear",
    "firewall4",
    "fstools",
    "kmod-ath10k-ct",
    "kmod-gpio-button-hotplug",
    "kmod-leds-gpio",
    "kmod-nft-offload",
    "kmod-usb-dwc3",
    "kmod-usb-dwc3-qcom",
    "kmod-usb3",
    "libc",
    "libgcc",
    "libustream-wolfssl",
    "logd",
    "mtd",
    "netifd",
    "nftables",
    "odhcp6c",
    "odhcpd-ipv6only",
    "opkg",
    "ppp",
    "ppp-mod-pppoe",
    "procd",
    "procd-seccomp",
    "procd-ujail",
    "swconfig",
    "uboot-envtools",
    "uci",
    "uclient-fetch",
    "urandom-seed",
    "urngd",
    "wpad-basic-wolfssl"
  ],
  "device_packages": [
    "ath10k-firmware-qca9888-ct",
    "ipq-wifi-plasmacloud_pa2200"
  ],
  "image_path": "releases/22.03.5/targets/ipq40xx/generic/",
  "image_prefix": "openwrt-22.03.5-ipq40xx-generic-plasmacloud_pa2200",
  "images": [
    {
      "filesystem": "squashfs",
      "name": "openwrt-22.03.5-ipq40xx-generic-plasmacloud_pa2200-squashfs-sysupgrade.bin",
      "sha256": "be3bfc06d792e75af47e59b31a228a1fbbfb27b2eaf7179092deeb927b94ae9b",
      "sha256_unsigned": "98c258769c528271df2d5c68f8443bb7fe8bd62857b1faf821cfb2394856bb1c",
      "type": "sysupgrade"
    },
    {
      "filesystem": "initramfs",
      "name": "openwrt-22.03.5-ipq40xx-generic-plasmacloud_pa2200-initramfs-fit-uImage.itb",
      "sha256": "0f57a850aafe454ea7991540ed771bcc773eafe25da9fef5abe7434777e49126",
      "sha256_unsigned": "0f57a850aafe454ea7991540ed771bcc773eafe25da9fef5abe7434777e49126",
      "type": "kernel"
    },
    {
      "filesystem": "squashfs",
      "name": "openwrt-22.03.5-ipq40xx-generic-plasmacloud_pa2200-squashfs-factory.bin",
      "sha256": "83a7768c3f0222b79b6ea5c82d28b62c13d6e193251fad8b0a3e5f2cdf0c16bc",
      "sha256_unsigned": "83a7768c3f0222b79b6ea5c82d28b62c13d6e193251fad8b0a3e5f2cdf0c16bc",
      "type": "factory"
    }
  ],
  "metadata_version": 1,
  "model_id": "plasmacloud_pa2200",
  "source_date_epoch": 1682627295,
  "supported_devices": [
    "plasmacloud,pa2200"
  ],
  "target": "ipq40xx/generic",
  "titles": [
    {
      "model": "PA2200",
      "vendor": "Plasma Cloud"
    }
  ],
  "version_code": "r20134-5f15225c1e",
  "version_number": "22.03.5"
}