{
  "arch_packages": "mipsel_24kc",
  "build_at": "2023-09-22 06:59:57",
  "default_packages": [
    "base-files",
    "busybox",
    "ca-bundle",
    "dnsmasq",
    "dropbear",
    "firewall4",
    "fstools",
    "kmod-gpio-button-hotplug",
    "kmod-leds-gpio",
    "kmod-nft-offload",
    "libc",
    "libgcc",
    "libustream-wolfssl",
    "logd",
    "mtd",
    "netifd",
    "nftables",
    "odhcp6c",
    "odhcpd-ipv6only",
    "opkg",
    "ppp",
    "ppp-mod-pppoe",
    "procd",
    "procd-seccomp",
    "procd-ujail",
    "uci",
    "uclient-fetch",
    "urandom-seed",
    "urngd",
    "wpad-basic-wolfssl"
  ],
  "device_packages": [
    "kmod-usb3",
    "kmod-mt7615e",
    "kmod-mt7615-firmware",
    "uboot-envtools"
  ],
  "image_path": "releases/22.03.5/targets/ramips/mt7621/",
  "image_prefix": "openwrt-22.03.5-ramips-mt7621-asus_rt-ac65p",
  "images": [
    {
      "filesystem": "initramfs",
      "name": "openwrt-22.03.5-ramips-mt7621-asus_rt-ac65p-initramfs-kernel.bin",
      "sha256": "a2d56a16cbae1bcbf7c30b87d19c1d3db541a912b6b18da238cc7ac4ef1489fe",
      "sha256_unsigned": "a2d56a16cbae1bcbf7c30b87d19c1d3db541a912b6b18da238cc7ac4ef1489fe",
      "type": "kernel"
    },
    {
      "filesystem": "squashfs",
      "name": "openwrt-22.03.5-ramips-mt7621-asus_rt-ac65p-squashfs-factory.bin",
      "sha256": "ac1fcb9f8efacdb0bfd8416b61601cf5a369f4ce430faddc6342907d046246a1",
      "sha256_unsigned": "ac1fcb9f8efacdb0bfd8416b61601cf5a369f4ce430faddc6342907d046246a1",
      "type": "factory"
    },
    {
      "filesystem": "squashfs",
      "name": "openwrt-22.03.5-ramips-mt7621-asus_rt-ac65p-squashfs-sysupgrade.bin",
      "sha256": "b0e9579bca424febb5d83d047ad8dbcb1d84fca590bd1c3aaeb353b546e5c47c",
      "sha256_unsigned": "6d0528c5a45df542f903ec888e92569304807770e45257a8acbd05ce1831d19f",
      "type": "sysupgrade"
    }
  ],
  "metadata_version": 1,
  "model_id": "asus_rt-ac65p",
  "source_date_epoch": 1682627295,
  "supported_devices": [
    "asus,rt-ac65p"
  ],
  "target": "ramips/mt7621",
  "titles": [
    {
      "model": "RT-AC65P",
      "vendor": "ASUS"
    }
  ],
  "version_code": "r20134-5f15225c1e",
  "version_number": "22.03.5"
}