{
  "arch_packages": "mipsel_24kc",
  "build_at": "2023-09-22 06:59:57",
  "default_packages": [
    "base-files",
    "busybox",
    "ca-bundle",
    "dnsmasq",
    "dropbear",
    "firewall4",
    "fstools",
    "kmod-gpio-button-hotplug",
    "kmod-leds-gpio",
    "kmod-nft-offload",
    "libc",
    "libgcc",
    "libustream-wolfssl",
    "logd",
    "mtd",
    "netifd",
    "nftables",
    "odhcp6c",
    "odhcpd-ipv6only",
    "opkg",
    "ppp",
    "ppp-mod-pppoe",
    "procd",
    "procd-seccomp",
    "procd-ujail",
    "uci",
    "uclient-fetch",
    "urandom-seed",
    "urngd",
    "wpad-basic-wolfssl"
  ],
  "device_packages": [
    "kmod-usb3",
    "kmod-mt7615e",
    "kmod-mt7615-firmware",
    "uboot-envtools"
  ],
  "image_path": "releases/22.03.5/targets/ramips/mt7621/",
  "image_prefix": "openwrt-22.03.5-ramips-mt7621-asus_rt-ac85p",
  "images": [
    {
      "filesystem": "initramfs",
      "name": "openwrt-22.03.5-ramips-mt7621-asus_rt-ac85p-initramfs-kernel.bin",
      "sha256": "1ccab77d04f165b98ed79d51e0f7f1c8037ed5bad5617e1ece99f0ddc5f0a698",
      "sha256_unsigned": "1ccab77d04f165b98ed79d51e0f7f1c8037ed5bad5617e1ece99f0ddc5f0a698",
      "type": "kernel"
    },
    {
      "filesystem": "squashfs",
      "name": "openwrt-22.03.5-ramips-mt7621-asus_rt-ac85p-squashfs-sysupgrade.bin",
      "sha256": "a492aca87c5ca88a20664956a3536fd02a218b7742fffa6e78635d9e3769205f",
      "sha256_unsigned": "778dd8f26b833d4c033445437c3868fe23b1ad8f33f51a649cc5240834abd07c",
      "type": "sysupgrade"
    },
    {
      "filesystem": "squashfs",
      "name": "openwrt-22.03.5-ramips-mt7621-asus_rt-ac85p-squashfs-factory.bin",
      "sha256": "44d2657c99154b911dc5369b1871e32f9628805abc62abec517021280856bcfb",
      "sha256_unsigned": "44d2657c99154b911dc5369b1871e32f9628805abc62abec517021280856bcfb",
      "type": "factory"
    }
  ],
  "metadata_version": 1,
  "model_id": "asus_rt-ac85p",
  "source_date_epoch": 1682627295,
  "supported_devices": [
    "asus,rt-ac85p"
  ],
  "target": "ramips/mt7621",
  "titles": [
    {
      "model": "RT-AC85P",
      "vendor": "ASUS"
    }
  ],
  "version_code": "r20134-5f15225c1e",
  "version_number": "22.03.5"
}