{
  "arch_packages": "mipsel_24kc",
  "build_at": "2023-09-22 06:59:57",
  "default_packages": [
    "base-files",
    "busybox",
    "ca-bundle",
    "dnsmasq",
    "dropbear",
    "firewall4",
    "fstools",
    "kmod-gpio-button-hotplug",
    "kmod-leds-gpio",
    "kmod-nft-offload",
    "libc",
    "libgcc",
    "libustream-wolfssl",
    "logd",
    "mtd",
    "netifd",
    "nftables",
    "odhcp6c",
    "odhcpd-ipv6only",
    "opkg",
    "ppp",
    "ppp-mod-pppoe",
    "procd",
    "procd-seccomp",
    "procd-ujail",
    "uci",
    "uclient-fetch",
    "urandom-seed",
    "urngd",
    "wpad-basic-wolfssl"
  ],
  "device_packages": [
    "kmod-mt7603",
    "kmod-mt76x2",
    "kmod-usb2",
    "kmod-usb3",
    "kmod-usb-ledtrig-usbport"
  ],
  "image_path": "releases/22.03.5/targets/ramips/mt7621/",
  "image_prefix": "openwrt-22.03.5-ramips-mt7621-cudy_wr1300",
  "images": [
    {
      "filesystem": "squashfs",
      "name": "openwrt-22.03.5-ramips-mt7621-cudy_wr1300-squashfs-sysupgrade.bin",
      "sha256": "d670bad4de319f774a0b21e71b9e57e8cebab407499dd2039b07ba0e36d34250",
      "sha256_unsigned": "be74cd5df6999c43560588946b51d322cdee4e393708561f1fb943394bb3df37",
      "type": "sysupgrade"
    },
    {
      "filesystem": "initramfs",
      "name": "openwrt-22.03.5-ramips-mt7621-cudy_wr1300-initramfs-kernel.bin",
      "sha256": "f02be02d6ad345fed43da11989579b727b918a20e6a02f6be90b2b6f5879870d",
      "sha256_unsigned": "f02be02d6ad345fed43da11989579b727b918a20e6a02f6be90b2b6f5879870d",
      "type": "kernel"
    }
  ],
  "metadata_version": 1,
  "model_id": "cudy_wr1300",
  "source_date_epoch": 1682627295,
  "supported_devices": [
    "cudy,wr1300"
  ],
  "target": "ramips/mt7621",
  "titles": [
    {
      "model": "WR1300",
      "vendor": "Cudy"
    }
  ],
  "version_code": "r20134-5f15225c1e",
  "version_number": "22.03.5"
}