{
  "arch_packages": "mipsel_24kc",
  "build_at": "2023-09-22 06:59:57",
  "default_packages": [
    "base-files",
    "busybox",
    "ca-bundle",
    "dnsmasq",
    "dropbear",
    "firewall4",
    "fstools",
    "kmod-gpio-button-hotplug",
    "kmod-leds-gpio",
    "kmod-nft-offload",
    "libc",
    "libgcc",
    "libustream-wolfssl",
    "logd",
    "mtd",
    "netifd",
    "nftables",
    "odhcp6c",
    "odhcpd-ipv6only",
    "opkg",
    "ppp",
    "ppp-mod-pppoe",
    "procd",
    "procd-seccomp",
    "procd-ujail",
    "uci",
    "uclient-fetch",
    "urandom-seed",
    "urngd",
    "wpad-basic-wolfssl"
  ],
  "device_packages": [
    "kmod-mt7615e",
    "kmod-mt7615-firmware"
  ],
  "image_path": "releases/22.03.5/targets/ramips/mt7621/",
  "image_prefix": "openwrt-22.03.5-ramips-mt7621-elecom_wrc-2533ghbk-i",
  "images": [
    {
      "filesystem": "squashfs",
      "name": "openwrt-22.03.5-ramips-mt7621-elecom_wrc-2533ghbk-i-squashfs-sysupgrade.bin",
      "sha256": "ed48f61869cee7e2d6bdd4a76481e73c5e5325a924973068c4bfab9cb3691fc3",
      "sha256_unsigned": "d87aad404c0b9ac265755a4468f3748303cf60dd38139f4a3051ebb0c659e75b",
      "type": "sysupgrade"
    },
    {
      "filesystem": "initramfs",
      "name": "openwrt-22.03.5-ramips-mt7621-elecom_wrc-2533ghbk-i-initramfs-kernel.bin",
      "sha256": "8e83951e3e0ee7b72c44e9e7a09da108033d4a3012eb9d8e53bb88380e796e93",
      "sha256_unsigned": "8e83951e3e0ee7b72c44e9e7a09da108033d4a3012eb9d8e53bb88380e796e93",
      "type": "kernel"
    },
    {
      "filesystem": "squashfs",
      "name": "openwrt-22.03.5-ramips-mt7621-elecom_wrc-2533ghbk-i-squashfs-factory.bin",
      "sha256": "97978c3439e60447df1498d21d5001495b1b58b73eec343ac5be20ae2ed0fe77",
      "sha256_unsigned": "97978c3439e60447df1498d21d5001495b1b58b73eec343ac5be20ae2ed0fe77",
      "type": "factory"
    }
  ],
  "metadata_version": 1,
  "model_id": "elecom_wrc-2533ghbk-i",
  "source_date_epoch": 1682627295,
  "supported_devices": [
    "elecom,wrc-2533ghbk-i"
  ],
  "target": "ramips/mt7621",
  "titles": [
    {
      "model": "WRC-2533GHBK-I",
      "vendor": "ELECOM"
    }
  ],
  "version_code": "r20134-5f15225c1e",
  "version_number": "22.03.5"
}