{
  "arch_packages": "mipsel_24kc",
  "build_at": "2023-09-22 06:59:57",
  "default_packages": [
    "base-files",
    "busybox",
    "ca-bundle",
    "dnsmasq",
    "dropbear",
    "firewall4",
    "fstools",
    "kmod-gpio-button-hotplug",
    "kmod-leds-gpio",
    "kmod-nft-offload",
    "libc",
    "libgcc",
    "libustream-wolfssl",
    "logd",
    "mtd",
    "netifd",
    "nftables",
    "odhcp6c",
    "odhcpd-ipv6only",
    "opkg",
    "ppp",
    "ppp-mod-pppoe",
    "procd",
    "procd-seccomp",
    "procd-ujail",
    "uci",
    "uclient-fetch",
    "urandom-seed",
    "urngd",
    "wpad-basic-wolfssl"
  ],
  "device_packages": [
    "kmod-mt7615e",
    "kmod-mt7615-firmware"
  ],
  "image_path": "releases/22.03.5/targets/ramips/mt7621/",
  "image_prefix": "openwrt-22.03.5-ramips-mt7621-elecom_wrc-1167ghbk2-s",
  "images": [
    {
      "filesystem": "squashfs",
      "name": "openwrt-22.03.5-ramips-mt7621-elecom_wrc-1167ghbk2-s-squashfs-sysupgrade.bin",
      "sha256": "7ecfc4ce6ac57a1d0c62d1fa0dd9e8af556853d62846dd75097c27229ee38a8a",
      "sha256_unsigned": "5896e499c7742ffc4911d8bb0fc8f7aee7c7817182ce7013e02bb274cc836a16",
      "type": "sysupgrade"
    },
    {
      "filesystem": "initramfs",
      "name": "openwrt-22.03.5-ramips-mt7621-elecom_wrc-1167ghbk2-s-initramfs-kernel.bin",
      "sha256": "2994dd82cbb54a68d803f7fd752712e2c4ce35913a0fd0c869e844663e41846b",
      "sha256_unsigned": "2994dd82cbb54a68d803f7fd752712e2c4ce35913a0fd0c869e844663e41846b",
      "type": "kernel"
    },
    {
      "filesystem": "squashfs",
      "name": "openwrt-22.03.5-ramips-mt7621-elecom_wrc-1167ghbk2-s-squashfs-factory.bin",
      "sha256": "eae62c9f2e047a8c268d4c58769e8167d98c4f8d64285832c778cc9e13fd421d",
      "sha256_unsigned": "eae62c9f2e047a8c268d4c58769e8167d98c4f8d64285832c778cc9e13fd421d",
      "type": "factory"
    }
  ],
  "metadata_version": 1,
  "model_id": "elecom_wrc-1167ghbk2-s",
  "source_date_epoch": 1682627295,
  "supported_devices": [
    "elecom,wrc-1167ghbk2-s"
  ],
  "target": "ramips/mt7621",
  "titles": [
    {
      "model": "WRC-1167GHBK2-S",
      "vendor": "ELECOM"
    }
  ],
  "version_code": "r20134-5f15225c1e",
  "version_number": "22.03.5"
}