{
  "arch_packages": "mipsel_24kc",
  "build_at": "2023-09-22 06:59:57",
  "default_packages": [
    "base-files",
    "busybox",
    "ca-bundle",
    "dnsmasq",
    "dropbear",
    "firewall4",
    "fstools",
    "kmod-gpio-button-hotplug",
    "kmod-leds-gpio",
    "kmod-nft-offload",
    "libc",
    "libgcc",
    "libustream-wolfssl",
    "logd",
    "mtd",
    "netifd",
    "nftables",
    "odhcp6c",
    "odhcpd-ipv6only",
    "opkg",
    "ppp",
    "ppp-mod-pppoe",
    "procd",
    "procd-seccomp",
    "procd-ujail",
    "uci",
    "uclient-fetch",
    "urandom-seed",
    "urngd",
    "wpad-basic-wolfssl"
  ],
  "device_packages": [
    "kmod-usb3",
    "kmod-mt7615e",
    "kmod-mt7615-firmware",
    "uboot-envtools"
  ],
  "image_path": "releases/22.03.5/targets/ramips/mt7621/",
  "image_prefix": "openwrt-22.03.5-ramips-mt7621-linksys_ea7300-v1",
  "images": [
    {
      "filesystem": "squashfs",
      "name": "openwrt-22.03.5-ramips-mt7621-linksys_ea7300-v1-squashfs-factory.bin",
      "sha256": "c4db78f3b9301a586e4c488e570c6c39435c3c4ee3d25889965e4ce471a60457",
      "sha256_unsigned": "c4db78f3b9301a586e4c488e570c6c39435c3c4ee3d25889965e4ce471a60457",
      "type": "factory"
    },
    {
      "filesystem": "initramfs",
      "name": "openwrt-22.03.5-ramips-mt7621-linksys_ea7300-v1-initramfs-kernel.bin",
      "sha256": "e226434fc886ad5795a371b110c501cee2b0e8040e3cb333938bdf4c5de263f4",
      "sha256_unsigned": "e226434fc886ad5795a371b110c501cee2b0e8040e3cb333938bdf4c5de263f4",
      "type": "kernel"
    },
    {
      "filesystem": "squashfs",
      "name": "openwrt-22.03.5-ramips-mt7621-linksys_ea7300-v1-squashfs-sysupgrade.bin",
      "sha256": "545ed2d83508f7c32d76a1c0e54676c7d5147e2576e494235fe3fc77539e95d1",
      "sha256_unsigned": "cd3e0af88ca987db92e685e750b7e86c89174a97d11bfd50abd05e31ec94c4b3",
      "type": "sysupgrade"
    }
  ],
  "metadata_version": 1,
  "model_id": "linksys_ea7300-v1",
  "source_date_epoch": 1682627295,
  "supported_devices": [
    "linksys,ea7300-v1"
  ],
  "target": "ramips/mt7621",
  "titles": [
    {
      "model": "EA7300",
      "variant": "v1",
      "vendor": "Linksys"
    }
  ],
  "version_code": "r20134-5f15225c1e",
  "version_number": "22.03.5"
}