{
  "arch_packages": "mipsel_24kc",
  "build_at": "2023-09-22 06:59:57",
  "default_packages": [
    "base-files",
    "busybox",
    "ca-bundle",
    "dnsmasq",
    "dropbear",
    "firewall4",
    "fstools",
    "kmod-gpio-button-hotplug",
    "kmod-leds-gpio",
    "kmod-nft-offload",
    "libc",
    "libgcc",
    "libustream-wolfssl",
    "logd",
    "mtd",
    "netifd",
    "nftables",
    "odhcp6c",
    "odhcpd-ipv6only",
    "opkg",
    "ppp",
    "ppp-mod-pppoe",
    "procd",
    "procd-seccomp",
    "procd-ujail",
    "uci",
    "uclient-fetch",
    "urandom-seed",
    "urngd",
    "wpad-basic-wolfssl"
  ],
  "device_packages": [
    "-wpad-basic-wolfssl"
  ],
  "image_path": "releases/22.03.5/targets/ramips/mt7621/",
  "image_prefix": "openwrt-22.03.5-ramips-mt7621-mediatek_mt7621-eval-board",
  "images": [
    {
      "filesystem": "squashfs",
      "name": "openwrt-22.03.5-ramips-mt7621-mediatek_mt7621-eval-board-squashfs-sysupgrade.bin",
      "sha256": "4e00777b2fab3ec5c9710536672113799fe5e0858b35d5ad6a18dc9e2afc81e5",
      "sha256_unsigned": "215c72e9059eb95465583b3bd0ce2378e79bfd319486ec41dc0b8b580e9519f9",
      "type": "sysupgrade"
    },
    {
      "filesystem": "initramfs",
      "name": "openwrt-22.03.5-ramips-mt7621-mediatek_mt7621-eval-board-initramfs-kernel.bin",
      "sha256": "0fcfdb17f0ea24c2f2d504d7bb94eb9f8be34807ad9754158987481e14afd22d",
      "sha256_unsigned": "0fcfdb17f0ea24c2f2d504d7bb94eb9f8be34807ad9754158987481e14afd22d",
      "type": "kernel"
    }
  ],
  "metadata_version": 1,
  "model_id": "mediatek_mt7621-eval-board",
  "source_date_epoch": 1682627295,
  "supported_devices": [
    "mediatek,mt7621-eval-board",
    "mt7621"
  ],
  "target": "ramips/mt7621",
  "titles": [
    {
      "model": "MT7621 EVB",
      "vendor": "MediaTek"
    }
  ],
  "version_code": "r20134-5f15225c1e",
  "version_number": "22.03.5"
}