{
  "arch_packages": "mipsel_24kc",
  "build_at": "2023-09-22 06:59:57",
  "default_packages": [
    "base-files",
    "busybox",
    "ca-bundle",
    "dnsmasq",
    "dropbear",
    "firewall4",
    "fstools",
    "kmod-gpio-button-hotplug",
    "kmod-leds-gpio",
    "kmod-nft-offload",
    "libc",
    "libgcc",
    "libustream-wolfssl",
    "logd",
    "mtd",
    "netifd",
    "nftables",
    "odhcp6c",
    "odhcpd-ipv6only",
    "opkg",
    "ppp",
    "ppp-mod-pppoe",
    "procd",
    "procd-seccomp",
    "procd-ujail",
    "uci",
    "uclient-fetch",
    "urandom-seed",
    "urngd",
    "wpad-basic-wolfssl"
  ],
  "device_packages": [
    "kmod-mt7915e",
    "-uboot-envtools"
  ],
  "image_path": "releases/22.03.5/targets/ramips/mt7621/",
  "image_prefix": "openwrt-22.03.5-ramips-mt7621-mercusys_mr70x-v1",
  "images": [
    {
      "filesystem": "squashfs",
      "name": "openwrt-22.03.5-ramips-mt7621-mercusys_mr70x-v1-squashfs-sysupgrade.bin",
      "sha256": "802192015fc6bb954b754edaba07b5ab2b3791d011776c5caeb3ee258d5e28bb",
      "sha256_unsigned": "607d1c8924827abb7bc63a5ec449559ea0334d35a70fa44cbacac442f10389ec",
      "type": "sysupgrade"
    },
    {
      "filesystem": "initramfs",
      "name": "openwrt-22.03.5-ramips-mt7621-mercusys_mr70x-v1-initramfs-kernel.bin",
      "sha256": "dcaa0192a7838d2c0ebb22071957566b64382255f159a384e988a54eb6b0f976",
      "sha256_unsigned": "dcaa0192a7838d2c0ebb22071957566b64382255f159a384e988a54eb6b0f976",
      "type": "kernel"
    },
    {
      "filesystem": "squashfs",
      "name": "openwrt-22.03.5-ramips-mt7621-mercusys_mr70x-v1-squashfs-factory.bin",
      "sha256": "f365ca1d651046346529c1657604d2ab66ffd6970a8781fd2a4cc63a1646a560",
      "sha256_unsigned": "f365ca1d651046346529c1657604d2ab66ffd6970a8781fd2a4cc63a1646a560",
      "type": "factory"
    }
  ],
  "metadata_version": 1,
  "model_id": "mercusys_mr70x-v1",
  "source_date_epoch": 1682627295,
  "supported_devices": [
    "mercusys,mr70x-v1"
  ],
  "target": "ramips/mt7621",
  "titles": [
    {
      "model": "MR70X",
      "variant": "v1",
      "vendor": "Mercusys"
    }
  ],
  "version_code": "r20134-5f15225c1e",
  "version_number": "22.03.5"
}