{
  "arch_packages": "mipsel_24kc",
  "build_at": "2023-09-22 06:59:57",
  "default_packages": [
    "base-files",
    "busybox",
    "ca-bundle",
    "dnsmasq",
    "dropbear",
    "firewall4",
    "fstools",
    "kmod-gpio-button-hotplug",
    "kmod-leds-gpio",
    "kmod-nft-offload",
    "libc",
    "libgcc",
    "libustream-wolfssl",
    "logd",
    "mtd",
    "netifd",
    "nftables",
    "odhcp6c",
    "odhcpd-ipv6only",
    "opkg",
    "ppp",
    "ppp-mod-pppoe",
    "procd",
    "procd-seccomp",
    "procd-ujail",
    "uci",
    "uclient-fetch",
    "urandom-seed",
    "urngd",
    "wpad-basic-wolfssl"
  ],
  "device_packages": [
    "uboot-envtools",
    "kmod-mt7603",
    "kmod-mt7615e",
    "kmod-mt7615-firmware"
  ],
  "image_path": "releases/22.03.5/targets/ramips/mt7621/",
  "image_prefix": "openwrt-22.03.5-ramips-mt7621-xiaomi_redmi-router-ac2100",
  "images": [
    {
      "filesystem": "squashfs",
      "name": "openwrt-22.03.5-ramips-mt7621-xiaomi_redmi-router-ac2100-squashfs-rootfs0.bin",
      "sha256": "d3974c3e87ef99d0497c07c8af7b1485cef470d816029256ecf2db820ba6ec34",
      "sha256_unsigned": "d3974c3e87ef99d0497c07c8af7b1485cef470d816029256ecf2db820ba6ec34",
      "type": "rootfs0"
    },
    {
      "filesystem": "squashfs",
      "name": "openwrt-22.03.5-ramips-mt7621-xiaomi_redmi-router-ac2100-squashfs-kernel1.bin",
      "sha256": "5293a6d9d216c5f111a199c428de421514caf933cc865bf592547965adc29ad5",
      "sha256_unsigned": "5293a6d9d216c5f111a199c428de421514caf933cc865bf592547965adc29ad5",
      "type": "kernel1"
    },
    {
      "filesystem": "squashfs",
      "name": "openwrt-22.03.5-ramips-mt7621-xiaomi_redmi-router-ac2100-squashfs-sysupgrade.bin",
      "sha256": "75f05d4d6aca530c3f3c81af8930ae946197be42fc8a006775d4b7d978a959de",
      "sha256_unsigned": "2da889f254a0f03a6a3c7f1127507025bf543b247b32c9b318a07f49737b69f4",
      "type": "sysupgrade"
    },
    {
      "filesystem": "initramfs",
      "name": "openwrt-22.03.5-ramips-mt7621-xiaomi_redmi-router-ac2100-initramfs-kernel.bin",
      "sha256": "252d250e4c95713b8dff99ae44e23fa879a13ca09e036748043c879164a39e10",
      "sha256_unsigned": "252d250e4c95713b8dff99ae44e23fa879a13ca09e036748043c879164a39e10",
      "type": "kernel"
    }
  ],
  "metadata_version": 1,
  "model_id": "xiaomi_redmi-router-ac2100",
  "source_date_epoch": 1682627295,
  "supported_devices": [
    "xiaomi,redmi-router-ac2100"
  ],
  "target": "ramips/mt7621",
  "titles": [
    {
      "model": "Redmi Router AC2100",
      "vendor": "Xiaomi"
    }
  ],
  "version_code": "r20134-5f15225c1e",
  "version_number": "22.03.5"
}