{
  "arch_packages": "mipsel_24kc",
  "build_at": "2023-09-22 06:59:57",
  "default_packages": [
    "base-files",
    "busybox",
    "ca-bundle",
    "dnsmasq",
    "dropbear",
    "firewall4",
    "fstools",
    "kmod-gpio-button-hotplug",
    "kmod-leds-gpio",
    "kmod-nft-offload",
    "libc",
    "libgcc",
    "libustream-wolfssl",
    "logd",
    "mtd",
    "netifd",
    "nftables",
    "odhcp6c",
    "odhcpd-ipv6only",
    "opkg",
    "ppp",
    "ppp-mod-pppoe",
    "procd",
    "procd-seccomp",
    "procd-ujail",
    "uci",
    "uclient-fetch",
    "urandom-seed",
    "urngd",
    "wpad-basic-wolfssl"
  ],
  "device_packages": [
    "kmod-sdhci-mt7620",
    "kmod-mt7603",
    "kmod-mt76x2",
    "kmod-usb3",
    "kmod-usb-ledtrig-usbport"
  ],
  "image_path": "releases/22.03.5/targets/ramips/mt7621/",
  "image_prefix": "openwrt-22.03.5-ramips-mt7621-zbtlink_zbt-wg1602-16m",
  "images": [
    {
      "filesystem": "initramfs",
      "name": "openwrt-22.03.5-ramips-mt7621-zbtlink_zbt-wg1602-16m-initramfs-kernel.bin",
      "sha256": "ee2a21732d12769028b3f279cccf61ac58bad54143f687e77161415e4f3c4c6f",
      "sha256_unsigned": "ee2a21732d12769028b3f279cccf61ac58bad54143f687e77161415e4f3c4c6f",
      "type": "kernel"
    },
    {
      "filesystem": "squashfs",
      "name": "openwrt-22.03.5-ramips-mt7621-zbtlink_zbt-wg1602-16m-squashfs-sysupgrade.bin",
      "sha256": "f17dc4b7c7d29edf8c3cdbd0cda78ee73cc717e430a9e32a4f02c0d0c0cb5a92",
      "sha256_unsigned": "c71ed0ef1c566b6ba9dd0da750fffcec35083b3987c4917b768faa488a69212e",
      "type": "sysupgrade"
    }
  ],
  "metadata_version": 1,
  "model_id": "zbtlink_zbt-wg1602-16m",
  "source_date_epoch": 1682627295,
  "supported_devices": [
    "zbtlink,zbt-wg1602-16m"
  ],
  "target": "ramips/mt7621",
  "titles": [
    {
      "model": "ZBT-WG1602",
      "variant": "16M",
      "vendor": "Zbtlink"
    }
  ],
  "version_code": "r20134-5f15225c1e",
  "version_number": "22.03.5"
}