{
  "arch_packages": "mips_24kc",
  "build_at": "2023-09-22 06:59:57",
  "default_packages": [
    "base-files",
    "libc",
    "libgcc",
    "busybox",
    "dropbear",
    "mtd",
    "uci",
    "opkg",
    "netifd",
    "fstools",
    "uclient-fetch",
    "logd",
    "urandom-seed",
    "urngd",
    "kmod-leds-gpio",
    "kmod-gpio-button-hotplug",
    "kmod-ledtrig-heartbeat",
    "dnsmasq",
    "iptables",
    "ip6tables",
    "ppp",
    "ppp-mod-pppoe",
    "firewall",
    "odhcpd-ipv6only",
    "odhcp6c",
    "kmod-ipt-offload"
  ],
  "device_packages": [],
  "image_path": "releases/19.07.10/targets/lantiq/falcon/",
  "image_prefix": "openwrt-19.07.10-lantiq-falcon-lantiq_easy88444",
  "images": [
    {
      "filesystem": "squashfs",
      "name": "openwrt-19.07.10-lantiq-falcon-lantiq_easy88444-squashfs-sysupgrade.bin",
      "sha256": "9a59858f9a3310470c72bca62656600d868a0de48b206bd12b6fbffd03270566",
      "type": "sysupgrade"
    }
  ],
  "metadata_version": 1,
  "model_id": "lantiq_easy88444",
  "source_date_epoch": 1650114812,
  "supported_devices": [
    "lantiq,easy88444"
  ],
  "target": "lantiq/falcon",
  "titles": [
    {
      "title": "EASY88444 - Lantiq Falcon FTTdp G.FAST Reference Board"
    }
  ],
  "version_code": "r11427-9ce6aa9d8d",
  "version_number": "19.07.10"
}