{
  "arch_packages": "arm_cortex-a9_vfpv3-d16",
  "build_at": "2023-09-22 06:59:57",
  "default_packages": [
    "base-files",
    "busybox",
    "ca-bundle",
    "dnsmasq",
    "dropbear",
    "firewall4",
    "fstools",
    "kmod-gpio-button-hotplug",
    "kmod-nft-offload",
    "libc",
    "libgcc",
    "libustream-wolfssl",
    "logd",
    "mtd",
    "netifd",
    "nftables",
    "odhcp6c",
    "odhcpd-ipv6only",
    "opkg",
    "ppp",
    "ppp-mod-pppoe",
    "procd",
    "procd-seccomp",
    "procd-ujail",
    "uboot-envtools",
    "uci",
    "uclient-fetch",
    "urandom-seed",
    "urngd"
  ],
  "device_packages": [],
  "image_path": "releases/22.03.5/targets/mvebu/cortexa9/",
  "image_prefix": "openwrt-22.03.5-mvebu-cortexa9-marvell_a370-db",
  "images": [
    {
      "filesystem": "initramfs",
      "name": "openwrt-22.03.5-mvebu-cortexa9-marvell_a370-db-initramfs-kernel.bin",
      "sha256": "d8eb7a3e0a4d947b3ef06215377f8c0c41696600ea3dd86b1371699ff1528886",
      "sha256_unsigned": "d8eb7a3e0a4d947b3ef06215377f8c0c41696600ea3dd86b1371699ff1528886",
      "type": "kernel"
    },
    {
      "filesystem": "squashfs",
      "name": "openwrt-22.03.5-mvebu-cortexa9-marvell_a370-db-squashfs-sysupgrade.bin",
      "sha256": "975bf0e7124c3e203017919eb44b05a8b4d7a54337f0fd1d920d1ebd6f568c71",
      "sha256_unsigned": "274a4660ae50668eb05c1fc0a798ec8045f5a1c6c8a026d760fa9c6cbe2101fc",
      "type": "sysupgrade"
    }
  ],
  "metadata_version": 1,
  "model_id": "marvell_a370-db",
  "source_date_epoch": 1682627295,
  "supported_devices": [
    "marvell,a370-db",
    "armada-370-db"
  ],
  "target": "mvebu/cortexa9",
  "titles": [
    {
      "model": "Armada 370 Development Board (DB-88F6710-BP-DDR3)",
      "vendor": "Marvell"
    }
  ],
  "version_code": "r20134-5f15225c1e",
  "version_number": "22.03.5"
}