{
  "arch_packages": "arm_cortex-a9",
  "build_at": "2023-09-22 06:59:57",
  "default_packages": [
    "base-files",
    "busybox",
    "ca-bundle",
    "dnsmasq",
    "dropbear",
    "firewall4",
    "fstools",
    "kmod-gpio-button-hotplug",
    "kmod-leds-gpio",
    "kmod-nft-offload",
    "libc",
    "libgcc",
    "libustream-wolfssl",
    "logd",
    "mtd",
    "netifd",
    "nftables",
    "nvram",
    "odhcp6c",
    "odhcpd-ipv6only",
    "opkg",
    "osafeloader",
    "oseama",
    "otrx",
    "ppp",
    "ppp-mod-pppoe",
    "procd",
    "procd-seccomp",
    "procd-ujail",
    "uci",
    "uclient-fetch",
    "urandom-seed",
    "urngd"
  ],
  "device_packages": [
    "wpad-basic-wolfssl",
    "kmod-brcmfmac",
    "brcmfmac-firmware-4366b1-pcie",
    "wpad-basic-wolfssl",
    "kmod-brcmfmac",
    "brcmfmac-firmware-4366c0-pcie",
    "kmod-usb-ohci",
    "kmod-usb2",
    "kmod-phy-bcm-ns-usb2",
    "kmod-usb-ledtrig-usbport",
    "kmod-usb3",
    "kmod-phy-bcm-ns-usb3",
    "iwinfo"
  ],
  "image_path": "releases/22.03.5/targets/bcm53xx/generic/",
  "image_prefix": "openwrt-22.03.5-bcm53xx-generic-asus_rt-ac88u",
  "images": [
    {
      "filesystem": "squashfs",
      "name": "openwrt-22.03.5-bcm53xx-generic-asus_rt-ac88u-squashfs.trx",
      "sha256": "645dee37856c9d70fbcfbd1c8194bb5de49989f79b292da84459f1bac3341727",
      "sha256_unsigned": "645dee37856c9d70fbcfbd1c8194bb5de49989f79b292da84459f1bac3341727",
      "type": "trx"
    }
  ],
  "metadata_version": 1,
  "model_id": "asus_rt-ac88u",
  "source_date_epoch": 1682627295,
  "supported_devices": [
    "asus,rt-ac88u"
  ],
  "target": "bcm53xx/generic",
  "titles": [
    {
      "model": "RT-AC88U",
      "vendor": "ASUS"
    }
  ],
  "version_code": "r20134-5f15225c1e",
  "version_number": "22.03.5"
}