{
  "arch_packages": "arm_cortex-a9",
  "build_at": "2023-09-22 06:59:57",
  "default_packages": [
    "base-files",
    "busybox",
    "ca-bundle",
    "dnsmasq",
    "dropbear",
    "firewall4",
    "fstools",
    "kmod-gpio-button-hotplug",
    "kmod-leds-gpio",
    "kmod-nft-offload",
    "libc",
    "libgcc",
    "libustream-wolfssl",
    "logd",
    "mtd",
    "netifd",
    "nftables",
    "nvram",
    "odhcp6c",
    "odhcpd-ipv6only",
    "opkg",
    "osafeloader",
    "oseama",
    "otrx",
    "ppp",
    "ppp-mod-pppoe",
    "procd",
    "procd-seccomp",
    "procd-ujail",
    "uci",
    "uclient-fetch",
    "urandom-seed",
    "urngd"
  ],
  "device_packages": [
    "kmod-usb-ohci",
    "kmod-usb2",
    "kmod-phy-bcm-ns-usb2",
    "kmod-usb-ledtrig-usbport",
    "kmod-usb3",
    "kmod-phy-bcm-ns-usb3"
  ],
  "image_path": "releases/22.03.5/targets/bcm53xx/generic/",
  "image_prefix": "openwrt-22.03.5-bcm53xx-generic-netgear_r7000",
  "images": [
    {
      "filesystem": "squashfs",
      "name": "openwrt-22.03.5-bcm53xx-generic-netgear_r7000-squashfs.chk",
      "sha256": "ad1d682d5bbb30564265fd5392560c844bbe25acd6f8de2e49570e22bfc0e5eb",
      "sha256_unsigned": "ad1d682d5bbb30564265fd5392560c844bbe25acd6f8de2e49570e22bfc0e5eb",
      "type": "chk"
    }
  ],
  "metadata_version": 1,
  "model_id": "netgear_r7000",
  "source_date_epoch": 1682627295,
  "supported_devices": [
    "netgear,r7000"
  ],
  "target": "bcm53xx/generic",
  "titles": [
    {
      "model": "R7000",
      "vendor": "NETGEAR"
    }
  ],
  "version_code": "r20134-5f15225c1e",
  "version_number": "22.03.5"
}