{
  "arch_packages": "aarch64_cortex-a53",
  "build_at": "2023-09-22 06:59:57",
  "default_packages": [
    "base-files",
    "libc",
    "libgcc",
    "busybox",
    "dropbear",
    "mtd",
    "uci",
    "opkg",
    "netifd",
    "fstools",
    "uclient-fetch",
    "logd",
    "urandom-seed",
    "urngd",
    "uboot-envtools",
    "kmod-gpio-button-hotplug",
    "e2fsprogs",
    "ethtool",
    "mkf2fs",
    "partx-utils",
    "dnsmasq",
    "iptables",
    "ip6tables",
    "ppp",
    "ppp-mod-pppoe",
    "firewall",
    "odhcpd-ipv6only",
    "odhcp6c",
    "kmod-ipt-offload",
    "uboot-envtools",
    "kmod-gpio-button-hotplug"
  ],
  "device_packages": [],
  "image_path": "releases/19.07.10/targets/mvebu/cortexa53/",
  "image_prefix": "openwrt-19.07.10-mvebu-cortexa53-globalscale_espressobin-v7",
  "images": [
    {
      "filesystem": "ext4",
      "name": "openwrt-19.07.10-mvebu-cortexa53-globalscale_espressobin-v7-ext4-sdcard.img.gz",
      "sha256": "86cf8735b3769447af11cab4504a3ceb8da8bcaf5fdd96fcbff848092f939d55",
      "type": "sdcard"
    },
    {
      "filesystem": "squashfs",
      "name": "openwrt-19.07.10-mvebu-cortexa53-globalscale_espressobin-v7-squashfs-sdcard.img.gz",
      "sha256": "bb23368805d02f16602ecae32acb8f35b64caf99532cee2123cd3c7e09b32c0c",
      "type": "sdcard"
    }
  ],
  "metadata_version": 1,
  "model_id": "globalscale_espressobin-v7",
  "source_date_epoch": 1650114812,
  "supported_devices": [
    "globalscale,espressobin-v7"
  ],
  "target": "mvebu/cortexa53",
  "titles": [
    {
      "title": "ESPRESSObin V7 (Marvell Armada 3700 Community Board)"
    }
  ],
  "version_code": "r11427-9ce6aa9d8d",
  "version_number": "19.07.10"
}